<?xml version="1.0" encoding="UTF-8" standalone="no"?>
<!-- Created with Inkscape (http://www.inkscape.org/) -->

<svg xmlns:dc="http://purl.org/dc/elements/1.1/" xmlns:cc="http://creativecommons.org/ns#" xmlns:rdf="http://www.w3.org/1999/02/22-rdf-syntax-ns#" xmlns:svg="http://www.w3.org/2000/svg" xmlns="http://www.w3.org/2000/svg" xmlns:sodipodi="http://sodipodi.sourceforge.net/DTD/sodipodi-0.dtd" xmlns:inkscape="http://www.inkscape.org/namespaces/inkscape" id="SVGRoot" version="1.1" inkscape:version="0.92+devel trunk-69-gf61892a23 2017-07-04 custom" width="12px" height="12px" viewBox="0 0 12 12" sodipodi:docname="transform-affect-gradient-symbolic.svg">
  <sodipodi:namedview id="base" pagecolor="#ffffff" bordercolor="#666666" borderopacity="1.0" inkscape:pageopacity="0.0" inkscape:pageshadow="2" inkscape:zoom="21.3333333333" inkscape:cx="6.0" inkscape:cy="6.0" inkscape:document-units="px" inkscape:current-layer="transform-affect-gradient" inkscape:document-rotation="0" showgrid="false" inkscape:grid-bbox="true" />
  <defs id="defs4721" />
  <metadata id="metadata4724">
    <rdf:RDF>
      <cc:Work rdf:about="">
        <dc:format>image/svg+xml</dc:format>
        <dc:type rdf:resource="http://purl.org/dc/dcmitype/StillImage" />
        <dc:title></dc:title>
      </cc:Work>
    </rdf:RDF>
  </metadata>
  <g inkscape:label="Layer 1" id="layer1" inkscape:groupmode="layer">
    <g id="transform-affect-gradient">
      <title id="title87927">transform-affect-gradient</title>
      <rect id="rect40500" style="stroke:none" width="3" height="12" x="9" y="0" />
      <rect id="rect20553" style="stroke:none" width="1" height="1" x="8" y="1" />
      <rect id="rect20559" style="stroke:none" width="1" height="1" x="8" y="7" />
      <rect id="rect20583" style="stroke:none" width="1" height="1" x="7" y="4" />
      <rect id="rect40502" style="stroke:none" width="1" height="1" x="6" y="5" />
      <rect id="rect40506" style="opacity:0.3;stroke:none" width="3" height="12" x="3" y="0" />
      <rect id="rect20613" style="opacity:0.3;stroke:none" width="1" height="1" x="1" y="0" />
      <rect id="rect20595" style="opacity:0.3;stroke:none" width="1" height="1" x="0" y="1" />
      <rect id="rect20615" style="opacity:0.3;stroke:none" width="1" height="1" x="1" y="6" />
      <rect id="rect20601" style="opacity:0.3;stroke:none" width="1" height="1" x="0" y="7" />
      <rect id="rect40508" style="opacity:0.3;stroke:none" width="1" height="1" x="2" y="3" />
      <rect id="rect20617" style="opacity:0.3;stroke:none" width="1" height="1" x="1" y="2" />
      <rect id="rect20597" style="opacity:0.3;stroke:none" width="1" height="1" x="0" y="3" />
      <rect id="rect20619" style="opacity:0.3;stroke:none" width="1" height="1" x="1" y="8" />
      <rect id="rect20607" style="opacity:0.3;stroke:none" width="1" height="1" x="0" y="9" />
      <rect id="rect20609" style="opacity:0.3;stroke:none" width="1" height="1" x="2" y="9" />
      <rect id="rect20621" style="opacity:0.3;stroke:none" width="1" height="1" x="1" y="10" />
      <rect id="rect20611" style="opacity:0.3;stroke:none" width="1" height="1" x="0" y="11" />
      <rect id="rect20603" style="opacity:0.3;stroke:none" width="1" height="1" x="2" y="11" />
      <rect id="rect40510" style="opacity:0.3;stroke:none" width="1" height="1" x="2" y="5" />
      <rect id="rect20599" style="opacity:0.3;stroke:none" width="1" height="1" x="2" y="1" />
      <rect id="rect20605" style="opacity:0.3;stroke:none" width="1" height="1" x="2" y="7" />
      <rect id="rect20623" style="opacity:0.3;stroke:none" width="1" height="1" x="1" y="4" />
      <rect id="rect40512" style="opacity:0.3;stroke:none" width="1" height="1" x="0" y="5" />
      <rect id="rect20585" style="stroke:none" width="1" height="1" x="7" y="0" />
      <rect id="rect20555" style="stroke:none" width="1" height="1" x="6" y="1" />
      <rect id="rect20587" style="stroke:none" width="1" height="1" x="7" y="6" />
      <rect id="rect20561" style="stroke:none" width="1" height="1" x="6" y="7" />
      <rect id="rect40514" style="stroke:none" width="1" height="1" x="8" y="3" />
      <rect id="rect20589" style="stroke:none" width="1" height="1" x="7" y="2" />
      <rect id="rect20557" style="stroke:none" width="1" height="1" x="6" y="3" />
      <rect id="rect20591" style="stroke:none" width="1" height="1" x="7" y="8" />
      <rect id="rect20565" style="stroke:none" width="1" height="1" x="6" y="9" />
      <rect id="rect20567" style="stroke:none" width="1" height="1" x="8" y="9" />
      <rect id="rect20593" style="stroke:none" width="1" height="1" x="7" y="10" />
      <rect id="rect20569" style="stroke:none" width="1" height="1" x="6" y="11" />
      <rect id="rect20563" style="stroke:none" width="1" height="1" x="8" y="11" />
      <rect id="rect40516" style="stroke:none" width="1" height="1" x="8" y="5" />
    </g>
  </g>
</svg>
