<?xml version="1.0" encoding="UTF-8" standalone="no"?>
<!-- Created with Inkscape (http://www.inkscape.org/) -->

<svg xmlns:dc="http://purl.org/dc/elements/1.1/" xmlns:cc="http://creativecommons.org/ns#" xmlns:rdf="http://www.w3.org/1999/02/22-rdf-syntax-ns#" xmlns:svg="http://www.w3.org/2000/svg" xmlns="http://www.w3.org/2000/svg" xmlns:sodipodi="http://sodipodi.sourceforge.net/DTD/sodipodi-0.dtd" xmlns:inkscape="http://www.inkscape.org/namespaces/inkscape" id="SVGRoot" version="1.1" inkscape:version="0.92+devel trunk-67-g1d2fa48c9 2017-07-04 custom" width="24px" height="24px" viewBox="0 0 24 24" sodipodi:docname="color-gradient-symbolic.svg">
  <sodipodi:namedview id="base" pagecolor="#ffffff" bordercolor="#666666" borderopacity="1.0" inkscape:pageopacity="0.0" inkscape:pageshadow="2" inkscape:zoom="10.6666666667" inkscape:cx="12.0" inkscape:cy="12.0" inkscape:document-units="px" inkscape:current-layer="color-gradient" inkscape:document-rotation="0" showgrid="false" inkscape:grid-bbox="true" />
  <defs id="defs4281" />
  <metadata id="metadata4284">
    <rdf:RDF>
      <cc:Work rdf:about="">
        <dc:format>image/svg+xml</dc:format>
        <dc:type rdf:resource="http://purl.org/dc/dcmitype/StillImage" />
        <dc:title></dc:title>
      </cc:Work>
    </rdf:RDF>
  </metadata>
  <g inkscape:label="Layer 1" id="layer1" inkscape:groupmode="layer">
    <g id="color-gradient">
      <title id="title30589">color-gradient</title>
      <path id="rect4244" d="M 0.92169189,0.9191258 V 23.075376 H 23.077942 V 0.9191258 Z m 1.00000001,1 H 21.890442 V 21.887876 H 1.9216919 Z" inkscape:connector-curvature="0" />
      <path id="rect18546" d="M 2.9216919,2.9191258 V 20.919126 l 8.6250001,-8.625 -4.3750001,-3.4062502 h -3.34375 v -4 h 4 v 3.21875 l 4.4375001,3.4687502 8.65625,-8.6562502 z" inkscape:connector-curvature="0" />
      <path id="path18574" style="opacity:0.3" d="M 20.921692,20.919126 V 2.9191258 l -8.625,8.6250002 4.375,3.40625 h 3.34375 v 4 h -4 v -3.21875 l -4.4375,-3.46875 -8.6562501,8.65625 z" inkscape:connector-curvature="0" />
    </g>
  </g>
</svg>
