<?xml version="1.0" encoding="UTF-8" standalone="no"?>
<!-- Created with Inkscape (http://www.inkscape.org/) -->

<svg xmlns:dc="http://purl.org/dc/elements/1.1/" xmlns:cc="http://creativecommons.org/ns#" xmlns:rdf="http://www.w3.org/1999/02/22-rdf-syntax-ns#" xmlns:svg="http://www.w3.org/2000/svg" xmlns="http://www.w3.org/2000/svg" xmlns:sodipodi="http://sodipodi.sourceforge.net/DTD/sodipodi-0.dtd" xmlns:inkscape="http://www.inkscape.org/namespaces/inkscape" id="SVGRoot" version="1.1" inkscape:version="0.92+devel trunk-69-gf61892a23 2017-07-04 custom" width="24px" height="24px" viewBox="0 0 24 24" sodipodi:docname="distribute-graph-directed-symbolic.svg">
  <sodipodi:namedview id="base" pagecolor="#ffffff" bordercolor="#666666" borderopacity="1.0" inkscape:pageopacity="0.0" inkscape:pageshadow="2" inkscape:zoom="10.6666666667" inkscape:cx="12.0" inkscape:cy="12.0" inkscape:document-units="px" inkscape:current-layer="distribute-graph-directed" inkscape:document-rotation="0" showgrid="false" inkscape:grid-bbox="true" />
  <defs id="defs5493" />
  <metadata id="metadata5496">
    <rdf:RDF>
      <cc:Work rdf:about="">
        <dc:format>image/svg+xml</dc:format>
        <dc:type rdf:resource="http://purl.org/dc/dcmitype/StillImage" />
        <dc:title></dc:title>
      </cc:Work>
    </rdf:RDF>
  </metadata>
  <g inkscape:label="Layer 1" id="layer1" inkscape:groupmode="layer">
    <g id="distribute-graph-directed">
      <title id="title113276">distribute-graph-directed</title>
      <g id="g15050">
        <path id="path14948" style="stroke:none" d="M 15,20.5 A 3.5,3.5 0 0 1 11.5,24 3.5,3.5 0 0 1 8,20.5 3.5,3.5 0 0 1 11.5,17 3.5,3.5 0 0 1 15,20.5" />
        <path id="path14950" style="stroke:none" d="M 15,3.5 A 3.5,3.5 0 0 1 11.5,7 3.5,3.5 0 0 1 8,3.5 3.5,3.5 0 0 1 11.5,0 3.5,3.5 0 0 1 15,3.5" />
        <path id="rect14952" style="stroke:none" d="m 11,9 v 3 H 8.5 l 3,3 3,-3 H 12 V 9 Z" inkscape:connector-curvature="0" />
      </g>
    </g>
  </g>
</svg>
