<?xml version="1.0" encoding="UTF-8" standalone="no"?>
<!-- Created with Inkscape (http://www.inkscape.org/) -->

<svg xmlns:dc="http://purl.org/dc/elements/1.1/" xmlns:cc="http://creativecommons.org/ns#" xmlns:rdf="http://www.w3.org/1999/02/22-rdf-syntax-ns#" xmlns:svg="http://www.w3.org/2000/svg" xmlns="http://www.w3.org/2000/svg" xmlns:sodipodi="http://sodipodi.sourceforge.net/DTD/sodipodi-0.dtd" xmlns:inkscape="http://www.inkscape.org/namespaces/inkscape" id="SVGRoot" version="1.1" inkscape:version="0.92+devel trunk-69-gf61892a23 2017-07-04 custom" width="24px" height="24px" viewBox="0 0 24 24" sodipodi:docname="distribute-graph-symbolic.svg">
  <sodipodi:namedview id="base" pagecolor="#ffffff" bordercolor="#666666" borderopacity="1.0" inkscape:pageopacity="0.0" inkscape:pageshadow="2" inkscape:zoom="10.6666666667" inkscape:cx="12.0" inkscape:cy="12.0" inkscape:document-units="px" inkscape:current-layer="distribute-graph" inkscape:document-rotation="0" showgrid="false" inkscape:grid-bbox="true" />
  <defs id="defs5256" />
  <metadata id="metadata5259">
    <rdf:RDF>
      <cc:Work rdf:about="">
        <dc:format>image/svg+xml</dc:format>
        <dc:type rdf:resource="http://purl.org/dc/dcmitype/StillImage" />
        <dc:title></dc:title>
      </cc:Work>
    </rdf:RDF>
  </metadata>
  <g inkscape:label="Layer 1" id="layer1" inkscape:groupmode="layer">
    <g id="distribute-graph">
      <title id="title113235">distribute-graph</title>
      <g id="g14118">
        <path id="path5302" style="color:#000000;opacity:1;fill-opacity:1;fill-rule:nonzero;stroke:none;stroke-opacity:1;stroke-width:1;stroke-linecap:butt;stroke-linejoin:miter;stroke-miterlimit:4;stroke-dasharray:none;stroke-dashoffset:0;solid-color:#000000;solid-opacity:1;mix-blend-mode:normal;isolation:auto;display:inline;visibility:visible;clip-rule:nonzero;color-interpolation:sRGB;color-rendering:auto;shape-rendering:auto" d="M 14.111328 2.8671875 L 3 5.0898438 L 3 18.140625 L 11.375 16.046875 L 17.761719 21.369141 L 20.978516 10.644531 L 20.021484 10.355469 L 17.238281 19.630859 L 12.041016 15.300781 L 14.111328 2.8671875 z M 12.886719 4.1328125 L 11.060547 15.09375 L 4 16.859375 L 4 5.9101562 L 12.886719 4.1328125 z " />
        <path id="path13269" style="stroke:none;stroke-width:10;stroke-linecap:round;stroke-linejoin:round" d="M 23,10.5 A 2.5,2.5 0 0 1 20.5,13 2.5,2.5 0 0 1 18,10.5 2.5,2.5 0 0 1 20.5,8 2.5,2.5 0 0 1 23,10.5" />
        <path id="path13271" style="stroke:none;stroke-width:10;stroke-linecap:round;stroke-linejoin:round" d="M 20,20.5 A 2.5,2.5 0 0 1 17.5,23 2.5,2.5 0 0 1 15,20.5 2.5,2.5 0 0 1 17.5,18 2.5,2.5 0 0 1 20,20.5" />
        <path id="path13273" style="stroke:none;stroke-width:10;stroke-linecap:round;stroke-linejoin:round" d="M 14,15.5 A 2.5,2.5 0 0 1 11.5,18 2.5,2.5 0 0 1 9,15.5 2.5,2.5 0 0 1 11.5,13 2.5,2.5 0 0 1 14,15.5" />
        <path id="path13275" style="stroke:none;stroke-width:10;stroke-linecap:round;stroke-linejoin:round" d="M 6,17.5 A 2.5,2.5 0 0 1 3.5,20 2.5,2.5 0 0 1 1,17.5 2.5,2.5 0 0 1 3.5,15 2.5,2.5 0 0 1 6,17.5" />
        <path id="path13277" style="stroke:none;stroke-width:10;stroke-linecap:round;stroke-linejoin:round" d="M 6,5.5 A 2.5,2.5 0 0 1 3.5,8 2.5,2.5 0 0 1 1,5.5 2.5,2.5 0 0 1 3.5,3 2.5,2.5 0 0 1 6,5.5" />
        <path id="path13279" style="stroke:none;stroke-width:10;stroke-linecap:round;stroke-linejoin:round" d="M 16,3.5 A 2.5,2.5 0 0 1 13.5,6 2.5,2.5 0 0 1 11,3.5 2.5,2.5 0 0 1 13.5,1 2.5,2.5 0 0 1 16,3.5" />
      </g>
    </g>
  </g>
</svg>
