<?xml version="1.0" encoding="UTF-8" standalone="no"?>
<!-- Created with Inkscape (http://www.inkscape.org/) -->

<svg xmlns:dc="http://purl.org/dc/elements/1.1/" xmlns:cc="http://creativecommons.org/ns#" xmlns:rdf="http://www.w3.org/1999/02/22-rdf-syntax-ns#" xmlns:svg="http://www.w3.org/2000/svg" xmlns="http://www.w3.org/2000/svg" xmlns:sodipodi="http://sodipodi.sourceforge.net/DTD/sodipodi-0.dtd" xmlns:inkscape="http://www.inkscape.org/namespaces/inkscape" id="SVGRoot" version="1.1" inkscape:version="0.92+devel trunk-90-g42bf908b4 2017-07-06 custom" width="24" height="24" viewBox="0 0 24 24" sodipodi:docname="draw-geometry-angle-bisector-symbolic.svg">
  <sodipodi:namedview id="base" pagecolor="#ffffff" bordercolor="#666666" borderopacity="1.0" inkscape:pageopacity="0.0" inkscape:pageshadow="2" inkscape:zoom="16.0" inkscape:cx="8.0" inkscape:cy="8.0" inkscape:document-units="px" inkscape:current-layer="draw-geometry-angle-bisector" inkscape:document-rotation="0" showgrid="false" inkscape:grid-bbox="true" />
  <defs id="defs4647" />
  <metadata id="metadata4650">
    <rdf:RDF>
      <cc:Work rdf:about="">
        <dc:format>image/svg+xml</dc:format>
        <dc:type rdf:resource="http://purl.org/dc/dcmitype/StillImage" />
        <dc:title></dc:title>
      </cc:Work>
    </rdf:RDF>
  </metadata>
  <g inkscape:label="Layer 1" id="layer1" inkscape:groupmode="layer">
    <g id="draw-geometry-angle-bisector">
      <title id="title10506">draw-geometry-angle-bisector</title>
      <path id="path4681" style="color:#000000;opacity:1;fill-opacity:1;fill-rule:nonzero;stroke:none;stroke-opacity:1;stroke-width:1;stroke-linecap:round;stroke-linejoin:miter;stroke-miterlimit:4;stroke-dasharray:none;stroke-dashoffset:0;solid-color:#000000;solid-opacity:1;mix-blend-mode:normal;isolation:auto;display:inline;visibility:visible;clip-rule:nonzero;color-interpolation:sRGB;color-rendering:auto;shape-rendering:auto" d="M 4.515625,4 A 0.5,0.5 0 0 0 4.1640625,4.1347656 0.5,0.5 0 0 0 4.1386719,4.8417969 L 18.138672,19.841797 a 0.5,0.5 0 0 0 0.707031,0.02344 0.5,0.5 0 0 0 0.02539,-0.707031 L 4.8710938,4.1582031 A 0.5,0.5 0 0 0 4.515625,4 Z" inkscape:connector-curvature="0" />
      <path id="path4687" style="color:#000000;opacity:1;fill-opacity:1;fill-rule:nonzero;stroke:none;stroke-opacity:1;stroke-width:1;stroke-linecap:round;stroke-linejoin:miter;stroke-miterlimit:4;stroke-dasharray:none;stroke-dashoffset:0;solid-color:#000000;solid-opacity:1;mix-blend-mode:normal;isolation:auto;display:inline;visibility:visible;clip-rule:nonzero;color-interpolation:sRGB;color-rendering:auto;shape-rendering:auto" d="M 6.7539062,6.6445312 10.023438,18.630859 a 0.5,0.5 0 0 0 0.613281,0.351563 0.5,0.5 0 0 0 0.349609,-0.613281 L 8.2539062,8.3535156 19.3125,12.960938 a 0.5,0.5 0 0 0 0.654297,-0.269532 0.5,0.5 0 0 0 -0.269531,-0.652343 z" inkscape:connector-curvature="0" />
    </g>
  </g>
</svg>
