<?xml version="1.0" encoding="UTF-8" standalone="no"?>
<!-- Created with Inkscape (http://www.inkscape.org/) -->

<svg xmlns:dc="http://purl.org/dc/elements/1.1/" xmlns:cc="http://creativecommons.org/ns#" xmlns:rdf="http://www.w3.org/1999/02/22-rdf-syntax-ns#" xmlns:svg="http://www.w3.org/2000/svg" xmlns="http://www.w3.org/2000/svg" xmlns:sodipodi="http://sodipodi.sourceforge.net/DTD/sodipodi-0.dtd" xmlns:inkscape="http://www.inkscape.org/namespaces/inkscape" id="SVGRoot" version="1.1" inkscape:version="0.92+devel trunk-90-g42bf908b4 2017-07-06 custom" width="24" height="24" viewBox="0 0 24 24" sodipodi:docname="object-tweak-attract-symbolic.svg">
  <sodipodi:namedview id="base" pagecolor="#ffffff" bordercolor="#666666" borderopacity="1.0" inkscape:pageopacity="0.0" inkscape:pageshadow="2" inkscape:zoom="16.0" inkscape:cx="8.0" inkscape:cy="8.0" inkscape:document-units="px" inkscape:current-layer="object-tweak-attract" inkscape:document-rotation="0" showgrid="false" inkscape:grid-bbox="true" />
  <defs id="defs4447" />
  <metadata id="metadata4450">
    <rdf:RDF>
      <cc:Work rdf:about="">
        <dc:format>image/svg+xml</dc:format>
        <dc:type rdf:resource="http://purl.org/dc/dcmitype/StillImage" />
        <dc:title></dc:title>
      </cc:Work>
    </rdf:RDF>
  </metadata>
  <g inkscape:label="Layer 1" id="layer1" inkscape:groupmode="layer">
    <g id="object-tweak-attract">
      <title id="title100108">object-tweak-attract</title>
      <path id="path5084" style="stroke:none" d="M 7.5141808,5.9557796 A 1.3405904,1.3405904 0 0 1 6.1735904,7.2963699 1.3405904,1.3405904 0 0 1 4.8330001,5.9557796 1.3405904,1.3405904 0 0 1 6.1735904,4.6151892 1.3405904,1.3405904 0 0 1 7.5141808,5.9557796" inkscape:connector-curvature="0" />
      <path id="use5124" style="stroke:none" d="m 16.375561,16.97742 a 1.3405904,1.3405904 0 0 1 -1.340591,1.34059 1.3405904,1.3405904 0 0 1 -1.34059,-1.34059 1.3405904,1.3405904 0 0 1 1.34059,-1.340591 1.3405904,1.3405904 0 0 1 1.340591,1.340591" inkscape:connector-curvature="0" />
      <path id="use5130" style="stroke:none" d="M 10.467981,17.054919 A 1.3405904,1.3405904 0 0 1 9.1273904,18.39551 1.3405904,1.3405904 0 0 1 7.7868,17.054919 a 1.3405904,1.3405904 0 0 1 1.3405904,-1.34059 1.3405904,1.3405904 0 0 1 1.3405906,1.34059" inkscape:connector-curvature="0" />
      <path id="use5088" style="stroke:none" d="M 18.62997,8.9831395 A 1.3405904,1.3405904 0 0 1 17.28938,10.32373 1.3405904,1.3405904 0 0 1 15.94879,8.9831395 1.3405904,1.3405904 0 0 1 17.28938,7.6425492 1.3405904,1.3405904 0 0 1 18.62997,8.9831395" inkscape:connector-curvature="0" />
      <path id="use5126" style="stroke:none" d="m 18.552481,15.037869 a 1.3405904,1.3405904 0 0 1 -1.340591,1.340591 1.3405904,1.3405904 0 0 1 -1.34059,-1.340591 1.3405904,1.3405904 0 0 1 1.34059,-1.34059 1.3405904,1.3405904 0 0 1 1.340591,1.34059" inkscape:connector-curvature="0" />
      <path id="use5090" style="stroke:none" d="m 17.895611,12.01051 a 1.3405904,1.3405904 0 0 1 -1.340591,1.34059 1.3405904,1.3405904 0 0 1 -1.34059,-1.34059 1.3405904,1.3405904 0 0 1 1.34059,-1.340591 1.3405904,1.3405904 0 0 1 1.340591,1.340591" inkscape:connector-curvature="0" />
      <path id="use5132" style="stroke:none" d="m 13.421771,16.36024 a 1.3405904,1.3405904 0 0 1 -1.34059,1.34059 1.3405904,1.3405904 0 0 1 -1.340591,-1.34059 1.3405904,1.3405904 0 0 1 1.340591,-1.34059 1.3405904,1.3405904 0 0 1 1.34059,1.34059" inkscape:connector-curvature="0" />
      <path id="use5086" style="stroke:none" d="m 16.220561,6.8876696 a 1.3405904,1.3405904 0 0 1 -1.34059,1.3405903 1.3405904,1.3405904 0 0 1 -1.340591,-1.3405903 1.3405904,1.3405904 0 0 1 1.340591,-1.3405904 1.3405904,1.3405904 0 0 1 1.34059,1.3405904" inkscape:connector-curvature="0" />
      <path id="use5092" style="stroke:none" d="M 10.467981,6.8101594 A 1.3405904,1.3405904 0 0 1 9.1273904,8.1507498 1.3405904,1.3405904 0 0 1 7.7868,6.8101594 1.3405904,1.3405904 0 0 1 9.1273904,5.4695691 1.3405904,1.3405904 0 0 1 10.467981,6.8101594" inkscape:connector-curvature="0" />
      <path id="use5094" style="stroke:none" d="M 19.32936,5.9557796 A 1.3405904,1.3405904 0 0 1 17.98877,7.2963699 1.3405904,1.3405904 0 0 1 16.648179,5.9557796 1.3405904,1.3405904 0 0 1 17.98877,4.6151892 1.3405904,1.3405904 0 0 1 19.32936,5.9557796" inkscape:connector-curvature="0" />
      <path id="use5096" style="stroke:none" d="M 8.8317205,12.01051 A 1.3405904,1.3405904 0 0 1 7.4911301,13.3511 1.3405904,1.3405904 0 0 1 6.1505398,12.01051 1.3405904,1.3405904 0 0 1 7.4911301,10.669919 1.3405904,1.3405904 0 0 1 8.8317205,12.01051" inkscape:connector-curvature="0" />
      <path id="use5098" style="stroke:none" d="m 8.2906007,15.037869 a 1.3405904,1.3405904 0 0 1 -1.3405904,1.340591 1.3405904,1.3405904 0 0 1 -1.3405904,-1.340591 1.3405904,1.3405904 0 0 1 1.3405904,-1.34059 1.3405904,1.3405904 0 0 1 1.3405904,1.34059" inkscape:connector-curvature="0" />
      <path id="use5100" style="stroke:none" d="m 13.421771,7.5445795 a 1.3405904,1.3405904 0 0 1 -1.34059,1.3405904 1.3405904,1.3405904 0 0 1 -1.340591,-1.3405904 1.3405904,1.3405904 0 0 1 1.340591,-1.3405904 1.3405904,1.3405904 0 0 1 1.34059,1.3405904" inkscape:connector-curvature="0" />
      <path id="use5103" style="stroke:none" d="M 8.1743406,8.9831395 A 1.3405904,1.3405904 0 0 1 6.8337502,10.32373 1.3405904,1.3405904 0 0 1 5.4931599,8.9831395 1.3405904,1.3405904 0 0 1 6.8337502,7.6425492 1.3405904,1.3405904 0 0 1 8.1743406,8.9831395" inkscape:connector-curvature="0" />
      <path id="use5106" style="stroke:none" d="M 10.739231,9.2543998 A 1.3405904,1.3405904 0 0 1 9.3986402,10.59499 1.3405904,1.3405904 0 0 1 8.0580498,9.2543998 1.3405904,1.3405904 0 0 1 9.3986402,7.9138094 1.3405904,1.3405904 0 0 1 10.739231,9.2543998" inkscape:connector-curvature="0" />
      <path id="use5108" style="stroke:none" d="M 10.661731,14.68911 A 1.3405904,1.3405904 0 0 1 9.3211403,16.0297 1.3405904,1.3405904 0 0 1 7.9805499,14.68911 1.3405904,1.3405904 0 0 1 9.3211403,13.348519 1.3405904,1.3405904 0 0 1 10.661731,14.68911" inkscape:connector-curvature="0" />
      <path id="use5110" style="stroke:none" d="m 13.421771,10.14568 a 1.3405904,1.3405904 0 0 1 -1.34059,1.34059 1.3405904,1.3405904 0 0 1 -1.340591,-1.34059 1.3405904,1.3405904 0 0 1 1.340591,-1.3405909 1.3405904,1.3405904 0 0 1 1.34059,1.3405909" inkscape:connector-curvature="0" />
      <path id="use5112" style="stroke:none" d="M 16.220561,9.3318996 A 1.3405904,1.3405904 0 0 1 14.879971,10.67249 1.3405904,1.3405904 0 0 1 13.53938,9.3318996 1.3405904,1.3405904 0 0 1 14.879971,7.9913093 1.3405904,1.3405904 0 0 1 16.220561,9.3318996" inkscape:connector-curvature="0" />
      <path id="use5114" style="stroke:none" d="M 11.475511,12.01051 A 1.3405904,1.3405904 0 0 1 10.13492,13.3511 1.3405904,1.3405904 0 0 1 8.7943298,12.01051 1.3405904,1.3405904 0 0 1 10.13492,10.669919 1.3405904,1.3405904 0 0 1 11.475511,12.01051" inkscape:connector-curvature="0" />
      <path id="use5116" style="stroke:none" d="m 13.421771,13.720329 a 1.3405904,1.3405904 0 0 1 -1.34059,1.340591 1.3405904,1.3405904 0 0 1 -1.340591,-1.340591 1.3405904,1.3405904 0 0 1 1.340591,-1.34059 1.3405904,1.3405904 0 0 1 1.34059,1.34059" inkscape:connector-curvature="0" />
      <path id="use5120" style="stroke:none" d="m 15.213031,12.01051 a 1.3405904,1.3405904 0 0 1 -1.340591,1.34059 1.3405904,1.3405904 0 0 1 -1.34059,-1.34059 1.3405904,1.3405904 0 0 1 1.34059,-1.340591 1.3405904,1.3405904 0 0 1 1.340591,1.340591" inkscape:connector-curvature="0" />
      <path id="use5122" style="stroke:none" d="m 16.143061,14.72787 a 1.3405904,1.3405904 0 0 1 -1.340591,1.34059 1.3405904,1.3405904 0 0 1 -1.34059,-1.34059 1.3405904,1.3405904 0 0 1 1.34059,-1.34059 1.3405904,1.3405904 0 0 1 1.340591,1.34059" inkscape:connector-curvature="0" />
      <path id="use5128" style="stroke:none" d="M 7.5141805,18.06524 A 1.3405904,1.3405904 0 0 1 6.1735902,19.40583 1.3405904,1.3405904 0 0 1 4.8329998,18.06524 1.3405904,1.3405904 0 0 1 6.1735902,16.72465 1.3405904,1.3405904 0 0 1 7.5141805,18.06524" inkscape:connector-curvature="0" />
      <path id="use5134" style="stroke:none" d="m 19.32936,18.06524 a 1.3405904,1.3405904 0 0 1 -1.34059,1.34059 1.3405904,1.3405904 0 0 1 -1.340591,-1.34059 1.3405904,1.3405904 0 0 1 1.340591,-1.34059 1.3405904,1.3405904 0 0 1 1.34059,1.34059" inkscape:connector-curvature="0" />
    </g>
  </g>
</svg>
