<?xml version="1.0" encoding="UTF-8" standalone="no"?>
<!-- Created with Inkscape (http://www.inkscape.org/) -->

<svg xmlns:dc="http://purl.org/dc/elements/1.1/" xmlns:cc="http://creativecommons.org/ns#" xmlns:rdf="http://www.w3.org/1999/02/22-rdf-syntax-ns#" xmlns:svg="http://www.w3.org/2000/svg" xmlns="http://www.w3.org/2000/svg" xmlns:sodipodi="http://sodipodi.sourceforge.net/DTD/sodipodi-0.dtd" xmlns:inkscape="http://www.inkscape.org/namespaces/inkscape" id="SVGRoot" version="1.1" inkscape:version="0.92+devel trunk-69-gf61892a23 2017-07-04 custom" width="24" height="24" viewBox="0 0 24 24" sodipodi:docname="paint-gradient-conical-symbolic.svg">
  <sodipodi:namedview id="base" pagecolor="#ffffff" bordercolor="#666666" borderopacity="1.0" inkscape:pageopacity="0.0" inkscape:pageshadow="2" inkscape:zoom="16.0" inkscape:cx="8.0" inkscape:cy="8.0" inkscape:document-units="px" inkscape:current-layer="paint-gradient-conical" inkscape:document-rotation="0" showgrid="false" inkscape:grid-bbox="true" />
  <defs id="defs9944" />
  <metadata id="metadata9947">
    <rdf:RDF>
      <cc:Work rdf:about="">
        <dc:format>image/svg+xml</dc:format>
        <dc:type rdf:resource="http://purl.org/dc/dcmitype/StillImage" />
        <dc:title></dc:title>
      </cc:Work>
    </rdf:RDF>
  </metadata>
  <g inkscape:label="Layer 1" id="layer1" inkscape:groupmode="layer">
    <g id="paint-gradient-conical">
      <path id="path32020" style="opacity:0.5;stroke:none" sodipodi:type="arc" d="M 4.5,12 A 7.5,7.5 0 0 1 12,4.5 l 0,7.5 z" sodipodi:cx="12" sodipodi:cy="12" sodipodi:rx="7.5" sodipodi:ry="7.5" sodipodi:start="3.1415927" sodipodi:end="4.712389" sodipodi:arc-type="slice" />
      <path id="path32022" style="opacity:0.5;stroke:none" sodipodi:type="arc" d="M 19.5,12 A 7.5,7.5 0 0 1 12,19.5 L 12,12 Z" sodipodi:cx="12" sodipodi:cy="12" sodipodi:rx="7.5" sodipodi:ry="7.5" sodipodi:start="0" sodipodi:end="1.5707963" sodipodi:arc-type="slice" />
      <path id="path9978" style="color:#000000;opacity:1;fill-opacity:1;fill-rule:nonzero;stroke:none;stroke-opacity:1;stroke-width:1;stroke-linecap:butt;stroke-linejoin:miter;stroke-miterlimit:4;stroke-dasharray:none;stroke-dashoffset:0;solid-color:#000000;solid-opacity:1;mix-blend-mode:normal;isolation:auto;display:inline;visibility:visible;clip-rule:nonzero;color-interpolation:sRGB;color-rendering:auto;shape-rendering:auto" d="m 12,4 c -4.4123557,0 -8,3.5876443 -8,8 0,4.412356 3.5876443,8 8,8 4.412356,0 8,-3.587644 8,-8 0,-4.4123557 -3.587644,-8 -8,-8 z m 0,1 c 3.871916,0 7,3.1280844 7,7 0,3.871916 -3.128084,7 -7,7 C 8.1280844,19 5,15.871916 5,12 5,8.1280844 8.1280844,5 12,5 Z" inkscape:connector-curvature="0" />
    </g>
  </g>
</svg>
