<?xml version="1.0" encoding="UTF-8" standalone="no"?>
<!-- Created with Inkscape (http://www.inkscape.org/) -->

<svg xmlns:dc="http://purl.org/dc/elements/1.1/" xmlns:cc="http://creativecommons.org/ns#" xmlns:rdf="http://www.w3.org/1999/02/22-rdf-syntax-ns#" xmlns:svg="http://www.w3.org/2000/svg" xmlns="http://www.w3.org/2000/svg" xmlns:sodipodi="http://sodipodi.sourceforge.net/DTD/sodipodi-0.dtd" xmlns:inkscape="http://www.inkscape.org/namespaces/inkscape" id="SVGRoot" version="1.1" inkscape:version="0.92+devel trunk-69-gf61892a23 2017-07-04 custom" width="24" height="24" viewBox="0 0 24 24" sodipodi:docname="paint-gradient-radial-symbolic.svg">
  <sodipodi:namedview id="base" pagecolor="#ffffff" bordercolor="#666666" borderopacity="1.0" inkscape:pageopacity="0.0" inkscape:pageshadow="2" inkscape:zoom="16.0" inkscape:cx="8.0" inkscape:cy="8.0" inkscape:document-units="px" inkscape:current-layer="paint-gradient-radial" inkscape:document-rotation="0" showgrid="false" inkscape:grid-bbox="true" />
  <defs id="defs5678" />
  <metadata id="metadata5681">
    <rdf:RDF>
      <cc:Work rdf:about="">
        <dc:format>image/svg+xml</dc:format>
        <dc:type rdf:resource="http://purl.org/dc/dcmitype/StillImage" />
        <dc:title></dc:title>
      </cc:Work>
    </rdf:RDF>
  </metadata>
  <g inkscape:label="Layer 1" id="layer1" inkscape:groupmode="layer">
    <g id="paint-gradient-radial">
      <title id="title112053">paint-gradient-radial</title>
      <g id="g14945">
        <g id="g29916" transform="translate(4,4)">
          <rect id="rect13462" style="stroke:none" width="1" height="1" x="8" y="7" />
          <rect id="rect13464" style="stroke:none" width="1" height="1" x="9" y="7" />
          <rect id="rect13492" style="stroke:none" width="1" height="1" x="10" y="7" />
          <rect id="rect13466" style="stroke:none" width="1" height="1" x="10" y="8" />
          <rect id="rect13472" style="stroke:none" width="1" height="1" x="8" y="6" />
          <rect id="rect13474" style="stroke:none" width="1" height="1" x="9" y="6" />
          <rect id="rect13526" style="stroke:none" width="1" height="1" x="5" y="5" />
          <rect id="rect13528" style="stroke:none" width="1" height="1" x="4" y="6" />
          <rect id="rect13530" style="stroke:none" width="1" height="1" x="6" y="4" />
          <rect id="rect13532" style="stroke:none" width="1" height="1" x="9" y="4" />
          <rect id="rect13534" style="stroke:none" width="1" height="1" x="10" y="5" />
          <rect id="rect13536" style="stroke:none" width="1" height="1" x="11" y="6" />
          <rect id="rect13538" style="stroke:none" width="1" height="1" x="11" y="9" />
          <rect id="rect13540" style="stroke:none" width="1" height="1" x="10" y="10" />
          <rect id="rect13542" style="stroke:none" width="1" height="1" x="9" y="11" />
          <rect id="rect13544" style="stroke:none" width="1" height="1" x="4" y="9" />
          <rect id="rect13546" style="stroke:none" width="1" height="1" x="5" y="10" />
          <rect id="rect13548" style="stroke:none" width="1" height="1" x="6" y="11" />
          <rect id="rect13550" style="stroke:none" width="1" height="1" x="7" y="12" />
          <rect id="rect13552" style="stroke:none" width="1" height="1" x="8" y="12" />
          <rect id="rect13554" style="stroke:none" width="1" height="1" x="12" y="8" />
          <rect id="rect13556" style="stroke:none" width="1" height="1" x="12" y="7" />
          <rect id="rect13558" style="stroke:none" width="1" height="1" x="8" y="3" />
          <rect id="rect13560" style="stroke:none" width="1" height="1" x="7" y="3" />
          <rect id="rect13562" style="stroke:none" width="1" height="1" x="3" y="7" />
          <rect id="rect13564" style="stroke:none" width="1" height="1" x="3" y="8" />
          <rect id="rect13566" style="stroke:none" width="1" height="1" x="3" y="10" />
          <rect id="rect13568" style="stroke:none" width="1" height="1" x="4" y="11" />
          <rect id="rect13570" style="stroke:none" width="1" height="1" x="5" y="12" />
          <rect id="rect13578" style="stroke:none" width="1" height="1" x="10" y="12" />
          <rect id="rect13580" style="stroke:none" width="1" height="1" x="11" y="11" />
          <rect id="rect13582" style="stroke:none" width="1" height="1" x="12" y="10" />
          <rect id="rect13588" style="stroke:none" width="1" height="1" x="12" y="5" />
          <rect id="rect13590" style="stroke:none" width="1" height="1" x="11" y="4" />
          <rect id="rect13592" style="stroke:none" width="1" height="1" x="10" y="3" />
          <rect id="rect13598" style="stroke:none" width="1" height="1" x="5" y="3" />
          <rect id="rect13600" style="stroke:none" width="1" height="1" x="4" y="4" />
          <rect id="rect13602" style="stroke:none" width="1" height="1" x="3" y="5" />
          <rect id="rect13454" style="stroke:none" width="1" height="1" x="8" y="5" />
          <rect id="rect13482" style="stroke:none" width="1" height="1" x="8" y="8" />
          <rect id="rect13494" style="stroke:none" width="1" height="1" x="9" y="8" />
          <rect id="rect13484" style="stroke:none" width="1" height="1" x="9" y="9" />
          <rect id="rect13496" style="stroke:none" width="1" height="1" x="8" y="9" />
          <rect id="rect13488" style="stroke:none" width="1" height="1" x="8" y="10" />
          <rect id="rect13498" style="stroke:none" width="1" height="1" x="7" y="7" />
          <rect id="rect13500" style="stroke:none" width="1" height="1" x="6" y="7" />
          <rect id="rect13502" style="stroke:none" width="1" height="1" x="5" y="7" />
          <rect id="rect13504" style="stroke:none" width="1" height="1" x="5" y="8" />
          <rect id="rect13506" style="stroke:none" width="1" height="1" x="7" y="6" />
          <rect id="rect13508" style="stroke:none" width="1" height="1" x="6" y="6" />
          <rect id="rect13510" style="stroke:none" width="1" height="1" x="7" y="5" />
          <rect id="rect13512" style="stroke:none" width="1" height="1" x="7" y="8" />
          <rect id="rect13514" style="stroke:none" width="1" height="1" x="6" y="8" />
          <rect id="rect13516" style="stroke:none" width="1" height="1" x="6" y="9" />
          <rect id="rect13518" style="stroke:none" width="1" height="1" x="7" y="9" />
          <rect id="rect13520" style="stroke:none" width="1" height="1" x="7" y="10" />
        </g>
        <g id="g29974" transform="translate(4,4)">
          <rect id="rect13686" style="opacity:0.3;stroke:none" width="1" height="1" x="1" y="9" />
          <rect id="rect13688" style="opacity:0.3;stroke:none" width="1" height="1" x="2" y="10" />
          <rect id="rect13690" style="opacity:0.3;stroke:none" width="1" height="1" x="3" y="11" />
          <rect id="rect13692" style="opacity:0.3;stroke:none" width="1" height="1" x="4" y="12" />
          <rect id="rect13694" style="opacity:0.3;stroke:none" width="1" height="1" x="5" y="13" />
          <rect id="rect13696" style="opacity:0.3;stroke:none" width="1" height="1" x="6" y="14" />
          <rect id="rect13698" style="opacity:0.3;stroke:none" width="1" height="1" x="9" y="14" />
          <rect id="rect13701" style="opacity:0.3;stroke:none" width="1" height="1" x="10" y="13" />
          <rect id="rect13703" style="opacity:0.3;stroke:none" width="1" height="1" x="11" y="12" />
          <rect id="rect13705" style="opacity:0.3;stroke:none" width="1" height="1" x="12" y="11" />
          <rect id="rect13707" style="opacity:0.3;stroke:none" width="1" height="1" x="13" y="10" />
          <rect id="rect13709" style="opacity:0.3;stroke:none" width="1" height="1" x="14" y="9" />
          <rect id="rect13711" style="opacity:0.3;stroke:none" width="1" height="1" x="14" y="6" />
          <rect id="rect13713" style="opacity:0.3;stroke:none" width="1" height="1" x="13" y="5" />
          <rect id="rect13715" style="opacity:0.3;stroke:none" width="1" height="1" x="12" y="4" />
          <rect id="rect13717" style="opacity:0.3;stroke:none" width="1" height="1" x="11" y="3" />
          <rect id="rect13723" style="opacity:0.3;stroke:none" width="1" height="1" x="10" y="2" />
          <rect id="rect13725" style="opacity:0.3;stroke:none" width="1" height="1" x="9" y="1" />
          <rect id="rect13727" style="opacity:0.3;stroke:none" width="1" height="1" x="6" y="1" />
          <rect id="rect13729" style="opacity:0.3;stroke:none" width="1" height="1" x="5" y="2" />
          <rect id="rect13731" style="opacity:0.3;stroke:none" width="1" height="1" x="4" y="3" />
          <rect id="rect13733" style="opacity:0.3;stroke:none" width="1" height="1" x="3" y="4" />
          <rect id="rect13735" style="opacity:0.3;stroke:none" width="1" height="1" x="2" y="5" />
          <rect id="rect13737" style="opacity:0.3;stroke:none" width="1" height="1" x="1" y="6" />
          <rect id="rect13739" style="opacity:0.3;stroke:none" width="1" height="1" x="0" y="11" />
          <rect id="rect13741" style="opacity:0.3;stroke:none" width="1" height="1" x="1" y="12" />
          <rect id="rect13743" style="opacity:0.3;stroke:none" width="1" height="1" x="2" y="13" />
          <rect id="rect13745" style="opacity:0.3;stroke:none" width="1" height="1" x="3" y="14" />
          <rect id="rect13747" style="opacity:0.3;stroke:none" width="1" height="1" x="4" y="15" />
          <rect id="rect13749" style="opacity:0.3;stroke:none" width="1" height="1" x="0" y="13" />
          <rect id="rect13751" style="opacity:0.3;stroke:none" width="1" height="1" x="0" y="15" />
          <rect id="rect13753" style="opacity:0.3;stroke:none" width="1" height="1" x="1" y="14" />
          <rect id="rect13719" style="opacity:0.3;stroke:none" width="1" height="1" x="2" y="15" />
          <rect id="rect13572" style="opacity:0.3;stroke:none" width="1" height="1" x="6" y="13" />
          <rect id="rect13817" style="opacity:0.3;stroke:none" width="1" height="1" x="7" y="14" />
          <rect id="rect13616" style="opacity:0.3;stroke:none" width="1" height="1" x="7" y="13" />
          <rect id="rect13819" style="opacity:0.3;stroke:none" width="1" height="1" x="8" y="14" />
          <rect id="rect13618" style="opacity:0.3;stroke:none" width="1" height="1" x="8" y="13" />
          <rect id="rect13620" style="opacity:0.3;stroke:none" width="1" height="1" x="14" y="8" />
          <rect id="rect13622" style="opacity:0.3;stroke:none" width="1" height="1" x="14" y="7" />
          <rect id="rect13821" style="opacity:0.3;stroke:none" width="1" height="1" x="8" y="1" />
          <rect id="rect13624" style="opacity:0.3;stroke:none" width="1" height="1" x="8" y="2" />
          <rect id="rect13823" style="opacity:0.3;stroke:none" width="1" height="1" x="7" y="1" />
          <rect id="rect13626" style="opacity:0.3;stroke:none" width="1" height="1" x="7" y="2" />
          <rect id="rect13809" style="opacity:0.3;stroke:none" width="1" height="1" x="1" y="7" />
          <rect id="rect13813" style="opacity:0.3;stroke:none" width="1" height="1" x="2" y="7" />
          <rect id="rect13628" style="opacity:0.3;stroke:none" width="1" height="1" x="13" y="7" />
          <rect id="rect13811" style="opacity:0.3;stroke:none" width="1" height="1" x="1" y="8" />
          <rect id="rect13815" style="opacity:0.3;stroke:none" width="1" height="1" x="2" y="8" />
          <rect id="rect13630" style="opacity:0.3;stroke:none" width="1" height="1" x="13" y="8" />
          <rect id="rect13632" style="opacity:0.3;stroke:none" width="1" height="1" x="1" y="10" />
          <rect id="rect13634" style="opacity:0.3;stroke:none" width="1" height="1" x="2" y="11" />
          <rect id="rect13636" style="opacity:0.3;stroke:none" width="1" height="1" x="3" y="12" />
          <rect id="rect13638" style="opacity:0.3;stroke:none" width="1" height="1" x="4" y="13" />
          <rect id="rect13640" style="opacity:0.3;stroke:none" width="1" height="1" x="5" y="14" />
          <rect id="rect13642" style="opacity:0.3;stroke:none" width="1" height="1" x="6" y="15" />
          <rect id="rect13644" style="opacity:0.3;stroke:none" width="1" height="1" x="9" y="15" />
          <rect id="rect13646" style="opacity:0.3;stroke:none" width="1" height="1" x="10" y="14" />
          <rect id="rect13648" style="opacity:0.3;stroke:none" width="1" height="1" x="11" y="13" />
          <rect id="rect13650" style="opacity:0.3;stroke:none" width="1" height="1" x="12" y="12" />
          <rect id="rect13652" style="opacity:0.3;stroke:none" width="1" height="1" x="13" y="11" />
          <rect id="rect13654" style="opacity:0.3;stroke:none" width="1" height="1" x="14" y="10" />
          <rect id="rect13656" style="opacity:0.3;stroke:none" width="1" height="1" x="15" y="9" />
          <rect id="rect13658" style="opacity:0.3;stroke:none" width="1" height="1" x="15" y="6" />
          <rect id="rect13660" style="opacity:0.3;stroke:none" width="1" height="1" x="14" y="5" />
          <rect id="rect13662" style="opacity:0.3;stroke:none" width="1" height="1" x="13" y="4" />
          <rect id="rect13664" style="opacity:0.3;stroke:none" width="1" height="1" x="12" y="3" />
          <rect id="rect13666" style="opacity:0.3;stroke:none" width="1" height="1" x="11" y="2" />
          <rect id="rect13668" style="opacity:0.3;stroke:none" width="1" height="1" x="10" y="1" />
          <rect id="rect13670" style="opacity:0.3;stroke:none" width="1" height="1" x="9" y="0" />
          <rect id="rect13672" style="opacity:0.3;stroke:none" width="1" height="1" x="6" y="0" />
          <rect id="rect13674" style="opacity:0.3;stroke:none" width="1" height="1" x="5" y="1" />
          <rect id="rect13676" style="opacity:0.3;stroke:none" width="1" height="1" x="4" y="2" />
          <rect id="rect13678" style="opacity:0.3;stroke:none" width="1" height="1" x="3" y="3" />
          <rect id="rect13680" style="opacity:0.3;stroke:none" width="1" height="1" x="2" y="4" />
          <rect id="rect13682" style="opacity:0.3;stroke:none" width="1" height="1" x="1" y="5" />
          <rect id="rect13684" style="opacity:0.3;stroke:none" width="1" height="1" x="0" y="6" />
          <rect id="rect13574" style="opacity:0.3;stroke:none" width="1" height="1" x="0" y="9" />
          <rect id="rect13576" style="opacity:0.3;stroke:none" width="1" height="1" x="9" y="13" />
          <rect id="rect13584" style="opacity:0.3;stroke:none" width="1" height="1" x="13" y="9" />
          <rect id="rect13586" style="opacity:0.3;stroke:none" width="1" height="1" x="13" y="6" />
          <rect id="rect13594" style="opacity:0.3;stroke:none" width="1" height="1" x="9" y="2" />
          <rect id="rect13596" style="opacity:0.3;stroke:none" width="1" height="1" x="6" y="2" />
          <rect id="rect13604" style="opacity:0.3;stroke:none" width="1" height="1" x="2" y="6" />
          <rect id="rect13476" style="opacity:0.3;stroke:none" width="1" height="1" x="2" y="9" />
          <rect id="rect13755" style="opacity:0.3;stroke:none" width="1" height="1" x="15" y="11" />
          <rect id="rect13757" style="opacity:0.3;stroke:none" width="1" height="1" x="14" y="12" />
          <rect id="rect13759" style="opacity:0.3;stroke:none" width="1" height="1" x="13" y="13" />
          <rect id="rect13761" style="opacity:0.3;stroke:none" width="1" height="1" x="12" y="14" />
          <rect id="rect13763" style="opacity:0.3;stroke:none" width="1" height="1" x="11" y="15" />
          <rect id="rect13765" style="opacity:0.3;stroke:none" width="1" height="1" x="15" y="13" />
          <rect id="rect13767" style="opacity:0.3;stroke:none" width="1" height="1" x="15" y="15" />
          <rect id="rect13769" style="opacity:0.3;stroke:none" width="1" height="1" x="14" y="14" />
          <rect id="rect13771" style="opacity:0.3;stroke:none" width="1" height="1" x="13" y="15" />
          <rect id="rect13773" style="opacity:0.3;stroke:none" width="1" height="1" x="15" y="4" />
          <rect id="rect13775" style="opacity:0.3;stroke:none" width="1" height="1" x="14" y="3" />
          <rect id="rect13777" style="opacity:0.3;stroke:none" width="1" height="1" x="13" y="2" />
          <rect id="rect13779" style="opacity:0.3;stroke:none" width="1" height="1" x="12" y="1" />
          <rect id="rect13781" style="opacity:0.3;stroke:none" width="1" height="1" x="11" y="0" />
          <rect id="rect13783" style="opacity:0.3;stroke:none" width="1" height="1" x="15" y="2" />
          <rect id="rect13785" style="opacity:0.3;stroke:none" width="1" height="1" x="15" y="0" />
          <rect id="rect13787" style="opacity:0.3;stroke:none" width="1" height="1" x="14" y="1" />
          <rect id="rect13789" style="opacity:0.3;stroke:none" width="1" height="1" x="13" y="0" />
          <rect id="rect13791" style="opacity:0.3;stroke:none" width="1" height="1" x="0" y="4" />
          <rect id="rect13793" style="opacity:0.3;stroke:none" width="1" height="1" x="1" y="3" />
          <rect id="rect13995" style="opacity:0.3;stroke:none" width="1" height="1" x="2" y="2" />
          <rect id="rect13997" style="opacity:0.3;stroke:none" width="1" height="1" x="2" y="3" />
          <rect id="rect13999" style="opacity:0.3;stroke:none" width="1" height="1" x="3" y="2" />
          <rect id="rect14001" style="opacity:0.3;stroke:none" width="1" height="1" x="12" y="2" />
          <rect id="rect14003" style="opacity:0.3;stroke:none" width="1" height="1" x="13" y="3" />
          <rect id="rect14005" style="opacity:0.3;stroke:none" width="1" height="1" x="13" y="12" />
          <rect id="rect14007" style="opacity:0.3;stroke:none" width="1" height="1" x="12" y="13" />
          <rect id="rect14009" style="opacity:0.3;stroke:none" width="1" height="1" x="3" y="13" />
          <rect id="rect13795" style="opacity:0.3;stroke:none" width="1" height="1" x="2" y="12" />
          <rect id="rect13797" style="opacity:0.3;stroke:none" width="1" height="1" x="3" y="1" />
          <rect id="rect13799" style="opacity:0.3;stroke:none" width="1" height="1" x="4" y="0" />
          <rect id="rect13801" style="opacity:0.3;stroke:none" width="1" height="1" x="0" y="2" />
          <rect id="rect13803" style="opacity:0.3;stroke:none" width="1" height="1" x="0" y="0" />
          <rect id="rect13805" style="opacity:0.3;stroke:none" width="1" height="1" x="1" y="1" />
          <rect id="rect13807" style="opacity:0.3;stroke:none" width="1" height="1" x="2" y="0" />
        </g>
      </g>
    </g>
  </g>
</svg>
