<?xml version="1.0" encoding="UTF-8" standalone="no"?>
<!-- Created with Inkscape (http://www.inkscape.org/) -->

<svg xmlns:dc="http://purl.org/dc/elements/1.1/" xmlns:cc="http://creativecommons.org/ns#" xmlns:rdf="http://www.w3.org/1999/02/22-rdf-syntax-ns#" xmlns:svg="http://www.w3.org/2000/svg" xmlns="http://www.w3.org/2000/svg" xmlns:sodipodi="http://sodipodi.sourceforge.net/DTD/sodipodi-0.dtd" xmlns:inkscape="http://www.inkscape.org/namespaces/inkscape" id="SVGRoot" version="1.1" inkscape:version="0.92+devel trunk-67-g1d2fa48c9 2017-07-04 custom" width="24px" height="24px" viewBox="0 0 24 24" sodipodi:docname="paint-order-fms-symbolic.svg">
  <sodipodi:namedview id="base" pagecolor="#ffffff" bordercolor="#666666" borderopacity="1.0" inkscape:pageopacity="0.0" inkscape:pageshadow="2" inkscape:zoom="10.6666666667" inkscape:cx="12.0" inkscape:cy="12.0" inkscape:document-units="px" inkscape:current-layer="paint-order-fms" inkscape:document-rotation="0" showgrid="false" inkscape:grid-bbox="true" />
  <defs id="defs5645" />
  <metadata id="metadata5648">
    <rdf:RDF>
      <cc:Work rdf:about="">
        <dc:format>image/svg+xml</dc:format>
        <dc:type rdf:resource="http://purl.org/dc/dcmitype/StillImage" />
        <dc:title></dc:title>
      </cc:Work>
    </rdf:RDF>
  </metadata>
  <g inkscape:label="Layer 1" id="layer1" inkscape:groupmode="layer">
    <g id="paint-order-fms">
      <title id="title13497">paint-order-fms</title>
      <path id="path6122" style="stroke:none" d="M 18.65039,15 A 10,10 0 0 1 15,18.6445 V 23 h 8 v -8 z" inkscape:connector-curvature="0" />
      <path id="path6124" style="stroke:none" d="m 10,1 a 9,9 0 0 0 -9,9 9,9 0 0 0 4,7.4785 V 5 H 17.47461 A 9,9 0 0 0 10,1 Z m 5,14 v 2.4746 A 9,9 0 0 0 17.47852,15 Z" inkscape:connector-curvature="0" />
      <path id="path6126" style="stroke:none" d="m 6,6 v 17 h 3 v -2 h 2 v 2 h 3 v -9 h 9 V 11 H 21 V 9 h 2 V 6 Z m 3,3 h 2 v 2 H 9 Z m 4,0 h 2 v 2 h -2 z m 4,0 h 2 v 2 h -2 z m -8,4 h 2 v 2 H 9 Z m 0,4 h 2 v 2 H 9 Z" inkscape:connector-curvature="0" sodipodi:nodetypes="cccccccccccccccccccccccccccccccccccccccc" />
    </g>
  </g>
</svg>
