<?xml version="1.0" encoding="UTF-8" standalone="no"?>
<!-- Created with Inkscape (http://www.inkscape.org/) -->

<svg xmlns:dc="http://purl.org/dc/elements/1.1/" xmlns:cc="http://creativecommons.org/ns#" xmlns:rdf="http://www.w3.org/1999/02/22-rdf-syntax-ns#" xmlns:svg="http://www.w3.org/2000/svg" xmlns="http://www.w3.org/2000/svg" xmlns:sodipodi="http://sodipodi.sourceforge.net/DTD/sodipodi-0.dtd" xmlns:inkscape="http://www.inkscape.org/namespaces/inkscape" id="SVGRoot" version="1.1" inkscape:version="0.92+devel trunk-90-g42bf908b4 2017-07-06 custom" width="24" height="24" viewBox="0 0 24 24" sodipodi:docname="path-tweak-shrink-symbolic.svg">
  <sodipodi:namedview id="base" pagecolor="#ffffff" bordercolor="#666666" borderopacity="1.0" inkscape:pageopacity="0.0" inkscape:pageshadow="2" inkscape:zoom="16.0" inkscape:cx="8.0" inkscape:cy="8.0" inkscape:document-units="px" inkscape:current-layer="path-tweak-shrink" inkscape:document-rotation="0" showgrid="false" inkscape:grid-bbox="true" />
  <defs id="defs5052" />
  <metadata id="metadata5055">
    <rdf:RDF>
      <cc:Work rdf:about="">
        <dc:format>image/svg+xml</dc:format>
        <dc:type rdf:resource="http://purl.org/dc/dcmitype/StillImage" />
        <dc:title></dc:title>
      </cc:Work>
    </rdf:RDF>
  </metadata>
  <g inkscape:label="Layer 1" id="layer1" inkscape:groupmode="layer">
    <g id="path-tweak-shrink">
      <title id="title72559">path-tweak-shrink</title>
      <path id="path4445" style="stroke:none" d="m 19.9688,15.000017 c -3.9319,-0.0313 -4.4124,-2.0129 -7.9114,-2.0162 -3.4991,-0.003 -3.9938,2.0162 -8.0574,2.0162 l 0.0312,-2.2729 V 9.9770174 c 4.0169,-0.0224 4.5005,2.1064996 8.001,2.1041996 3.5006,-0.002 4.0004,-2.0970996 7.9678,-2.1041996 z" inkscape:connector-curvature="0" />
    </g>
  </g>
</svg>
