<?xml version="1.0" encoding="UTF-8" standalone="no"?>
<!-- Created with Inkscape (http://www.inkscape.org/) -->

<svg xmlns:dc="http://purl.org/dc/elements/1.1/" xmlns:cc="http://creativecommons.org/ns#" xmlns:rdf="http://www.w3.org/1999/02/22-rdf-syntax-ns#" xmlns:svg="http://www.w3.org/2000/svg" xmlns="http://www.w3.org/2000/svg" xmlns:sodipodi="http://sodipodi.sourceforge.net/DTD/sodipodi-0.dtd" xmlns:inkscape="http://www.inkscape.org/namespaces/inkscape" id="SVGRoot" version="1.1" inkscape:version="0.92+devel trunk-69-gf61892a23 2017-07-04 custom" width="24px" height="24px" viewBox="0 0 24 24" sodipodi:docname="align-horizontal-baseline-symbolic.svg">
  <sodipodi:namedview id="base" pagecolor="#ffffff" bordercolor="#666666" borderopacity="1.0" inkscape:pageopacity="0.0" inkscape:pageshadow="2" inkscape:zoom="10.6666666667" inkscape:cx="12.0" inkscape:cy="12.0" inkscape:document-units="px" inkscape:current-layer="align-horizontal-baseline" inkscape:document-rotation="0" showgrid="false" inkscape:grid-bbox="true" />
  <defs id="defs4578" />
  <metadata id="metadata4581">
    <rdf:RDF>
      <cc:Work rdf:about="">
        <dc:format>image/svg+xml</dc:format>
        <dc:type rdf:resource="http://purl.org/dc/dcmitype/StillImage" />
        <dc:title></dc:title>
      </cc:Work>
    </rdf:RDF>
  </metadata>
  <g inkscape:label="Layer 1" id="layer1" inkscape:groupmode="layer">
    <g id="align-horizontal-baseline">
      <title id="title113045">align-horizontal-baseline</title>
      <g id="g11752">
        <path id="path22455-9" style="stroke:none" d="m 7.1638,9.4068 c 0.7787,-0.6756 2.1025,-0.4334 2.6929,0.3478 0.9754,1.1832 1.2575,2.6967 1.6164,4.1129 0.2662,1.2078 0.4334,2.4344 0.501,3.6656 0.7883,-1.557 1.6965,-3.2294 1.713,-4.9827 0.0218,-0.8862 -0.5124,-1.6373 -0.8692,-2.421 -0.2947,-0.6569 0.5167,-1.3404 1.2125,-1.1297 0.8522,0.1655 0.9942,1.1039 0.9696,1.7768 -0.0896,2.0013 -0.9121,3.9664 -1.7444,5.7954 -1.1795,2.4154 -2.8678,4.6554 -5.076,6.3549 -0.8684,0.6228 -3.0647,1.3451 -4.1492,0.97 -2,-0.9931 -2,-2.9794 0,-2.9794 0.7186,-0.3234 2.5391,1.2413 3.2752,1.2167 1.2149,-0.01 2.081,-1.0492 2.4089,-2.0401 C 10.0477,18.7832 9.7359,17.4289 9.5301,16.1219 9.1948,14.4229 8.8175,12.6895 7.9336,11.1525 7.7528,10.5556 6.3364,10.2008 7.1638,9.4068 Z" inkscape:connector-curvature="0" />
        <path id="path22457-2" style="stroke:none" d="m 11.34936,4.4373 c -0.5525,0 -0.96936,0.087 -1.25053,0.2615 -0.27626,0.1742 -0.41438,0.4311 -0.41438,0.7704 0,0.3119 0.11099,0.5573 0.33298,0.7361 0.22693,0.1743 0.54017,0.2615 0.93975,0.2615 0.49824,0 0.91754,-0.1651 1.25793,-0.4954 0.34037,-0.3348 0.51057,-0.7521 0.51058,-1.252 V 4.4373 H 11.34937 M 15.39693,3.5086 V 7.9045 H 12.72569 V 6.7626 C 12.3705,7.2304 11.97092,7.572 11.52695,7.7876 11.08297,7.9986 10.5428,8.104 9.90644,8.104 9.04809,8.104 8.35006,7.8724 7.81236,7.4092 7.27959,6.9414 7.0132,6.3361 7.0132,5.5931 7.0132,4.6896 7.34619,4.0269 8.01214,3.6049 8.68304,3.183 9.73379,2.972 11.16437,2.972 h 1.56132 V 2.7794 C 12.72568,2.3896 12.56042,2.1052 12.22991,1.9264 11.89939,1.7429 11.38389,1.6512 10.6834,1.6512 10.11609,1.6512 9.58825,1.7042 9.09988,1.8094 8.61151,1.9149 8.15768,2.0731 7.73836,2.2841 V 0.40599998 c 0.5673,-0.1284 1.13708,-0.2247 1.70931,-0.2889 0.57223,-0.069 1.14446,-0.1032 1.7167,-0.1032 1.49471,0 2.57258,0.2752 3.23362,0.8255 C 15.06394,1.3852 15.39692,2.2749 15.39693,3.5086" inkscape:connector-curvature="0" />
      </g>
      <rect id="rect11756" style="opacity:0.6;stroke:none" width="1" height="24" x="5" y="0" />
    </g>
  </g>
</svg>
