<?xml version="1.0" encoding="UTF-8" standalone="no"?>
<!-- Created with Inkscape (http://www.inkscape.org/) -->

<svg xmlns:dc="http://purl.org/dc/elements/1.1/" xmlns:cc="http://creativecommons.org/ns#" xmlns:rdf="http://www.w3.org/1999/02/22-rdf-syntax-ns#" xmlns:svg="http://www.w3.org/2000/svg" xmlns="http://www.w3.org/2000/svg" xmlns:sodipodi="http://sodipodi.sourceforge.net/DTD/sodipodi-0.dtd" xmlns:inkscape="http://www.inkscape.org/namespaces/inkscape" id="SVGRoot" version="1.1" inkscape:version="0.92+devel trunk-69-gf61892a23 2017-07-04 custom" width="24px" height="24px" viewBox="0 0 24 24" sodipodi:docname="align-horizontal-center-symbolic.svg">
  <sodipodi:namedview id="base" pagecolor="#ffffff" bordercolor="#666666" borderopacity="1.0" inkscape:pageopacity="0.0" inkscape:pageshadow="2" inkscape:zoom="10.6666666667" inkscape:cx="12.0" inkscape:cy="12.0" inkscape:document-units="px" inkscape:current-layer="align-horizontal-center" inkscape:document-rotation="0" showgrid="false" inkscape:grid-bbox="true" />
  <defs id="defs4417" />
  <metadata id="metadata4420">
    <rdf:RDF>
      <cc:Work rdf:about="">
        <dc:format>image/svg+xml</dc:format>
        <dc:type rdf:resource="http://purl.org/dc/dcmitype/StillImage" />
        <dc:title></dc:title>
      </cc:Work>
    </rdf:RDF>
  </metadata>
  <g inkscape:label="Layer 1" id="layer1" inkscape:groupmode="layer">
    <g id="align-horizontal-center">
      <title id="title113015">align-horizontal-center</title>
      <g id="g12932" transform="translate(0,6)">
        <path id="rect12934" style="stroke:none" d="m 13,12 v 1 3 1 h 1 4 c 0.554,0 1,-0.446 1,-1 v -3 c 0,-0.554 -0.446001,-1 -1,-1 h -4 z" inkscape:connector-curvature="0" sodipodi:nodetypes="cccccsssscc" />
        <path id="rect12936" style="stroke:none" d="m 13,6 v 1 3 1 h 1 1 c 0.554,0 1,-0.446 1,-1 V 7 C 16,6.446 15.554,6 15,6 h -1 z" inkscape:connector-curvature="0" sodipodi:nodetypes="cccccsssscc" />
        <path id="rect12938" style="stroke:none" d="m 13,0 v 1 3 1 h 1 7 c 0.554,0 1,-0.446 1,-1 V 1 C 22,0.446 21.554,0 21,0 h -7 z" inkscape:connector-curvature="0" sodipodi:nodetypes="cccccsssscc" />
        <path id="rect12940" style="stroke:none" d="m 5,12 c -0.554,0 -1,0.446 -1,1 v 3 c 0,0.554 0.446,1 1,1 h 4 1 V 16 13 12 H 9 Z" inkscape:connector-curvature="0" sodipodi:nodetypes="ssssccccccs" />
        <path id="rect12942" style="stroke:none" d="M 8,6 C 7.446,6 7,6.446 7,7 v 3 c 0,0.554 0.446,1 1,1 h 1 1 V 10 7 6 H 9 Z" inkscape:connector-curvature="0" sodipodi:nodetypes="ssssccccccs" />
        <path id="rect12944" style="stroke:none" d="M 2,0 C 1.446,0 1,0.446 1,1 v 3 c 0,0.554 0.446,1 1,1 h 7 1 V 4 1 0 H 9 Z" inkscape:connector-curvature="0" sodipodi:nodetypes="ssssccccccs" />
      </g>
      <rect id="rect38316" style="stroke:none" width="1" height="22" x="11" y="1" />
    </g>
  </g>
</svg>
