<?xml version="1.0" encoding="UTF-8" standalone="no"?>
<!-- Created with Inkscape (http://www.inkscape.org/) -->

<svg xmlns:dc="http://purl.org/dc/elements/1.1/" xmlns:cc="http://creativecommons.org/ns#" xmlns:rdf="http://www.w3.org/1999/02/22-rdf-syntax-ns#" xmlns:svg="http://www.w3.org/2000/svg" xmlns="http://www.w3.org/2000/svg" xmlns:sodipodi="http://sodipodi.sourceforge.net/DTD/sodipodi-0.dtd" xmlns:inkscape="http://www.inkscape.org/namespaces/inkscape" id="SVGRoot" version="1.1" inkscape:version="0.92+devel trunk-69-gf61892a23 2017-07-04 custom" width="24px" height="24px" viewBox="0 0 24 24" sodipodi:docname="align-vertical-baseline-symbolic.svg">
  <sodipodi:namedview id="base" pagecolor="#ffffff" bordercolor="#666666" borderopacity="1.0" inkscape:pageopacity="0.0" inkscape:pageshadow="2" inkscape:zoom="10.6666666667" inkscape:cx="12.0" inkscape:cy="12.0" inkscape:document-units="px" inkscape:current-layer="layer1" inkscape:document-rotation="0" showgrid="false" inkscape:grid-bbox="true" />
  <defs id="defs4559" />
  <metadata id="metadata4562">
    <rdf:RDF>
      <cc:Work rdf:about="">
        <dc:format>image/svg+xml</dc:format>
        <dc:type rdf:resource="http://purl.org/dc/dcmitype/StillImage" />
        <dc:title></dc:title>
      </cc:Work>
    </rdf:RDF>
  </metadata>
  <g inkscape:label="Layer 1" id="layer1" inkscape:groupmode="layer">
    <g id="align-vertical-baseline">
      <title id="title113101">align-vertical-baseline</title>
      <g id="g11789">
        <path id="path17560-1" style="stroke:none" d="m 5.1638,5.4068002 c 0.7787,-0.6756 2.1025,-0.4334 2.6929,0.3478 0.9754,1.1832 1.2575,2.6967 1.6164,4.1129 C 9.7393,11.0753 9.9324,11.7688 10,13 c 0.7883,-1.557 1.6706,-2.6963 1.6871,-4.4495998 0.022,-0.8862 -0.5124,-1.6373 -0.8692,-2.421 -0.2947,-0.6569 0.5167,-1.3404 1.2125,-1.1297 0.8522,0.1655 0.9942,1.1039 0.9696,1.7768 -0.09,2.0013 -0.9121,3.9663998 -1.7444,5.7953998 -1.1795,2.4154 -2.8678,4.6554 -5.076,6.3549 -0.8684,0.6228 -3.0647,1.3451 -4.1492,0.97 -2,-0.9931 -2,-2.9794 0,-2.9794 0.7186,-0.3234 2.5391,1.2413 3.2752,1.2167 1.2149,-0.01 2.081,-1.0492 2.4089,-2.0401 0.3332,-1.3108 0.021,-2.6651 -0.1844,-3.9721 -0.3353,-1.699 -0.7126,-3.4323998 -1.5965,-4.9693998 -0.1808,-0.597 -1.5972,-0.9517 -0.7698,-1.7457 z" inkscape:connector-curvature="0" sodipodi:nodetypes="cccccsccccccccccc" />
        <path id="path17562-0" style="stroke:none" d="m 18.3494,10.3804 c -0.5525,0 -0.9694,0.086 -1.2506,0.2581 -0.2762,0.172 -0.4144,0.4256 -0.4144,0.7606 0,0.3078 0.111,0.55 0.333,0.7266 0.227,0.172 0.5402,0.2581 0.9398,0.2581 0.4982,0 0.9175,-0.163 1.2579,-0.489 0.3404,-0.3305 0.5106,-0.7425 0.5106,-1.2359 V 10.3804 H 18.3494 M 22,9.4396002 V 14 l -2.2743,0.024 V 12.6757 C 19.3705,13.1375 18.9709,13.4748 18.527,13.6876 18.083,13.8958 17.5428,14 16.9064,14 c -0.8583,0 -1.5563,-0.2287 -2.094,-0.6859 -0.5328,-0.4618 -0.7992,-1.0594 -0.7992,-1.7928 0,-0.8919 0.333,-1.5460998 0.9989,-1.9625998 0.6709,-0.4165 1.7217,-0.6248 3.1523,-0.6248 h 1.5613 v -0.1901 c 0,-0.3848 -0.1653,-0.6655 -0.4958,-0.8421 -0.3305,-0.1811 -0.846,-0.2716 -1.5465,-0.2716 -0.5673,0 -1.0951,0.052 -1.5835,0.1562 -0.4884,0.1041 -0.6806,0.01 -1.0999,0.2137 v -1.854 l 3.1644,-0.1321 c 1.4947,0 2.1757,0.2476 2.8367,0.7909 0.6659,0.5387 0.9989,1.417 0.9989,2.6348" inkscape:connector-curvature="0" sodipodi:nodetypes="ccscscscccccccscscscscscccccc" />
      </g>
      <rect id="rect11793" style="opacity:0.6;stroke:none" width="24" height="1" x="0" y="14" />
    </g>
  </g>
</svg>
