<?xml version="1.0" encoding="UTF-8" standalone="no"?>
<!-- Created with Inkscape (http://www.inkscape.org/) -->

<svg xmlns:dc="http://purl.org/dc/elements/1.1/" xmlns:cc="http://creativecommons.org/ns#" xmlns:rdf="http://www.w3.org/1999/02/22-rdf-syntax-ns#" xmlns:svg="http://www.w3.org/2000/svg" xmlns="http://www.w3.org/2000/svg" xmlns:sodipodi="http://sodipodi.sourceforge.net/DTD/sodipodi-0.dtd" xmlns:inkscape="http://www.inkscape.org/namespaces/inkscape" id="SVGRoot" version="1.1" inkscape:version="0.92+devel trunk-69-gf61892a23 2017-07-04 custom" width="24px" height="24px" viewBox="0 0 24 24" sodipodi:docname="align-vertical-bottom-to-anchor-symbolic.svg">
  <sodipodi:namedview id="base" pagecolor="#ffffff" bordercolor="#666666" borderopacity="1.0" inkscape:pageopacity="0.0" inkscape:pageshadow="2" inkscape:zoom="10.6666666667" inkscape:cx="12.0" inkscape:cy="12.0" inkscape:document-units="px" inkscape:current-layer="align-vertical-bottom-to-anchor" inkscape:document-rotation="0" showgrid="false" inkscape:grid-bbox="true" />
  <defs id="defs4291" />
  <metadata id="metadata4294">
    <rdf:RDF>
      <cc:Work rdf:about="">
        <dc:format>image/svg+xml</dc:format>
        <dc:type rdf:resource="http://purl.org/dc/dcmitype/StillImage" />
        <dc:title></dc:title>
      </cc:Work>
    </rdf:RDF>
  </metadata>
  <g inkscape:label="Layer 1" id="layer1" inkscape:groupmode="layer">
    <g id="align-vertical-bottom-to-anchor">
      <title id="title113053">align-vertical-bottom-to-anchor</title>
      <g id="use13141" style="stroke:none" transform="rotate(90,12,12)">
        <rect id="rect18477" width="11" height="5" x="7" y="18" ry="1" />
        <rect id="rect18479" width="7" height="5" x="11" y="12" ry="1" />
        <rect id="rect18481" width="17" height="5" x="1" y="6" ry="1" />
        <rect id="rect18483" style="opacity:0.6" width="6" height="6" x="18" y="0" />
      </g>
    </g>
  </g>
</svg>
