<?xml version="1.0" encoding="UTF-8" standalone="no"?>
<!-- Created with Inkscape (http://www.inkscape.org/) -->

<svg xmlns:dc="http://purl.org/dc/elements/1.1/" xmlns:cc="http://creativecommons.org/ns#" xmlns:rdf="http://www.w3.org/1999/02/22-rdf-syntax-ns#" xmlns:svg="http://www.w3.org/2000/svg" xmlns="http://www.w3.org/2000/svg" xmlns:sodipodi="http://sodipodi.sourceforge.net/DTD/sodipodi-0.dtd" xmlns:inkscape="http://www.inkscape.org/namespaces/inkscape" id="SVGRoot" version="1.1" inkscape:version="0.92+devel trunk-69-gf61892a23 2017-07-04 custom" width="24px" height="24px" viewBox="0 0 24 24" sodipodi:docname="align-vertical-node-symbolic.svg">
  <sodipodi:namedview id="base" pagecolor="#ffffff" bordercolor="#666666" borderopacity="1.0" inkscape:pageopacity="0.0" inkscape:pageshadow="2" inkscape:zoom="10.6666666667" inkscape:cx="12.0" inkscape:cy="12.0" inkscape:document-units="px" inkscape:current-layer="align-vertical-node" inkscape:document-rotation="0" showgrid="false" inkscape:grid-bbox="true" />
  <defs id="defs5766" />
  <metadata id="metadata5769">
    <rdf:RDF>
      <cc:Work rdf:about="">
        <dc:format>image/svg+xml</dc:format>
        <dc:type rdf:resource="http://purl.org/dc/dcmitype/StillImage" />
        <dc:title></dc:title>
      </cc:Work>
    </rdf:RDF>
  </metadata>
  <g inkscape:label="Layer 1" id="layer1" inkscape:groupmode="layer">
    <g id="align-vertical-node">
      <title id="title113322">align-vertical-node</title>
      <g id="use13933" transform="matrix(0,-1,-1,0,24,24)">
        <path id="path5808" style="color:#000000;opacity:1;fill-opacity:1;fill-rule:nonzero;stroke:none;stroke-opacity:1;stroke-width:1;stroke-linecap:round;stroke-linejoin:miter;stroke-miterlimit:4;stroke-dasharray:none;stroke-dashoffset:0;solid-color:#000000;solid-opacity:1;mix-blend-mode:normal;isolation:auto;display:inline;visibility:visible;clip-rule:nonzero;color-interpolation:sRGB;color-rendering:auto;shape-rendering:auto" d="M 1.4921875 1 A 0.5 0.5 0 0 0 1.1464844 1.1464844 A 0.5 0.5 0 0 0 1.1464844 1.8535156 C 1.9600462 2.6670774 3.3663722 2.9588306 5.0566406 3.2207031 C 6.7469091 3.4825757 8.7294536 3.6534107 10.615234 3.9316406 C 12.501015 4.2098706 14.288712 4.6037415 15.544922 5.25 C 16.801132 5.8962585 17.5 6.6944444 17.5 8 C 17.5 8.6354167 17.305318 9.0574759 16.9375 9.4257812 C 16.569682 9.7940866 15.999747 10.095001 15.271484 10.326172 C 13.814959 10.788513 11.767291 10.966936 9.6972656 11.185547 C 7.6272407 11.404158 5.5299393 11.659658 3.8769531 12.386719 C 2.2239669 13.113779 1 14.438296 1 16.5 C 1 17.424679 1.3294991 18.219533 1.8925781 18.822266 C 2.4556572 19.424998 3.2269856 19.846328 4.1230469 20.160156 C 5.9151694 20.787812 8.2421408 20.999287 10.662109 21.125 C 13.082078 21.250713 15.593482 21.282875 17.691406 21.498047 C 19.78933 21.713219 21.45247 22.159501 22.146484 22.853516 A 0.5 0.5 0 0 0 22.853516 22.853516 A 0.5 0.5 0 0 0 22.853516 22.146484 C 21.79753 21.090499 19.96067 20.724281 17.792969 20.501953 C 15.625268 20.279625 13.105422 20.249287 10.712891 20.125 C 8.3203592 20.000713 6.0535806 19.774688 4.4550781 19.214844 C 3.6558269 18.934922 3.0326241 18.575002 2.625 18.138672 C 2.2173759 17.702342 2 17.200321 2 16.5 C 2 14.804234 2.8385331 13.936449 4.2792969 13.302734 C 5.7200607 12.669019 7.7477593 12.396709 9.8027344 12.179688 C 11.857709 11.962666 13.935041 11.798997 15.572266 11.279297 C 16.390878 11.019447 17.110006 10.668045 17.644531 10.132812 C 18.179057 9.5975796 18.5 8.8645833 18.5 8 C 18.5 6.3055556 17.448868 5.1037415 16.001953 4.359375 C 14.555038 3.6150085 12.686485 3.2276294 10.759766 2.9433594 C 8.8330464 2.6590893 6.8468409 2.4861743 5.2089844 2.2324219 C 3.5711278 1.9786694 2.2899538 1.5829226 1.8535156 1.1464844 A 0.5 0.5 0 0 0 1.4921875 1 z " />
        <rect id="rect18606" style="stroke:none" width="5" height="5" x="9" y="1" />
        <rect id="rect18608" style="stroke:none" width="5" height="5" x="9" y="9" />
        <rect id="rect18610" style="stroke:none" width="5" height="5" x="9" y="18" />
        <rect id="rect18613" style="opacity:0.6;stroke:none" width="1" height="24" x="11" y="0" />
      </g>
    </g>
  </g>
</svg>
