<?xml version="1.0" encoding="UTF-8" standalone="no"?>
<!-- Created with Inkscape (http://www.inkscape.org/) -->

<svg xmlns:dc="http://purl.org/dc/elements/1.1/" xmlns:cc="http://creativecommons.org/ns#" xmlns:rdf="http://www.w3.org/1999/02/22-rdf-syntax-ns#" xmlns:svg="http://www.w3.org/2000/svg" xmlns="http://www.w3.org/2000/svg" xmlns:sodipodi="http://sodipodi.sourceforge.net/DTD/sodipodi-0.dtd" xmlns:inkscape="http://www.inkscape.org/namespaces/inkscape" id="SVGRoot" version="1.1" inkscape:version="0.92+devel trunk-75-gd3409a86d 2017-07-05 custom" width="16px" height="16px" viewBox="0 0 16 16" sodipodi:docname="dialog-glyphs-symbolic.svg">
  <sodipodi:namedview id="base" pagecolor="#ffffff" bordercolor="#666666" borderopacity="1.0" inkscape:pageopacity="0.0" inkscape:pageshadow="2" inkscape:zoom="16.0" inkscape:cx="8.0" inkscape:cy="8.0" inkscape:document-units="px" inkscape:current-layer="dialog-glyphs" inkscape:document-rotation="0" showgrid="false" inkscape:grid-bbox="true" />
  <defs id="defs5087" />
  <metadata id="metadata5090">
    <rdf:RDF>
      <cc:Work rdf:about="">
        <dc:format>image/svg+xml</dc:format>
        <dc:type rdf:resource="http://purl.org/dc/dcmitype/StillImage" />
        <dc:title></dc:title>
      </cc:Work>
    </rdf:RDF>
  </metadata>
  <g inkscape:label="Layer 1" id="layer1" inkscape:groupmode="layer">
    <g id="dialog-glyphs">
      <title id="title14775">dialog-glyphs</title>
      <path id="rect11749-5-9-2-7" style="stroke:none" d="M 3.6980825,1 C 2.1669437,1 0.98242078,2.31948 0.98242078,3.84375 v 8.34375 c 0,1.52427 1.18452292,2.84375 2.71566172,2.84375 h 8.5692255 c 1.531138,0 2.746876,-1.31948 2.746876,-2.84375 V 3.84375 C 15.014184,2.31948 13.798446,1 12.267308,1 Z m 0.7803626,1.03125 c 3.522674,0.25598 5.3111302,0.13378 7.0397149,0 0.753333,-0.0583 1.52951,0.61584 1.52951,1.4375 v 7.375 c 0,0.66541 -0.530586,1.09567 -1.186151,1.1875 -2.833198,0.39685 -4.7476609,0.44007 -7.6640044,0 -0.6545457,-0.0988 -1.1861511,-0.52209 -1.1861511,-1.1875 V 3.5 c 0,-0.82166 0.7134786,-1.52351 1.4670816,-1.46875 z" inkscape:connector-curvature="0" sodipodi:nodetypes="ssssssssssssssssss" />
      <path id="path5123" style="color:#000000;opacity:1;fill-opacity:1;fill-rule:nonzero;stroke:none;stroke-opacity:1;stroke-width:1;stroke-linecap:butt;stroke-linejoin:miter;stroke-miterlimit:4;stroke-dasharray:none;stroke-dashoffset:0;solid-color:#000000;solid-opacity:1;mix-blend-mode:normal;isolation:auto;display:inline;visibility:visible;clip-rule:nonzero;color-interpolation:sRGB;color-rendering:auto;shape-rendering:auto" d="M 10.552734 5.9765625 L 7.6171875 6.0214844 L 7.6308594 7.0214844 L 10.507812 6.9785156 C 10.707773 6.9957969 10.836839 7.054049 10.902344 7.1132812 C 10.96911 7.1736538 11.009766 7.2342456 11.009766 7.40625 L 11.001953 8.0097656 L 8.5078125 8.0097656 L 8.5449219 8.0117188 C 8.0796063 7.9765715 7.6522999 8.1544154 7.3808594 8.4414062 C 7.1094189 8.7283971 6.9798886 9.0975383 6.9667969 9.4648438 C 6.9537052 9.8321492 7.058331 10.214121 7.3183594 10.517578 C 7.5783878 10.821036 8.0039127 11.014119 8.4785156 11 L 11.957031 11 L 12.009766 7.4101562 L 12.009766 7.40625 C 12.009766 7.0037344 11.849568 6.6200762 11.574219 6.3710938 C 11.29887 6.1221113 10.943344 6.0067961 10.576172 5.9785156 L 10.552734 5.9765625 z M 8.46875 9.0097656 L 8.4882812 9.0097656 L 10.986328 9.0097656 L 10.972656 10 L 8.4550781 10 L 8.4472656 10 C 8.2277285 10.006531 8.1457978 9.9484422 8.0761719 9.8671875 C 8.0065459 9.7859328 7.959583 9.6475983 7.9648438 9.5 C 7.9701045 9.3524017 8.0289817 9.2118401 8.1074219 9.1289062 C 8.185862 9.0459724 8.2691356 8.9946879 8.46875 9.0097656 z " />
      <path id="path5129" style="color:#000000;opacity:1;fill-opacity:1;fill-rule:nonzero;stroke:none;stroke-opacity:1;stroke-width:1;stroke-linecap:butt;stroke-linejoin:miter;stroke-miterlimit:4;stroke-dasharray:none;stroke-dashoffset:0;solid-color:#000000;solid-opacity:1;mix-blend-mode:normal;isolation:auto;display:inline;visibility:visible;clip-rule:nonzero;color-interpolation:sRGB;color-rendering:auto;shape-rendering:auto" d="M 11.328125 3.0253906 L 8.3320312 4.0253906 L 8.6484375 4.9746094 L 11.644531 3.9746094 L 11.328125 3.0253906 z " />
    </g>
  </g>
</svg>
