<?xml version="1.0" encoding="UTF-8" standalone="no"?>
<!-- Created with Inkscape (http://www.inkscape.org/) -->

<svg xmlns:dc="http://purl.org/dc/elements/1.1/" xmlns:cc="http://creativecommons.org/ns#" xmlns:rdf="http://www.w3.org/1999/02/22-rdf-syntax-ns#" xmlns:svg="http://www.w3.org/2000/svg" xmlns="http://www.w3.org/2000/svg" xmlns:sodipodi="http://sodipodi.sourceforge.net/DTD/sodipodi-0.dtd" xmlns:inkscape="http://www.inkscape.org/namespaces/inkscape" id="SVGRoot" version="1.1" inkscape:version="0.92+devel trunk-67-g1d2fa48c9 2017-07-04 custom" width="16px" height="16px" viewBox="0 0 16 16" sodipodi:docname="dialog-xml-editor-symbolic.svg">
  <sodipodi:namedview id="base" pagecolor="#ffffff" bordercolor="#666666" borderopacity="1.0" inkscape:pageopacity="0.0" inkscape:pageshadow="2" inkscape:zoom="16.0" inkscape:cx="8.0" inkscape:cy="8.0" inkscape:document-units="px" inkscape:current-layer="dialog-xml-editor" inkscape:document-rotation="0" showgrid="false" inkscape:grid-bbox="true" />
  <defs id="defs5379" />
  <metadata id="metadata5382">
    <rdf:RDF>
      <cc:Work rdf:about="">
        <dc:format>image/svg+xml</dc:format>
        <dc:type rdf:resource="http://purl.org/dc/dcmitype/StillImage" />
        <dc:title></dc:title>
      </cc:Work>
    </rdf:RDF>
  </metadata>
  <g inkscape:label="Layer 1" id="layer1" inkscape:groupmode="layer">
    <g id="dialog-xml-editor">
      <title id="title14063">dialog-xml-editor</title>
      <path id="path5415" style="color:#000000;opacity:1;fill-opacity:1;fill-rule:nonzero;stroke:none;stroke-opacity:1;stroke-width:2;stroke-linecap:round;stroke-linejoin:round;stroke-miterlimit:4;stroke-dasharray:none;stroke-dashoffset:0;solid-color:#000000;solid-opacity:1;mix-blend-mode:normal;isolation:auto;display:inline;visibility:visible;clip-rule:nonzero;color-interpolation:sRGB;color-rendering:auto;shape-rendering:auto" d="M 2 0 C 0.90929723 -1.4571881e-016 -2.9605947e-016 0.90929723 0 2 L 0 13 C -1.4571881e-016 14.090703 0.90929723 15 2 15 L 14 15 C 15.090703 15 16 14.090703 16 13 L 16 2 C 16 0.90929723 15.090703 -2.9605947e-016 14 0 L 2 0 z M 2 2 L 14 2 L 14 13 L 2 13 L 2 2 z " />
      <path id="path5421" style="color:#000000;opacity:1;fill-opacity:1;fill-rule:nonzero;stroke:none;stroke-opacity:1;stroke-width:1;stroke-linecap:round;stroke-linejoin:round;stroke-miterlimit:4;stroke-dasharray:none;stroke-dashoffset:0;solid-color:#000000;solid-opacity:1;mix-blend-mode:normal;isolation:auto;display:inline;visibility:visible;clip-rule:nonzero;color-interpolation:sRGB;color-rendering:auto;shape-rendering:auto" d="M 9.4921875 6 A 0.5 0.5 0 0 0 9.1464844 6.1464844 A 0.5 0.5 0 0 0 9.1464844 6.8535156 L 10.792969 8.5 L 9.1464844 10.146484 A 0.5 0.5 0 0 0 9.1464844 10.853516 A 0.5 0.5 0 0 0 9.8535156 10.853516 L 11.853516 8.8535156 A 0.50005 0.50005 0 0 0 11.853516 8.1464844 L 9.8535156 6.1464844 A 0.5 0.5 0 0 0 9.4921875 6 z " />
      <path id="path5427" style="color:#000000;opacity:1;fill-opacity:1;fill-rule:nonzero;stroke:none;stroke-opacity:1;stroke-width:1;stroke-linecap:round;stroke-linejoin:round;stroke-miterlimit:4;stroke-dasharray:none;stroke-dashoffset:0;solid-color:#000000;solid-opacity:1;mix-blend-mode:normal;isolation:auto;display:inline;visibility:visible;clip-rule:nonzero;color-interpolation:sRGB;color-rendering:auto;shape-rendering:auto" d="M 6.4921875 6 A 0.5 0.5 0 0 0 6.1464844 6.1464844 L 4.1464844 8.1464844 A 0.50005 0.50005 0 0 0 4.1464844 8.8535156 L 6.1464844 10.853516 A 0.5 0.5 0 0 0 6.8535156 10.853516 A 0.5 0.5 0 0 0 6.8535156 10.146484 L 5.2070312 8.5 L 6.8535156 6.8535156 A 0.5 0.5 0 0 0 6.8535156 6.1464844 A 0.5 0.5 0 0 0 6.4921875 6 z " />
    </g>
  </g>
</svg>
