<?xml version="1.0" encoding="UTF-8" standalone="no"?>
<!-- Created with Inkscape (http://www.inkscape.org/) -->

<svg xmlns:dc="http://purl.org/dc/elements/1.1/" xmlns:cc="http://creativecommons.org/ns#" xmlns:rdf="http://www.w3.org/1999/02/22-rdf-syntax-ns#" xmlns:svg="http://www.w3.org/2000/svg" xmlns="http://www.w3.org/2000/svg" xmlns:sodipodi="http://sodipodi.sourceforge.net/DTD/sodipodi-0.dtd" xmlns:inkscape="http://www.inkscape.org/namespaces/inkscape" id="SVGRoot" version="1.1" inkscape:version="0.92+devel trunk-67-g1d2fa48c9 2017-07-04 custom" width="16px" height="16px" viewBox="0 0 16 16" sodipodi:docname="dialog-transform-symbolic.svg">
  <sodipodi:namedview id="base" pagecolor="#ffffff" bordercolor="#666666" borderopacity="1.0" inkscape:pageopacity="0.0" inkscape:pageshadow="2" inkscape:zoom="16.0" inkscape:cx="8.0" inkscape:cy="8.0" inkscape:document-units="px" inkscape:current-layer="dialog-transform" inkscape:document-rotation="0" showgrid="false" inkscape:grid-bbox="true" />
  <defs id="defs9720" />
  <metadata id="metadata9723">
    <rdf:RDF>
      <cc:Work rdf:about="">
        <dc:format>image/svg+xml</dc:format>
        <dc:type rdf:resource="http://purl.org/dc/dcmitype/StillImage" />
        <dc:title></dc:title>
      </cc:Work>
    </rdf:RDF>
  </metadata>
  <g inkscape:label="Layer 1" id="layer1" inkscape:groupmode="layer">
    <g id="dialog-transform">
      <title id="title14581">dialog-transform</title>
      <path id="rect6815" style="stroke:none" d="M 2,0 C 0.9093,0 0,0.9093 0,2 v 11 c 0,1.0907 0.9093,2 2,2 V 13 2 h 12 2 C 16,0.9093 15.0907,0 14,0 Z" inkscape:connector-curvature="0" />
      <rect id="rect13044" style="stroke:none" width="2" height="2" x="14" y="2" />
      <g id="g13258" transform="matrix(1,0,0,-1,0,20)" inkscape:transform-center-x="1" inkscape:transform-center-y="1">
        <path id="path9764" style="color:#000000;opacity:1;fill-opacity:1;fill-rule:nonzero;stroke:none;stroke-opacity:1;stroke-width:2;stroke-linecap:butt;stroke-linejoin:miter;stroke-miterlimit:4;stroke-dasharray:none;stroke-dashoffset:0;solid-color:#000000;solid-opacity:1;mix-blend-mode:normal;isolation:auto;display:inline;visibility:visible;clip-rule:nonzero;color-interpolation:sRGB;color-rendering:auto;shape-rendering:auto" transform="translate(-279,-239)" d="M 289.5 244 L 289.5 246 C 290.91849 246 292.19154 246.84964 292.73438 248.16016 C 293.27721 249.47067 292.97763 250.97159 291.97461 251.97461 C 290.97159 252.97763 289.47067 253.27721 288.16016 252.73438 C 286.84964 252.19154 286 250.91849 286 249.5 L 284 249.5 C 284 251.72167 285.34198 253.73183 287.39453 254.58203 C 289.44709 255.43223 291.81771 254.95963 293.38867 253.38867 C 294.95963 251.81771 295.43223 249.44709 294.58203 247.39453 C 293.73183 245.34198 291.72167 244 289.5 244 z " />
        <path id="path13040" style="stroke:none" transform="translate(-280,-240)" d="m 292,250.5 a 1.5,1.5 0 0 1 -1.5,1.5 1.5,1.5 0 0 1 -1.5,-1.5 1.5,1.5 0 0 1 1.5,-1.5 1.5,1.5 0 0 1 1.5,1.5" />
        <rect id="rect13046" style="stroke:none" width="5" height="5" x="4" y="4" />
      </g>
    </g>
  </g>
</svg>
