<?xml version="1.0" encoding="UTF-8" standalone="no"?>
<!-- Created with Inkscape (http://www.inkscape.org/) -->

<svg xmlns:dc="http://purl.org/dc/elements/1.1/" xmlns:cc="http://creativecommons.org/ns#" xmlns:rdf="http://www.w3.org/1999/02/22-rdf-syntax-ns#" xmlns:svg="http://www.w3.org/2000/svg" xmlns="http://www.w3.org/2000/svg" xmlns:sodipodi="http://sodipodi.sourceforge.net/DTD/sodipodi-0.dtd" xmlns:inkscape="http://www.inkscape.org/namespaces/inkscape" id="SVGRoot" version="1.1" inkscape:version="0.92+devel trunk-69-gf61892a23 2017-07-04 custom" width="24px" height="24px" viewBox="0 0 24 24" sodipodi:docname="distribute-randomize-symbolic.svg">
  <sodipodi:namedview id="base" pagecolor="#ffffff" bordercolor="#666666" borderopacity="1.0" inkscape:pageopacity="0.0" inkscape:pageshadow="2" inkscape:zoom="10.6666666667" inkscape:cx="12.0" inkscape:cy="12.0" inkscape:document-units="px" inkscape:current-layer="distribute-randomize" inkscape:document-rotation="0" showgrid="false" inkscape:grid-bbox="true" />
  <defs id="defs5328" />
  <metadata id="metadata5331">
    <rdf:RDF>
      <cc:Work rdf:about="">
        <dc:format>image/svg+xml</dc:format>
        <dc:type rdf:resource="http://purl.org/dc/dcmitype/StillImage" />
        <dc:title></dc:title>
      </cc:Work>
    </rdf:RDF>
  </metadata>
  <g inkscape:label="Layer 1" id="layer1" inkscape:groupmode="layer">
    <g id="distribute-randomize">
      <title id="title113247">distribute-randomize</title>
      <g id="g14110">
        <rect id="rect14098" style="stroke:none;stroke-width:10;stroke-linecap:round;stroke-linejoin:round" width="7" height="6" x="1" y="3" ry="1" />
        <rect id="rect14100" style="stroke:none;stroke-width:10;stroke-linecap:round;stroke-linejoin:round" width="7" height="6" x="12" y="0" ry="1" />
        <rect id="rect14102" style="stroke:none;stroke-width:10;stroke-linecap:round;stroke-linejoin:round" width="6" height="6" x="17" y="7" ry="1" />
        <rect id="rect14104" style="stroke:none;stroke-width:10;stroke-linecap:round;stroke-linejoin:round" width="7" height="6" x="9" y="9" ry="1" />
        <rect id="rect14106" style="stroke:none;stroke-width:10;stroke-linecap:round;stroke-linejoin:round" width="7" height="6" x="10" y="16" ry="1" />
        <rect id="rect14108" style="stroke:none;stroke-width:10;stroke-linecap:round;stroke-linejoin:round" width="7" height="6" x="1" y="17" ry="1" />
      </g>
    </g>
  </g>
</svg>
