<?xml version="1.0" encoding="UTF-8" standalone="no"?>
<!-- Created with Inkscape (http://www.inkscape.org/) -->

<svg xmlns:dc="http://purl.org/dc/elements/1.1/" xmlns:cc="http://creativecommons.org/ns#" xmlns:rdf="http://www.w3.org/1999/02/22-rdf-syntax-ns#" xmlns:svg="http://www.w3.org/2000/svg" xmlns="http://www.w3.org/2000/svg" xmlns:sodipodi="http://sodipodi.sourceforge.net/DTD/sodipodi-0.dtd" xmlns:inkscape="http://www.inkscape.org/namespaces/inkscape" id="SVGRoot" version="1.1" inkscape:version="0.92+devel trunk-69-gf61892a23 2017-07-04 custom" width="16px" height="16px" viewBox="0 0 16 16" sodipodi:docname="draw-geometry-mirror-symbolic.svg">
  <sodipodi:namedview id="base" pagecolor="#ffffff" bordercolor="#666666" borderopacity="1.0" inkscape:pageopacity="0.0" inkscape:pageshadow="2" inkscape:zoom="16.0" inkscape:cx="8.0" inkscape:cy="8.0" inkscape:document-units="px" inkscape:current-layer="draw-geometry-mirror" inkscape:document-rotation="0" showgrid="false" inkscape:grid-bbox="true" />
  <defs id="defs4703" />
  <metadata id="metadata4706">
    <rdf:RDF>
      <cc:Work rdf:about="">
        <dc:format>image/svg+xml</dc:format>
        <dc:type rdf:resource="http://purl.org/dc/dcmitype/StillImage" />
        <dc:title></dc:title>
      </cc:Work>
    </rdf:RDF>
  </metadata>
  <g inkscape:label="Layer 1" id="layer1" inkscape:groupmode="layer">
    <g id="draw-geometry-mirror">
      <title id="title10508">draw-geometry-mirror</title>
      <path id="path4739" style="color:#000000;opacity:1;fill-opacity:1;fill-rule:nonzero;stroke:none;stroke-opacity:1;stroke-width:1.25px;stroke-linecap:round;stroke-linejoin:round;stroke-miterlimit:0;stroke-dasharray:none;stroke-dashoffset:0;solid-color:#000000;solid-opacity:1;mix-blend-mode:normal;isolation:auto;display:inline;visibility:visible;clip-rule:nonzero;color-interpolation:sRGB;color-rendering:auto;shape-rendering:auto" d="M 8.328125 0.01953125 A 0.625 0.625 0 0 0 7.71875 0.44140625 C 7.3202353 1.6098562 7.1684447 2.5060416 7.2539062 3.2539062 C 7.3393678 4.0017709 7.7282852 4.6031685 8.2558594 4.9355469 C 9.3110077 5.6003035 10.650062 5.4498682 11.855469 5.4726562 C 12.458172 5.4840503 13.025341 5.5211017 13.472656 5.6367188 C 13.919972 5.7523358 14.225489 5.9260876 14.4375 6.2109375 C 14.861522 6.7806373 15.023069 8.1455907 14.011719 11.042969 A 0.625 0.625 0 0 0 14.396484 11.837891 A 0.625 0.625 0 0 0 15.191406 11.455078 C 16.253856 8.4113062 16.285237 6.5985814 15.441406 5.4648438 C 15.019491 4.8979749 14.406569 4.5883502 13.785156 4.4277344 C 13.163743 4.2671186 12.512659 4.2346372 11.878906 4.2226562 C 10.6114 4.1986943 9.4081048 4.1852371 8.921875 3.8789062 C 8.6787601 3.7257408 8.5478263 3.5640337 8.4960938 3.1113281 C 8.4443612 2.6586225 8.5374834 1.9154782 8.9023438 0.84570312 A 0.625 0.625 0 0 0 8.5136719 0.052734375 A 0.625 0.625 0 0 0 8.328125 0.01953125 z " />
      <path id="path4745" style="color:#000000;opacity:1;fill-opacity:1;fill-rule:nonzero;stroke:none;stroke-opacity:1;stroke-width:1px;stroke-linecap:round;stroke-linejoin:round;stroke-miterlimit:0;stroke-dasharray:none;stroke-dashoffset:0;solid-color:#000000;solid-opacity:1;mix-blend-mode:normal;isolation:auto;display:inline;visibility:visible;clip-rule:nonzero;color-interpolation:sRGB;color-rendering:auto;shape-rendering:auto" d="M 2.6210938 0.125 A 0.5 0.5 0 0 0 2.3105469 0.23242188 A 0.5 0.5 0 0 0 2.2324219 0.93554688 L 13.986328 15.6875 A 0.5 0.5 0 0 0 14.689453 15.767578 A 0.5 0.5 0 0 0 14.767578 15.064453 L 3.0136719 0.3125 A 0.5 0.5 0 0 0 2.6210938 0.125 z " />
      <path id="path4751" style="color:#000000;opacity:1;fill-opacity:1;fill-rule:nonzero;stroke:none;stroke-opacity:1;stroke-width:1.25px;stroke-linecap:round;stroke-linejoin:round;stroke-miterlimit:0;stroke-dasharray:none;stroke-dashoffset:0;solid-color:#000000;solid-opacity:1;mix-blend-mode:normal;isolation:auto;display:inline;visibility:visible;clip-rule:nonzero;color-interpolation:sRGB;color-rendering:auto;shape-rendering:auto" d="M 1.0898438 5.1972656 A 0.625 0.625 0 0 0 0.52148438 5.875 A 0.625 0.625 0 0 0 1.1992188 6.4433594 C 2.3516116 6.3426517 3.1019082 6.4279693 3.5117188 6.5800781 C 3.9215293 6.732187 4.0059587 6.8686985 4.0722656 7.1230469 C 4.2048795 7.6317437 3.8457417 8.811761 3.5058594 10.039062 C 3.3359182 10.652713 3.1867705 11.288355 3.1914062 11.933594 C 3.196042 12.578832 3.3826561 13.260425 3.8828125 13.789062 C 4.8831254 14.846337 6.7775683 15.199461 10.310547 14.869141 A 0.625 0.625 0 0 0 10.875 14.189453 A 0.625 0.625 0 0 0 10.195312 13.625 C 6.7991411 13.94253 5.2930277 13.46235 4.7890625 12.929688 C 4.5370799 12.663356 4.4445428 12.360394 4.4414062 11.923828 C 4.4382697 11.487262 4.5521849 10.944343 4.7109375 10.371094 C 5.0284427 9.2245953 5.5927892 8.0016812 5.28125 6.8066406 C 5.1254804 6.2091203 4.646768 5.6678365 3.9472656 5.4082031 C 3.2477633 5.1485698 2.3419009 5.0878483 1.0898438 5.1972656 z " />
    </g>
  </g>
</svg>
