<?xml version="1.0" encoding="UTF-8" standalone="no"?>
<!-- Created with Inkscape (http://www.inkscape.org/) -->

<svg xmlns:dc="http://purl.org/dc/elements/1.1/" xmlns:cc="http://creativecommons.org/ns#" xmlns:rdf="http://www.w3.org/1999/02/22-rdf-syntax-ns#" xmlns:svg="http://www.w3.org/2000/svg" xmlns="http://www.w3.org/2000/svg" xmlns:sodipodi="http://sodipodi.sourceforge.net/DTD/sodipodi-0.dtd" xmlns:inkscape="http://www.inkscape.org/namespaces/inkscape" id="SVGRoot" version="1.1" inkscape:version="0.92+devel trunk-69-gf61892a23 2017-07-04 custom" width="16px" height="16px" viewBox="0 0 16 16" sodipodi:docname="draw-geometry-show-measuring-info-symbolic.svg">
  <sodipodi:namedview id="base" pagecolor="#ffffff" bordercolor="#666666" borderopacity="1.0" inkscape:pageopacity="0.0" inkscape:pageshadow="2" inkscape:zoom="16.0" inkscape:cx="8.0" inkscape:cy="8.0" inkscape:document-units="px" inkscape:current-layer="draw-geometry-show-measuring-info" inkscape:document-rotation="0" showgrid="false" inkscape:grid-bbox="true" />
  <defs id="defs5039" />
  <metadata id="metadata5042">
    <rdf:RDF>
      <cc:Work rdf:about="">
        <dc:format>image/svg+xml</dc:format>
        <dc:type rdf:resource="http://purl.org/dc/dcmitype/StillImage" />
        <dc:title></dc:title>
      </cc:Work>
    </rdf:RDF>
  </metadata>
  <g inkscape:label="Layer 1" id="layer1" inkscape:groupmode="layer">
    <g id="draw-geometry-show-measuring-info">
      <title id="title10516">draw-geometry-show-measuring-info</title>
      <path id="rect15008" style="stroke:none" d="M 1,0 C 0.446,0 0,0.446 0,1 v 7 c 0,0.554 0.446,1 1,1 h 7 v 4 l 5,-4 h 2 c 0.554,0 1,-0.446 1,-1 V 1 C 16,0.446 15.554,0 15,0 Z m 1,1 h 12 c 0.554,0 1,0.446 1,1 v 5 c 0,0.554 -0.446,1 -1,1 H 13 12.5 L 9,10.65625 V 8 H 8 2 C 1.446,8 1,7.554 1,7 V 2 C 1,1.446 1.446,1 2,1 Z" inkscape:connector-curvature="0" />
      <path id="rect15016" style="stroke:none" d="m 0,14 v 2 h 1 v -1 h 1 v 1 h 1 v -1 h 1 v 1 h 1 v -1 h 1 v 1 h 1 v -1 h 1 v 1 h 1 v -1 h 1 v 1 h 1 v -1 h 1 v 1 h 1 v -1 h 1 v 1 h 1 v -2 z" inkscape:connector-curvature="0" />
      <rect id="rect15039" style="stroke:none" width="1" height="5" x="6" y="2" />
      <rect id="rect15041" style="stroke:none" width="1" height="1" x="8" y="6" />
      <path id="rect15043" style="stroke:none" d="m 10,2 v 5 h 3 V 2 Z m 1,1 h 1 v 3 h -1 z" inkscape:connector-curvature="0" />
    </g>
  </g>
</svg>
