<?xml version="1.0" encoding="UTF-8" standalone="no"?>
<!-- Created with Inkscape (http://www.inkscape.org/) -->

<svg xmlns:dc="http://purl.org/dc/elements/1.1/" xmlns:cc="http://creativecommons.org/ns#" xmlns:rdf="http://www.w3.org/1999/02/22-rdf-syntax-ns#" xmlns:svg="http://www.w3.org/2000/svg" xmlns="http://www.w3.org/2000/svg" xmlns:sodipodi="http://sodipodi.sourceforge.net/DTD/sodipodi-0.dtd" xmlns:inkscape="http://www.inkscape.org/namespaces/inkscape" id="SVGRoot" version="1.1" inkscape:version="0.92+devel trunk-67-g1d2fa48c9 2017-07-04 custom" width="16px" height="16px" viewBox="0 0 16 16" sodipodi:docname="edit-clone-unlink-symbolic.svg">
  <sodipodi:namedview id="base" pagecolor="#ffffff" bordercolor="#666666" borderopacity="1.0" inkscape:pageopacity="0.0" inkscape:pageshadow="2" inkscape:zoom="16.0" inkscape:cx="8.0" inkscape:cy="8.0" inkscape:document-units="px" inkscape:current-layer="edit-clone-unlink" inkscape:document-rotation="0" showgrid="false" inkscape:grid-bbox="true" />
  <defs id="defs4412" />
  <metadata id="metadata4415">
    <rdf:RDF>
      <cc:Work rdf:about="">
        <dc:format>image/svg+xml</dc:format>
        <dc:type rdf:resource="http://purl.org/dc/dcmitype/StillImage" />
        <dc:title></dc:title>
      </cc:Work>
    </rdf:RDF>
  </metadata>
  <g inkscape:label="Layer 1" id="layer1" inkscape:groupmode="layer">
    <g id="edit-clone-unlink">
      <title id="title13879">edit-clone-unlink</title>
      <path id="path45877" style="stroke:none" d="m 5,6 v 9 H 15 V 6 Z m 4.46875,1 h 1 C 11.320165,7 12,7.7099 12,8.5625 V 10 h 0.46875 c 0.27497,0 0.5,0.24935 0.5,0.5625 v 0.3125 3.09375 H 7 V 10.875 10.5625 C 7,10.24935 7.22503,10 7.5,10 H 7.96875 9 10 10.96875 V 8.5625 c 0,-0.33321 -0.24258,-0.53125 -0.5,-0.53125 h -1 C 9.21133,8.03125 9,8.22929 9,8.5625 V 9 H 7.96875 V 8.5625 C 7.96875,7.7099 8.617335,7 9.46875,7 Z" inkscape:connector-curvature="0" sodipodi:nodetypes="cccccssscssccccssccccssssccss" />
      <path id="path45869" style="stroke:none" d="M 4,10 V 5 H 9 V 1 H 0 v 9 z" inkscape:connector-curvature="0" sodipodi:nodetypes="ccccccc" />
    </g>
  </g>
</svg>
