<?xml version="1.0" encoding="UTF-8" standalone="no"?>
<!-- Created with Inkscape (http://www.inkscape.org/) -->

<svg xmlns:dc="http://purl.org/dc/elements/1.1/" xmlns:cc="http://creativecommons.org/ns#" xmlns:rdf="http://www.w3.org/1999/02/22-rdf-syntax-ns#" xmlns:svg="http://www.w3.org/2000/svg" xmlns="http://www.w3.org/2000/svg" xmlns:sodipodi="http://sodipodi.sourceforge.net/DTD/sodipodi-0.dtd" xmlns:inkscape="http://www.inkscape.org/namespaces/inkscape" id="SVGRoot" version="1.1" inkscape:version="0.92+devel trunk-69-gf61892a23 2017-07-04 custom" width="16px" height="16px" viewBox="0 0 16 16" sodipodi:docname="format-text-direction-vertical-symbolic.svg">
  <sodipodi:namedview id="base" pagecolor="#ffffff" bordercolor="#666666" borderopacity="1.0" inkscape:pageopacity="0.0" inkscape:pageshadow="2" inkscape:zoom="16.0" inkscape:cx="8.0" inkscape:cy="8.0" inkscape:document-units="px" inkscape:current-layer="format-text-direction-vertical" inkscape:document-rotation="0" showgrid="false" inkscape:grid-bbox="true" />
  <defs id="defs4713" />
  <metadata id="metadata4716">
    <rdf:RDF>
      <cc:Work rdf:about="">
        <dc:format>image/svg+xml</dc:format>
        <dc:type rdf:resource="http://purl.org/dc/dcmitype/StillImage" />
        <dc:title></dc:title>
      </cc:Work>
    </rdf:RDF>
  </metadata>
  <g inkscape:label="Layer 1" id="layer1" inkscape:groupmode="layer">
    <g id="format-text-direction-vertical">
      <title id="title12737">format-text-direction-vertical</title>
      <g id="text12003" style="stroke:none;font-family:sans-serif;-inkscape-font-specification:'sans-serif Bold';font-size:9px;font-weight:bold;letter-spacing:0px;word-spacing:0px;text-anchor:middle;text-decoration-color:#000000" aria-label="A">
        <path id="path12582" d="M 12.824951,6.8046875 H 10.179443 L 9.7619629,8 H 8.0612793 L 10.491455,1.4389648 h 2.01709 L 14.938721,8 H 13.238037 Z M 10.601318,5.5874023 h 1.797364 L 11.502197,2.9770508 Z" inkscape:connector-curvature="0" />
      </g>
      <g id="g12025" transform="rotate(90,70,18)">
        <g id="g12013" transform="translate(40)">
          <path id="path4769" style="color:#000000;opacity:1;fill-opacity:1;fill-rule:nonzero;stroke:none;stroke-opacity:1;stroke-width:1;stroke-linecap:butt;stroke-linejoin:miter;stroke-miterlimit:4;stroke-dasharray:none;stroke-dashoffset:0;solid-color:#000000;solid-opacity:1;mix-blend-mode:normal;isolation:auto;display:inline;visibility:visible;clip-rule:nonzero;color-interpolation:sRGB;color-rendering:auto;shape-rendering:auto" d="M 21 76 L 21 77 L 26.5 77 L 26.5 76 L 21 76 z " />
          <rect id="rect12009" style="stroke:none" width="0.5" height="0.5" x="24" y="74" />
          <rect id="rect12011" style="stroke:none" width="0.5" height="0.5" x="24" y="78.5" />
          <path id="path4775" style="color:#000000;opacity:1;fill-opacity:1;fill-rule:nonzero;stroke:none;stroke-opacity:1;stroke-width:1;stroke-linecap:round;stroke-linejoin:round;stroke-miterlimit:4;stroke-dasharray:none;stroke-dashoffset:0;solid-color:#000000;solid-opacity:1;mix-blend-mode:normal;isolation:auto;display:inline;visibility:visible;clip-rule:nonzero;color-interpolation:sRGB;color-rendering:auto;shape-rendering:auto" d="M 24.492188 74 A 0.5 0.5 0 0 0 24.146484 74.146484 A 0.5 0.5 0 0 0 24.146484 74.853516 L 25.792969 76.5 L 24.146484 78.146484 A 0.5 0.5 0 0 0 24.146484 78.853516 A 0.5 0.5 0 0 0 24.853516 78.853516 L 26.853516 76.853516 A 0.50005 0.50005 0 0 0 26.853516 76.146484 L 24.853516 74.146484 A 0.5 0.5 0 0 0 24.492188 74 z " />
        </g>
        <g id="g12023" transform="translate(40,7)">
          <path id="path4781" style="color:#000000;opacity:1;fill-opacity:1;fill-rule:nonzero;stroke:none;stroke-opacity:1;stroke-width:1;stroke-linecap:butt;stroke-linejoin:miter;stroke-miterlimit:4;stroke-dasharray:none;stroke-dashoffset:0;solid-color:#000000;solid-opacity:1;mix-blend-mode:normal;isolation:auto;display:inline;visibility:visible;clip-rule:nonzero;color-interpolation:sRGB;color-rendering:auto;shape-rendering:auto" d="M 13 76 L 13 77 L 26.5 77 L 26.5 76 L 13 76 z " />
          <rect id="rect12019-7" style="stroke:none" width="0.5" height="0.5" x="24" y="74" />
          <rect id="rect12021" style="stroke:none" width="0.5" height="0.5" x="24" y="78.5" />
          <path id="path4787" style="color:#000000;opacity:1;fill-opacity:1;fill-rule:nonzero;stroke:none;stroke-opacity:1;stroke-width:1;stroke-linecap:round;stroke-linejoin:round;stroke-miterlimit:4;stroke-dasharray:none;stroke-dashoffset:0;solid-color:#000000;solid-opacity:1;mix-blend-mode:normal;isolation:auto;display:inline;visibility:visible;clip-rule:nonzero;color-interpolation:sRGB;color-rendering:auto;shape-rendering:auto" d="M 24.492188 74 A 0.5 0.5 0 0 0 24.146484 74.146484 A 0.5 0.5 0 0 0 24.146484 74.853516 L 25.792969 76.5 L 24.146484 78.146484 A 0.5 0.5 0 0 0 24.146484 78.853516 A 0.5 0.5 0 0 0 24.853516 78.853516 L 26.853516 76.853516 A 0.50005 0.50005 0 0 0 26.853516 76.146484 L 24.853516 74.146484 A 0.5 0.5 0 0 0 24.492188 74 z " />
        </g>
      </g>
    </g>
  </g>
</svg>
