<?xml version="1.0" encoding="UTF-8" standalone="no"?>
<!-- Created with Inkscape (http://www.inkscape.org/) -->

<svg xmlns:dc="http://purl.org/dc/elements/1.1/" xmlns:cc="http://creativecommons.org/ns#" xmlns:rdf="http://www.w3.org/1999/02/22-rdf-syntax-ns#" xmlns:svg="http://www.w3.org/2000/svg" xmlns="http://www.w3.org/2000/svg" xmlns:sodipodi="http://sodipodi.sourceforge.net/DTD/sodipodi-0.dtd" xmlns:inkscape="http://www.inkscape.org/namespaces/inkscape" id="SVGRoot" version="1.1" inkscape:version="0.92+devel trunk-75-gd3409a86d 2017-07-05 custom" width="16px" height="16px" viewBox="0 0 16 16" sodipodi:docname="layer-delete-symbolic.svg">
  <sodipodi:namedview id="base" pagecolor="#ffffff" bordercolor="#666666" borderopacity="1.0" inkscape:pageopacity="0.0" inkscape:pageshadow="2" inkscape:zoom="16.0" inkscape:cx="8.0" inkscape:cy="8.0" inkscape:document-units="px" inkscape:current-layer="layer-delete" inkscape:document-rotation="0" showgrid="false" inkscape:grid-bbox="true" />
  <defs id="defs10259" />
  <metadata id="metadata10262">
    <rdf:RDF>
      <cc:Work rdf:about="">
        <dc:format>image/svg+xml</dc:format>
        <dc:type rdf:resource="http://purl.org/dc/dcmitype/StillImage" />
        <dc:title></dc:title>
      </cc:Work>
    </rdf:RDF>
  </metadata>
  <g inkscape:label="Layer 1" id="layer1" inkscape:groupmode="layer">
    <g id="layer-delete">
      <title id="title14424">layer-delete</title>
      <path id="path40783" style="opacity:0.3;stroke:none" d="M 4,8 1,11 H 12 L 15,8 Z" inkscape:connector-curvature="0" />
      <path id="path39841" style="stroke:none" d="m 4,12 -3,3 h 11 l 3,-3 z" inkscape:connector-curvature="0" />
      <path id="rect42588" style="stroke:none" transform="translate(-300,-220)" d="m 309,221 c -0.554,0 -1,0.446 -1,1 v 6 c 0,0.554 0.446,1 1,1 h 6 c 0.554,0 1,-0.446 1,-1 v -6 c 0,-0.554 -0.446,-1 -1,-1 z m 0,1 h 1 c 0.0104,-1.2e-4 0.0208,-4.6e-4 0.0312,0 0.25495,0.0112 0.50987,0.12858 0.6875,0.3125 l 1.2813,1.28125 1.3125,-1.28125 C 313.57812,222.082 313.75917,222.007 314,222 h 1 v 1 c 0,0.28647 -0.0343,0.55065 -0.25,0.75 l -1.28125,1.28125 1.25,1.25 C 314.90694,226.46942 314.99999,226.7347 315,227 v 1 h -1 c -0.2653,-1e-5 -0.53059,-0.0931 -0.71875,-0.28125 L 312,226.4375 l -1.28125,1.28125 C 310.53059,227.90694 310.26529,228 310,228 h -1 v -1 c 0,-0.26529 0.0931,-0.53058 0.28125,-0.71875 l 1.28125,-1.25 -1.28125,-1.28125 C 309.07051,223.55537 308.97809,223.28075 309,223 Z" inkscape:connector-curvature="0" />
    </g>
  </g>
</svg>
