<?xml version="1.0" encoding="UTF-8" standalone="no"?>
<!-- Created with Inkscape (http://www.inkscape.org/) -->

<svg xmlns:dc="http://purl.org/dc/elements/1.1/" xmlns:cc="http://creativecommons.org/ns#" xmlns:rdf="http://www.w3.org/1999/02/22-rdf-syntax-ns#" xmlns:svg="http://www.w3.org/2000/svg" xmlns="http://www.w3.org/2000/svg" xmlns:sodipodi="http://sodipodi.sourceforge.net/DTD/sodipodi-0.dtd" xmlns:inkscape="http://www.inkscape.org/namespaces/inkscape" id="SVGRoot" version="1.1" inkscape:version="0.92+devel trunk-75-gd3409a86d 2017-07-05 custom" width="16px" height="16px" viewBox="0 0 16 16" sodipodi:docname="layer-previous-symbolic.svg">
  <sodipodi:namedview id="base" pagecolor="#ffffff" bordercolor="#666666" borderopacity="1.0" inkscape:pageopacity="0.0" inkscape:pageshadow="2" inkscape:zoom="16.0" inkscape:cx="8.0" inkscape:cy="8.0" inkscape:document-units="px" inkscape:current-layer="layer-previous" inkscape:document-rotation="0" showgrid="false" inkscape:grid-bbox="true" />
  <defs id="defs9581" />
  <metadata id="metadata9584">
    <rdf:RDF>
      <cc:Work rdf:about="">
        <dc:format>image/svg+xml</dc:format>
        <dc:type rdf:resource="http://purl.org/dc/dcmitype/StillImage" />
        <dc:title></dc:title>
      </cc:Work>
    </rdf:RDF>
  </metadata>
  <g inkscape:label="Layer 1" id="layer1" inkscape:groupmode="layer">
    <g id="layer-previous">
      <title id="title14291">layer-previous</title>
      <path id="path19283" style="opacity:0.3;stroke:none" d="m 1,15 3,-3 h 11 l -3,3 z" inkscape:connector-curvature="0" />
      <path id="path19293" style="stroke:none" d="M 1,4 4,1 h 11 l -3,3 z" inkscape:connector-curvature="0" />
      <path id="path19301" style="stroke:none" d="M 5,11 H 7 V 8 H 9 L 6,5 3,8 h 2 z" inkscape:connector-curvature="0" />
    </g>
  </g>
</svg>
