<?xml version="1.0" encoding="UTF-8" standalone="no"?>
<!-- Created with Inkscape (http://www.inkscape.org/) -->

<svg xmlns:dc="http://purl.org/dc/elements/1.1/" xmlns:cc="http://creativecommons.org/ns#" xmlns:rdf="http://www.w3.org/1999/02/22-rdf-syntax-ns#" xmlns:svg="http://www.w3.org/2000/svg" xmlns="http://www.w3.org/2000/svg" xmlns:sodipodi="http://sodipodi.sourceforge.net/DTD/sodipodi-0.dtd" xmlns:inkscape="http://www.inkscape.org/namespaces/inkscape" id="SVGRoot" version="1.1" inkscape:version="0.92+devel trunk-69-gf61892a23 2017-07-04 custom" width="16px" height="16px" viewBox="0 0 16 16" sodipodi:docname="node-type-auto-smooth-symbolic.svg">
  <sodipodi:namedview id="base" pagecolor="#ffffff" bordercolor="#666666" borderopacity="1.0" inkscape:pageopacity="0.0" inkscape:pageshadow="2" inkscape:zoom="16.0" inkscape:cx="8.0" inkscape:cy="8.0" inkscape:document-units="px" inkscape:current-layer="node-type-auto-smooth" inkscape:document-rotation="0" showgrid="false" inkscape:grid-bbox="true" />
  <defs id="defs4767" />
  <metadata id="metadata4770">
    <rdf:RDF>
      <cc:Work rdf:about="">
        <dc:format>image/svg+xml</dc:format>
        <dc:type rdf:resource="http://purl.org/dc/dcmitype/StillImage" />
        <dc:title />
      </cc:Work>
    </rdf:RDF>
  </metadata>
  <g inkscape:label="Layer 1" id="layer1" inkscape:groupmode="layer">
    <g id="node-type-auto-smooth">
      <title id="title9619">node-type-auto-smooth</title>
      <path id="path16803" style="stroke:none" d="m 15.334272,0.91901738 a 0.5140439,0.5140439 0 0 0 -0.4063,0.59380002 c 0.2334,1.6021 -0.0607,3.7479 -1.125,5.4375 -1.0643,1.6896 -2.8444,2.9687 -5.8749998,2.9687 -3.034,0 -4.799,-1.2228 -5.8125,-2.875 -1.0134,-1.6521 -1.2297,-3.7672 -0.9687,-5.375 a 0.52410303,0.52410303 0 1 0 -1.0313,-0.1875 c -0.2977,1.834 -0.053,4.1734 1.125,6.0938 1.178,1.9204 3.3613,3.3749996 6.6875,3.3749996 3.3296998,0 5.5233998,-1.4901996 6.7499998,-3.4374996 1.2267,-1.9473 1.518,-4.2854 1.25,-6.125 a 0.5140439,0.5140439 0 0 0 -0.5937,-0.46880002 z" inkscape:connector-curvature="0" />
      <path id="path16809" style="stroke:none" d="M 11,10 A 3,3 0 0 1 8,13 3,3 0 0 1 5,10 3,3 0 0 1 8,7 3,3 0 0 1 11,10" />
    </g>
  </g>
</svg>
