<?xml version="1.0" encoding="UTF-8" standalone="no"?>
<!-- Created with Inkscape (http://www.inkscape.org/) -->

<svg xmlns:dc="http://purl.org/dc/elements/1.1/" xmlns:cc="http://creativecommons.org/ns#" xmlns:rdf="http://www.w3.org/1999/02/22-rdf-syntax-ns#" xmlns:svg="http://www.w3.org/2000/svg" xmlns="http://www.w3.org/2000/svg" xmlns:sodipodi="http://sodipodi.sourceforge.net/DTD/sodipodi-0.dtd" xmlns:inkscape="http://www.inkscape.org/namespaces/inkscape" id="SVGRoot" version="1.1" inkscape:version="0.92+devel trunk-69-gf61892a23 2017-07-04 custom" width="16px" height="16px" viewBox="0 0 16 16" sodipodi:docname="node-type-cusp-symbolic.svg">
  <sodipodi:namedview id="base" pagecolor="#ffffff" bordercolor="#666666" borderopacity="1.0" inkscape:pageopacity="0.0" inkscape:pageshadow="2" inkscape:zoom="16.0" inkscape:cx="8.0" inkscape:cy="8.0" inkscape:document-units="px" inkscape:current-layer="node-type-cusp" inkscape:document-rotation="0" showgrid="false" inkscape:grid-bbox="true" />
  <defs id="defs4626" />
  <metadata id="metadata4629">
    <rdf:RDF>
      <cc:Work rdf:about="">
        <dc:format>image/svg+xml</dc:format>
        <dc:type rdf:resource="http://purl.org/dc/dcmitype/StillImage" />
        <dc:title></dc:title>
      </cc:Work>
    </rdf:RDF>
  </metadata>
  <g inkscape:label="Layer 1" id="layer1" inkscape:groupmode="layer">
    <g id="node-type-cusp">
      <title id="title9613">node-type-cusp</title>
      <path id="path3226" style="stroke:none;stroke-width:0.99839664" d="M 0.453836,1.7382813e-5 A 0.50058572,0.50219483 0 0 0 0.547336,1.0000174 c 1.632652,0 2.782456,0.5329 3.675684,1.3437 0.893129,0.8109 1.516226,1.9114 1.931292,3.125 0.829932,2.4272 0.840997,5.1548996 0.840997,6.1562996 a 0.49844786,0.5000501 0 0 0 0.747597,0.4375 C 12.314411,9.5036174 15.464385,6.2211174 15.997671,0.56251738 a 0.50058339,0.5021925 0 1 0 -0.996796,-0.0937 C 14.527896,5.4871174 11.946095,8.3294174 7.961005,10.718817 7.941966,9.4168174 7.836006,7.3415174 7.088808,5.1563174 6.63726,3.8359174 5.970902,2.5584174 4.908317,1.5938174 3.845633,0.62911738 2.397189,1.7382813e-5 0.547336,1.7382813e-5 a 0.49844786,0.5000501 0 0 0 -0.0935,0 z" inkscape:connector-curvature="0" />
      <rect id="rect9611" style="stroke:none;stroke-width:0.8838836" width="3.5355344" height="3.5355344" transform="rotate(45)" x="11.667262" y="1.0606606" />
    </g>
  </g>
</svg>
