<?xml version="1.0" encoding="UTF-8" standalone="no"?>
<!-- Created with Inkscape (http://www.inkscape.org/) -->

<svg xmlns:dc="http://purl.org/dc/elements/1.1/" xmlns:cc="http://creativecommons.org/ns#" xmlns:rdf="http://www.w3.org/1999/02/22-rdf-syntax-ns#" xmlns:svg="http://www.w3.org/2000/svg" xmlns="http://www.w3.org/2000/svg" xmlns:sodipodi="http://sodipodi.sourceforge.net/DTD/sodipodi-0.dtd" xmlns:inkscape="http://www.inkscape.org/namespaces/inkscape" id="SVGRoot" version="1.1" inkscape:version="0.92+devel trunk-69-gf61892a23 2017-07-04 custom" width="16px" height="16px" viewBox="0 0 16 16" sodipodi:docname="node-join-segment-symbolic.svg">
  <sodipodi:namedview id="base" pagecolor="#ffffff" bordercolor="#666666" borderopacity="1.0" inkscape:pageopacity="0.0" inkscape:pageshadow="2" inkscape:zoom="16.0" inkscape:cx="8.0" inkscape:cy="8.0" inkscape:document-units="px" inkscape:current-layer="node-join-segment" inkscape:document-rotation="0" showgrid="false" inkscape:grid-bbox="true" />
  <defs id="defs4510" />
  <metadata id="metadata4513">
    <rdf:RDF>
      <cc:Work rdf:about="">
        <dc:format>image/svg+xml</dc:format>
        <dc:type rdf:resource="http://purl.org/dc/dcmitype/StillImage" />
        <dc:title></dc:title>
      </cc:Work>
    </rdf:RDF>
  </metadata>
  <g inkscape:label="Layer 1" id="layer1" inkscape:groupmode="layer">
    <g id="node-join-segment">
      <title id="title9609">node-join-segment</title>
      <rect id="rect19610" style="stroke:none" width="4" height="4" x="2" y="12" />
      <path id="path19612" style="stroke:none" d="m 7,5 h 2 l 0.006,3 h 2 l -3,3 -3,-3 h 2 z" inkscape:connector-curvature="0" />
      <rect id="rect19614" style="stroke:none" width="4" height="4" x="10" y="12" />
      <rect id="rect19616" style="stroke:none" width="3" height="1.000003" x="13" y="1" />
      <rect id="rect19618" style="stroke:none" width="3" height="1" x="0" y="1" />
      <rect id="rect19620" style="stroke:none" width="4" height="4" x="2" y="0" />
      <rect id="rect19622" style="stroke:none" width="4" height="4" x="10" y="0" />
      <rect id="rect19624" style="stroke:none" width="16" height="1" x="0" y="13" />
    </g>
  </g>
</svg>
