<?xml version="1.0" encoding="UTF-8" standalone="no"?>
<!-- Created with Inkscape (http://www.inkscape.org/) -->

<svg xmlns:dc="http://purl.org/dc/elements/1.1/" xmlns:cc="http://creativecommons.org/ns#" xmlns:rdf="http://www.w3.org/1999/02/22-rdf-syntax-ns#" xmlns:svg="http://www.w3.org/2000/svg" xmlns="http://www.w3.org/2000/svg" xmlns:sodipodi="http://sodipodi.sourceforge.net/DTD/sodipodi-0.dtd" xmlns:inkscape="http://www.inkscape.org/namespaces/inkscape" id="SVGRoot" version="1.1" inkscape:version="0.92+devel trunk-69-gf61892a23 2017-07-04 custom" width="16px" height="16px" viewBox="0 0 16 16" sodipodi:docname="path-mode-spiro-symbolic.svg">
  <sodipodi:namedview id="base" pagecolor="#ffffff" bordercolor="#666666" borderopacity="1.0" inkscape:pageopacity="0.0" inkscape:pageshadow="2" inkscape:zoom="16.0" inkscape:cx="8.0" inkscape:cy="8.0" inkscape:document-units="px" inkscape:current-layer="path-mode-spiro" inkscape:document-rotation="0" showgrid="false" inkscape:grid-bbox="true" />
  <defs id="defs4573" />
  <metadata id="metadata4576">
    <rdf:RDF>
      <cc:Work rdf:about="">
        <dc:format>image/svg+xml</dc:format>
        <dc:type rdf:resource="http://purl.org/dc/dcmitype/StillImage" />
        <dc:title></dc:title>
      </cc:Work>
    </rdf:RDF>
  </metadata>
  <g inkscape:label="Layer 1" id="layer1" inkscape:groupmode="layer">
    <g id="path-mode-spiro">
      <title id="title9727">path-mode-spiro</title>
      <path id="path-mode-spiro-outline" style="stroke:none;stroke-width:0.99939281" d="m 5.1175151,1.0292969 c -1.520315,0.011999 -2.947458,0.7348239 -3.893706,1.8945312 -0.94172205,1.1541613 -1.34984305,2.6530851 -1.18995905,4.109375 0.130435,1.1880609 0.631195,2.3154563 1.42405005,3.2089849 0.792856,0.893528 1.850917,1.523362 3.013915,1.792968 a 0.99942681,1.0006416 0 1 0 0.450624,-1.949218 C 4.1720531,9.9119833 3.4637421,9.4905819 2.9521781,8.9140625 2.4406131,8.3375428 2.1058271,7.5829627 2.0216691,6.8164062 1.9197071,5.8876981 2.1963511,4.8934376 2.7707581,4.1894531 c 0.569882,-0.6984387 1.486301,-1.1532417 2.362363,-1.1601562 0.585112,-0.00462 1.186348,0.1819376 1.65619,0.515625 0.468615,0.3328159 0.835571,0.8341009 1.002687,1.375 0.20695,0.6698268 0.131733,1.5918373 0.241894,2.6933593 0.07057,0.7056604 0.237723,1.4378142 0.585226,2.1308594 0.350128,0.6982814 0.879776,1.3406004 1.6054699,1.7734374 0.894467,0.533502 1.96874,0.670816 2.967097,0.390625 0.997261,-0.279882 1.83554,-0.951844 2.331151,-1.857422 C 15.963921,9.2448327 16.105888,8.3063797 15.92079,7.40625 15.735691,6.5061193 15.235539,5.7007138 14.512345,5.1347656 A 0.99942681,1.0006416 0 1 0 13.28142,6.7109375 c 0.338961,0.2652599 0.594057,0.6777183 0.680813,1.0996094 0.08676,0.4218921 0.01556,0.8995969 -0.191174,1.2773437 -0.230157,0.4205415 -0.662727,0.7662718 -1.119732,0.8945313 -0.455909,0.1279511 -1.00148,0.056812 -1.404543,-0.1835938 C 10.909901,9.5978957 10.610798,9.2541259 10.406009,8.8457031 10.198594,8.4320438 10.074367,7.9405773 10.02171,7.4140625 9.9388551,6.5855838 10.065396,5.5132713 9.6998361,4.3300781 9.3969311,3.349679 8.7727971,2.5006191 7.9441571,1.9121094 7.1167441,1.3244711 6.1228411,1.0213576 5.1175151,1.0292969 Z" inkscape:connector-curvature="0" />
    </g>
  </g>
</svg>
