<?xml version="1.0" encoding="UTF-8" standalone="no"?>
<!-- Created with Inkscape (http://www.inkscape.org/) -->

<svg xmlns:dc="http://purl.org/dc/elements/1.1/" xmlns:cc="http://creativecommons.org/ns#" xmlns:rdf="http://www.w3.org/1999/02/22-rdf-syntax-ns#" xmlns:svg="http://www.w3.org/2000/svg" xmlns="http://www.w3.org/2000/svg" xmlns:sodipodi="http://sodipodi.sourceforge.net/DTD/sodipodi-0.dtd" xmlns:inkscape="http://www.inkscape.org/namespaces/inkscape" id="SVGRoot" version="1.1" inkscape:version="0.92+devel trunk-69-gf61892a23 2017-07-04 custom" width="16px" height="16px" viewBox="0 0 16 16" sodipodi:docname="pixelart-trace-symbolic.svg">
  <sodipodi:namedview id="base" pagecolor="#ffffff" bordercolor="#666666" borderopacity="1.0" inkscape:pageopacity="0.0" inkscape:pageshadow="2" inkscape:zoom="16.0" inkscape:cx="8.0" inkscape:cy="8.0" inkscape:document-units="px" inkscape:current-layer="pixelart-trace" inkscape:document-rotation="0" showgrid="false" inkscape:grid-bbox="true" />
  <defs id="defs9150" />
  <metadata id="metadata9153">
    <rdf:RDF>
      <cc:Work rdf:about="">
        <dc:format>image/svg+xml</dc:format>
        <dc:type rdf:resource="http://purl.org/dc/dcmitype/StillImage" />
        <dc:title></dc:title>
      </cc:Work>
    </rdf:RDF>
  </metadata>
  <g inkscape:label="Layer 1" id="layer1" inkscape:groupmode="layer">
    <g id="pixelart-trace">
      <title id="title14641">pixelart-trace</title>
      <g inkscape:label="#g14914" id="boof">
        <path id="use28759" style="stroke:none" d="M 1,1 V 2 H 2 V 3 H 3 V 2 1 H 2 Z M 3,3 V 4 H 4 V 3 Z M 4,3 H 5 V 2 H 4 Z M 5,2 h 1 1 1 1 1 V 1 H 9 8 7 6 5 Z m 5,0 v 1 h 1 1 1 V 2 h 1 V 1 H 13 12 11 V 2 Z M 3,4 H 2 V 5 6 H 3 V 5 Z M 2,6 H 1 V 7 8 H 2 V 7 Z M 2,8 V 9 H 3 V 8 Z M 2,9 H 1 v 1 1 h 1 v -1 z m 0,2 v 1 h 1 v -1 z m 1,1 v 1 h 1 v -1 z m 1,1 v 1 h 1 v -1 z m 1,1 v 1 h 1 v 1 H 7 V 15 14 H 6 Z M 12,4 v 1 h 1 V 4 Z m 1,1 v 1 1 1 1 h 1 V 8 7 6 5 Z m 1,4 v 1 1 h 1 V 10 9 Z m 0,2 h -1 v 1 h 1 z m -1,1 h -1 v 1 h 1 z m -1,1 h -1 v 1 h 1 z m -1,1 H 10 9 v 1 1 h 1 v -1 h 1 z M 5,5 V 6 H 6 V 5 Z M 5,6 H 4 V 7 H 5 Z M 5,7 V 8 H 6 V 7 Z M 9,5 v 1 h 1 1 V 5 h -1 z m 2,1 v 1 h 1 V 6 Z m 0,1 H 10 9 v 1 h 1 1 z M 9,7 V 6 H 8 v 1 z" inkscape:connector-curvature="0" />
        <path id="use28875" style="opacity:0.5;stroke:none" d="m 6,9 v 1 H 7 V 9 Z m 1,1 v 1 h 1 v -1 z m 1,1 v 1 h 1 v -1 z m 1,0 h 1 V 10 H 9 Z M 6,10 H 5 v 1 H 6 Z M 5,11 H 4 v 1 h 1 z" inkscape:connector-curvature="0" />
      </g>
    </g>
  </g>
</svg>
