<?xml version="1.0" encoding="UTF-8" standalone="no"?>
<!-- Created with Inkscape (http://www.inkscape.org/) -->

<svg xmlns:dc="http://purl.org/dc/elements/1.1/" xmlns:cc="http://creativecommons.org/ns#" xmlns:rdf="http://www.w3.org/1999/02/22-rdf-syntax-ns#" xmlns:svg="http://www.w3.org/2000/svg" xmlns="http://www.w3.org/2000/svg" xmlns:sodipodi="http://sodipodi.sourceforge.net/DTD/sodipodi-0.dtd" xmlns:inkscape="http://www.inkscape.org/namespaces/inkscape" id="SVGRoot" version="1.1" inkscape:version="0.92+devel trunk-67-g1d2fa48c9 2017-07-04 custom" width="16px" height="16px" viewBox="0 0 16 16" sodipodi:docname="selection-make-bitmap-copy-symbolic.svg">
  <sodipodi:namedview id="base" pagecolor="#ffffff" bordercolor="#666666" borderopacity="1.0" inkscape:pageopacity="0.0" inkscape:pageshadow="2" inkscape:zoom="16.0" inkscape:cx="8.0" inkscape:cy="8.0" inkscape:document-units="px" inkscape:current-layer="selection-make-bitmap-copy" inkscape:document-rotation="0" showgrid="false" inkscape:grid-bbox="true" />
  <defs id="defs4609" />
  <metadata id="metadata4612">
    <rdf:RDF>
      <cc:Work rdf:about="">
        <dc:format>image/svg+xml</dc:format>
        <dc:type rdf:resource="http://purl.org/dc/dcmitype/StillImage" />
        <dc:title></dc:title>
      </cc:Work>
    </rdf:RDF>
  </metadata>
  <g inkscape:label="Layer 1" id="layer1" inkscape:groupmode="layer">
    <g id="selection-make-bitmap-copy">
      <title id="title13899">selection-make-bitmap-copy</title>
      <path id="rect5238" style="stroke:none;stroke-width:3" d="M 6,2 C 5.450041,2 5,2.45004 5,3 V 4 H 2 C 1.447986,4 1,4.45004 1,5 v 8 c 0,0.54996 0.447986,1 1,1 h 12 c 0.552014,0 1,-0.45004 1,-1 V 5 C 15,4.45004 14.552014,4 14,4 H 11 V 3 C 11,2.45004 10.549959,2 10,2 Z m 2,3 c 2.209139,0 4,1.79086 4,4 0,2.20914 -1.790861,4 -4,4 C 5.790861,13 4,11.20914 4,9 4,6.79086 5.790861,5 8,5 Z M 8,7 C 6.89543,7 6,7.89543 6,9 c 0,1.10457 0.89543,2 2,2 1.10457,0 2,-0.89543 2,-2 C 10,7.89543 9.10457,7 8,7 Z" inkscape:connector-curvature="0" />
    </g>
  </g>
</svg>
