<?xml version="1.0" encoding="UTF-8" standalone="no"?>
<!-- Created with Inkscape (http://www.inkscape.org/) -->

<svg xmlns:dc="http://purl.org/dc/elements/1.1/" xmlns:cc="http://creativecommons.org/ns#" xmlns:rdf="http://www.w3.org/1999/02/22-rdf-syntax-ns#" xmlns:svg="http://www.w3.org/2000/svg" xmlns="http://www.w3.org/2000/svg" xmlns:sodipodi="http://sodipodi.sourceforge.net/DTD/sodipodi-0.dtd" xmlns:inkscape="http://www.inkscape.org/namespaces/inkscape" id="SVGRoot" version="1.1" inkscape:version="0.92+devel trunk-69-gf61892a23 2017-07-04 custom" width="16px" height="16px" viewBox="0 0 16 16" sodipodi:docname="snap-bounding-box-center-symbolic.svg">
  <sodipodi:namedview id="base" pagecolor="#ffffff" bordercolor="#666666" borderopacity="1.0" inkscape:pageopacity="0.0" inkscape:pageshadow="2" inkscape:zoom="16.0" inkscape:cx="8.0" inkscape:cy="8.0" inkscape:document-units="px" inkscape:current-layer="snap-bounding-box-center" inkscape:document-rotation="0" showgrid="false" inkscape:grid-bbox="true" />
  <defs id="defs4586" />
  <metadata id="metadata4589">
    <rdf:RDF>
      <cc:Work rdf:about="">
        <dc:format>image/svg+xml</dc:format>
        <dc:type rdf:resource="http://purl.org/dc/dcmitype/StillImage" />
        <dc:title></dc:title>
      </cc:Work>
    </rdf:RDF>
  </metadata>
  <g inkscape:label="Layer 1" id="layer1" inkscape:groupmode="layer">
    <g id="snap-bounding-box-center">
      <rect id="rect9600" style="stroke:none" width="4" height="2" x="0" y="0" />
      <rect id="rect9602" style="stroke:none" width="4" height="2" x="6" y="0" />
      <rect id="rect9604" style="stroke:none" width="4" height="2" x="12" y="0" />
      <rect id="rect9606" style="stroke:none" width="2" height="4" x="14" y="0" />
      <rect id="rect9608" style="stroke:none" width="2" height="4" x="14" y="6" />
      <rect id="rect9610" style="stroke:none" width="2" height="4" x="14" y="12" />
      <rect id="rect9612" style="stroke:none" width="4" height="2" x="12" y="14" />
      <rect id="rect9614" style="stroke:none" width="4" height="2" x="6" y="14" />
      <rect id="rect9616" style="stroke:none" width="4" height="2" x="0" y="14" />
      <rect id="rect9618" style="stroke:none" width="2" height="4" x="0" y="12" />
      <rect id="rect9620" style="stroke:none" width="2" height="4" x="0" y="6" />
      <rect id="rect9622" style="stroke:none" width="2" height="4" x="0" y="0" />
      <rect id="rect9624" style="stroke:none" width="10" height="2" x="3" y="7" />
      <rect id="rect9626" style="stroke:none" width="2" height="10" x="7" y="3" />
    </g>
  </g>
</svg>
