<?xml version="1.0" encoding="UTF-8" standalone="no"?>
<!-- Created with Inkscape (http://www.inkscape.org/) -->

<svg xmlns:dc="http://purl.org/dc/elements/1.1/" xmlns:cc="http://creativecommons.org/ns#" xmlns:rdf="http://www.w3.org/1999/02/22-rdf-syntax-ns#" xmlns:svg="http://www.w3.org/2000/svg" xmlns="http://www.w3.org/2000/svg" xmlns:sodipodi="http://sodipodi.sourceforge.net/DTD/sodipodi-0.dtd" xmlns:inkscape="http://www.inkscape.org/namespaces/inkscape" id="SVGRoot" version="1.1" inkscape:version="0.92+devel trunk-67-g1d2fa48c9 2017-07-04 custom" width="16px" height="16px" viewBox="0 0 16 16" sodipodi:docname="symbol-smaller-symbolic.svg">
  <sodipodi:namedview id="base" pagecolor="#ffffff" bordercolor="#666666" borderopacity="1.0" inkscape:pageopacity="0.0" inkscape:pageshadow="2" inkscape:zoom="16.0" inkscape:cx="8.0" inkscape:cy="8.0" inkscape:document-units="px" inkscape:current-layer="symbol-smaller" inkscape:document-rotation="0" showgrid="false" inkscape:grid-bbox="true" />
  <defs id="defs6832" />
  <metadata id="metadata6835">
    <rdf:RDF>
      <cc:Work rdf:about="">
        <dc:format>image/svg+xml</dc:format>
        <dc:type rdf:resource="http://purl.org/dc/dcmitype/StillImage" />
        <dc:title></dc:title>
      </cc:Work>
    </rdf:RDF>
  </metadata>
  <g inkscape:label="Layer 1" id="layer1" inkscape:groupmode="layer">
    <g id="symbol-smaller">
      <title id="title112442">symbol-smaller</title>
      <path id="path6868" style="color:#000000;opacity:1;fill-opacity:1;fill-rule:nonzero;stroke:none;stroke-opacity:1;stroke-width:1;stroke-linecap:butt;stroke-linejoin:miter;stroke-miterlimit:4;stroke-dasharray:1, 1;stroke-dashoffset:0;solid-color:#000000;solid-opacity:1;mix-blend-mode:normal;isolation:auto;display:inline;visibility:visible;clip-rule:nonzero;color-interpolation:sRGB;color-rendering:auto;shape-rendering:auto" d="M 7.3535156 1.03125 L 7.4042969 2.03125 L 8 2.0019531 L 8.3515625 2.0175781 L 8.4023438 1.0195312 L 8.0253906 1 L 8 1 L 7.9746094 1 z M 9.2421875 2.1308594 L 9.7949219 2.2734375 L 10.152344 2.4042969 L 10.496094 1.4648438 L 10.105469 1.3222656 L 10.082031 1.3144531 L 10.056641 1.3085938 L 9.4921875 1.1621094 z M 5.9433594 1.3085938 L 5.9179688 1.3144531 L 5.8945312 1.3222656 L 5.2988281 1.5410156 L 5.2753906 1.5488281 L 5.2519531 1.5605469 L 5.2304688 1.5703125 L 5.5605469 2.2597656 L 5.6425781 2.4804688 L 5.6640625 2.4726562 L 6.2070312 2.2734375 L 6.5195312 2.1914062 L 6.2714844 1.2226562 z M 10.966797 2.7890625 L 11.351562 3.0234375 L 11.753906 3.3242188 L 12.351562 2.5234375 L 11.933594 2.2089844 L 11.914062 2.1953125 L 11.894531 2.1835938 L 11.486328 1.9355469 z M 4.1054688 2.1835938 L 4.0859375 2.1953125 L 4.0664062 2.2089844 L 3.5664062 2.5839844 L 3.546875 2.5976562 L 3.5292969 2.6152344 L 3.4238281 2.7109375 L 4.0957031 3.4492188 L 4.1796875 3.3730469 L 4.6484375 3.0234375 L 4.8242188 2.9160156 L 4.3046875 2.0625 z M 12.410156 3.9433594 L 12.626953 4.1796875 L 12.976562 4.6464844 L 12.990234 4.6660156 L 13.185547 4.5195312 L 13.830078 4.1269531 L 13.816406 4.1054688 L 13.804688 4.0859375 L 13.791016 4.0664062 L 13.416016 3.5664062 L 13.402344 3.546875 L 13.384766 3.5292969 L 13.150391 3.2695312 z M 2.6152344 3.5292969 L 2.5976562 3.546875 L 2.5839844 3.5664062 L 2.2089844 4.0664062 L 2.1953125 4.0859375 L 2.1835938 4.1054688 L 2.0429688 4.3378906 L 2.8964844 4.8554688 L 3.0214844 4.6484375 L 3.3710938 4.1816406 L 3.4257812 4.1230469 L 2.6855469 3.4511719 z M 13.4375 5.4765625 L 13.525391 5.6601562 L 13.726562 6.2070312 L 13.755859 6.3183594 L 14.724609 6.0703125 L 14.691406 5.9433594 L 14.685547 5.9179688 L 14.677734 5.8945312 L 14.458984 5.2988281 L 14.451172 5.2753906 L 14.439453 5.2519531 L 14.337891 5.0429688 z M 1.3222656 5.8945312 L 1.3144531 5.9179688 L 1.3085938 5.9433594 L 1.2148438 6.3066406 L 2.1835938 6.5566406 L 2.2734375 6.2050781 L 2.4765625 5.6542969 L 1.5371094 5.3105469 z M 13.947266 7.2480469 L 13.966797 7.3789062 L 13.998047 8 L 13.966797 8.6230469 L 13.921875 8.9199219 L 14.910156 9.0703125 L 14.960938 8.7402344 L 14.964844 8.7148438 L 14.964844 8.6894531 L 15 8.0253906 L 14.5 8 L 15 7.9746094 L 14.964844 7.3105469 L 14.964844 7.2851562 L 14.960938 7.2597656 L 14.935547 7.0976562 z M 1 7.9746094 L 1 8 L 1 8.0253906 L 1.0214844 8.4394531 L 2.0195312 8.3886719 L 2.0019531 8 L 2.0292969 7.4414062 L 1.0292969 7.390625 z M 1.171875 9.5273438 L 1.3085938 10.056641 L 1.3144531 10.082031 L 1.3222656 10.105469 L 1.4785156 10.53125 L 2.4179688 10.1875 L 2.2734375 9.7949219 L 2.140625 9.2792969 z M 13.527344 10.337891 L 13.363281 10.675781 L 14.265625 11.109375 L 14.439453 10.748047 L 14.451172 10.724609 L 14.458984 10.701172 L 14.664062 10.140625 L 13.724609 9.796875 z M 1.9550781 11.517578 L 2.1835938 11.894531 L 2.1953125 11.914062 L 2.2089844 11.933594 L 2.5449219 12.382812 L 3.3457031 11.783203 L 3.0234375 11.351562 L 2.8085938 10.998047 z M 12.626953 11.820312 L 12.296875 12.183594 L 13.035156 12.855469 L 13.384766 12.470703 L 13.402344 12.453125 L 13.416016 12.433594 L 13.703125 12.048828 L 12.902344 11.451172 z M 3.296875 13.175781 L 3.5292969 13.384766 L 3.546875 13.402344 L 3.5664062 13.416016 L 4.0664062 13.791016 L 4.0859375 13.804688 L 4.1054688 13.816406 L 4.1601562 13.849609 L 4.6796875 12.996094 L 4.6484375 12.976562 L 4.1796875 12.626953 L 3.9707031 12.435547 z M 11.351562 12.976562 L 10.865234 13.273438 L 10.863281 13.273438 L 10.837891 13.289062 L 10.992188 13.542969 L 11.296875 14.175781 L 11.314453 14.166016 L 11.337891 14.15625 L 11.357422 14.142578 L 11.894531 13.816406 L 11.914062 13.804688 L 11.933594 13.791016 L 12.214844 13.580078 L 11.617188 12.779297 z M 5.078125 14.355469 L 5.2519531 14.439453 L 5.2753906 14.451172 L 5.2988281 14.458984 L 5.8945312 14.677734 L 5.9179688 14.685547 L 5.9433594 14.691406 L 6.1054688 14.734375 L 6.3554688 13.765625 L 6.2070312 13.726562 L 5.6621094 13.527344 L 5.5117188 13.453125 z M 9.7949219 13.726562 L 9.2050781 13.876953 L 9.125 13.890625 L 9.2753906 14.878906 L 9.3847656 14.861328 L 9.4101562 14.859375 L 9.4335938 14.851562 L 10.056641 14.691406 L 10.082031 14.685547 L 10.105469 14.677734 L 10.335938 14.591797 L 9.9921875 13.654297 z M 7.1347656 14.941406 L 7.2597656 14.960938 L 7.2851562 14.964844 L 7.3105469 14.964844 L 7.9746094 15 L 8 15 L 8.0253906 15 L 8.2324219 14.988281 L 8.1816406 13.990234 L 8 13.998047 L 7.3789062 13.966797 L 7.2851562 13.953125 z " />
      <path id="path6874" style="color:#000000;opacity:1;fill-opacity:1;fill-rule:nonzero;stroke:none;stroke-opacity:1;stroke-width:1;stroke-linecap:butt;stroke-linejoin:miter;stroke-miterlimit:4;stroke-dasharray:none;stroke-dashoffset:0;solid-color:#000000;solid-opacity:1;mix-blend-mode:normal;isolation:auto;display:inline;visibility:visible;clip-rule:nonzero;color-interpolation:sRGB;color-rendering:auto;shape-rendering:auto" d="M 8 3 C 5.2444986 3 3 5.2444986 3 8 C 3 10.755501 5.2444986 13 8 13 C 10.755501 13 13 10.755501 13 8 C 13 5.2444986 10.755501 3 8 3 z M 8 4 C 10.215061 4 12 5.7849387 12 8 C 12 10.215061 10.215061 12 8 12 C 5.7849387 12 4 10.215061 4 8 C 4 5.7849387 5.7849387 4 8 4 z " />
      <path id="circle50355" style="opacity:0.25;stroke:none" d="M 12.5,8 A 4.5,4.5 0 0 1 8,12.5 4.5,4.5 0 0 1 3.5,8 4.5,4.5 0 0 1 8,3.5 4.5,4.5 0 0 1 12.5,8" />
    </g>
  </g>
</svg>
