<?xml version="1.0" encoding="UTF-8" standalone="no"?>
<!-- Created with Inkscape (http://www.inkscape.org/) -->

<svg xmlns:dc="http://purl.org/dc/elements/1.1/" xmlns:cc="http://creativecommons.org/ns#" xmlns:rdf="http://www.w3.org/1999/02/22-rdf-syntax-ns#" xmlns:svg="http://www.w3.org/2000/svg" xmlns="http://www.w3.org/2000/svg" xmlns:sodipodi="http://sodipodi.sourceforge.net/DTD/sodipodi-0.dtd" xmlns:inkscape="http://www.inkscape.org/namespaces/inkscape" id="SVGRoot" version="1.1" inkscape:version="0.92+devel trunk-69-gf61892a23 2017-07-04 custom" width="16px" height="16px" viewBox="0 0 16 16" sodipodi:docname="text-orientation-upright-symbolic.svg">
  <sodipodi:namedview id="base" pagecolor="#ffffff" bordercolor="#666666" borderopacity="1.0" inkscape:pageopacity="0.0" inkscape:pageshadow="2" inkscape:zoom="16.0" inkscape:cx="8.0" inkscape:cy="8.0" inkscape:document-units="px" inkscape:current-layer="text-orientation-upright" inkscape:document-rotation="0" showgrid="false" inkscape:grid-bbox="true" />
  <defs id="defs4294" />
  <metadata id="metadata4297">
    <rdf:RDF>
      <cc:Work rdf:about="">
        <dc:format>image/svg+xml</dc:format>
        <dc:type rdf:resource="http://purl.org/dc/dcmitype/StillImage" />
        <dc:title></dc:title>
      </cc:Work>
    </rdf:RDF>
  </metadata>
  <g inkscape:label="Layer 1" id="layer1" inkscape:groupmode="layer">
    <g id="text-orientation-upright">
      <title id="title12741">text-orientation-upright</title>
      <path id="path4340" style="color:#000000;opacity:1;fill-opacity:1;fill-rule:nonzero;stroke:none;stroke-opacity:1;stroke-width:0.68409371px;stroke-linecap:round;stroke-linejoin:round;stroke-miterlimit:4;stroke-dasharray:none;stroke-dashoffset:0;solid-color:#000000;solid-opacity:1;mix-blend-mode:normal;isolation:auto;display:inline;visibility:visible;clip-rule:nonzero;color-interpolation:sRGB;color-rendering:auto;shape-rendering:auto" d="M 11.328125 1.0039062 A 0.34204686 0.34204686 0 0 0 11.142578 1.0585938 A 0.34204686 0.34204686 0 0 0 11.041016 1.53125 L 11.142578 1.6875 L 8.9355469 1.6875 A 0.34208106 0.34208106 0 0 0 8.5917969 2.0292969 L 8.5917969 2.7167969 A 0.34204686 0.34204686 0 0 0 8.9355469 3.0585938 A 0.34204686 0.34204686 0 0 0 9.2773438 2.7167969 L 9.2773438 2.3730469 L 13.714844 2.3730469 L 13.708984 2.6953125 A 0.34204686 0.34204686 0 0 0 14.044922 3.0449219 A 0.34204686 0.34204686 0 0 0 14.392578 2.7089844 L 14.408203 2.0371094 A 0.34208106 0.34208106 0 0 0 14.064453 1.6875 L 11.958984 1.6875 L 11.615234 1.1601562 A 0.34204686 0.34204686 0 0 0 11.328125 1.0039062 z M 9.9609375 3.0566406 A 0.34204686 0.34204686 0 0 0 9.6191406 3.3984375 A 0.34204686 0.34204686 0 0 0 9.9609375 3.7402344 L 11.931641 3.7402344 L 11.445312 4.1679688 A 0.34208106 0.34208106 0 0 0 11.328125 4.4277344 L 11.332031 4.7949219 L 8.9394531 4.7675781 A 0.34204686 0.34204686 0 0 0 8.5917969 5.1054688 A 0.34204686 0.34204686 0 0 0 8.9316406 5.4511719 L 11.337891 5.4785156 L 11.345703 6.4609375 C 11.342769 6.5236302 11.296533 6.6265401 11.21875 6.703125 C 11.140967 6.7797099 11.043336 6.8183594 10.986328 6.8183594 L 10.302734 6.8183594 A 0.34204686 0.34204686 0 0 0 9.9609375 7.1601562 A 0.34204686 0.34204686 0 0 0 10.302734 7.5039062 L 10.986328 7.5039062 C 11.271367 7.5039062 11.516452 7.3713566 11.699219 7.1914062 C 11.881985 7.0114559 12.016221 6.7715418 12.029297 6.4921875 A 0.34208106 0.34208106 0 0 0 12.029297 6.4746094 L 12.021484 5.4863281 L 14.060547 5.5097656 A 0.34204686 0.34204686 0 0 0 14.408203 5.171875 A 0.34204686 0.34204686 0 0 0 14.068359 4.8242188 L 12.015625 4.8007812 L 12.013672 4.578125 L 13.066406 3.65625 A 0.34208106 0.34208106 0 0 0 12.839844 3.0566406 L 9.9609375 3.0566406 z " />
      <g id="text12125" style="stroke:none;font-family:sans-serif;-inkscape-font-specification:sans-serif;font-size:9px;letter-spacing:0px;word-spacing:0px;text-anchor:middle;text-decoration-color:#000000" aria-label="A">
        <path id="path12653" d="m 11.497803,9.3134766 -1.204102,3.2651364 h 2.412598 z M 10.996826,8.4389648 h 1.006348 L 14.503662,15 H 13.580811 L 12.983154,13.316895 H 10.025635 L 9.4279785,15 H 8.4919434 Z" inkscape:connector-curvature="0" />
      </g>
      <g id="g12135" transform="rotate(90,46.5,34.5)">
        <path id="path4346" style="color:#000000;opacity:1;fill-opacity:1;fill-rule:nonzero;stroke:none;stroke-opacity:1;stroke-width:1;stroke-linecap:butt;stroke-linejoin:miter;stroke-miterlimit:4;stroke-dasharray:none;stroke-dashoffset:0;solid-color:#000000;solid-opacity:1;mix-blend-mode:normal;isolation:auto;display:inline;visibility:visible;clip-rule:nonzero;color-interpolation:sRGB;color-rendering:auto;shape-rendering:auto" d="M 13 76 L 13 77 L 26.5 77 L 26.5 76 L 13 76 z " />
        <rect id="rect12131" style="stroke:none" width="0.5" height="0.5" x="24" y="74" />
        <rect id="rect12133" style="stroke:none" width="0.5" height="0.5" x="24" y="78.5" />
        <path id="path4352" style="color:#000000;opacity:1;fill-opacity:1;fill-rule:nonzero;stroke:none;stroke-opacity:1;stroke-width:1;stroke-linecap:round;stroke-linejoin:round;stroke-miterlimit:4;stroke-dasharray:none;stroke-dashoffset:0;solid-color:#000000;solid-opacity:1;mix-blend-mode:normal;isolation:auto;display:inline;visibility:visible;clip-rule:nonzero;color-interpolation:sRGB;color-rendering:auto;shape-rendering:auto" d="M 24.492188 74 A 0.5 0.5 0 0 0 24.146484 74.146484 A 0.5 0.5 0 0 0 24.146484 74.853516 L 25.792969 76.5 L 24.146484 78.146484 A 0.5 0.5 0 0 0 24.146484 78.853516 A 0.5 0.5 0 0 0 24.853516 78.853516 L 26.853516 76.853516 A 0.50005 0.50005 0 0 0 26.853516 76.146484 L 24.853516 74.146484 A 0.5 0.5 0 0 0 24.492188 74 z " />
      </g>
    </g>
  </g>
</svg>
