<?xml version="1.0" encoding="UTF-8" standalone="no"?>
<!-- Created with Inkscape (http://www.inkscape.org/) -->

<svg xmlns:dc="http://purl.org/dc/elements/1.1/" xmlns:cc="http://creativecommons.org/ns#" xmlns:rdf="http://www.w3.org/1999/02/22-rdf-syntax-ns#" xmlns:svg="http://www.w3.org/2000/svg" xmlns="http://www.w3.org/2000/svg" xmlns:sodipodi="http://sodipodi.sourceforge.net/DTD/sodipodi-0.dtd" xmlns:inkscape="http://www.inkscape.org/namespaces/inkscape" id="SVGRoot" version="1.1" inkscape:version="0.92+devel trunk-67-g1d2fa48c9 2017-07-04 custom" width="24px" height="24px" viewBox="0 0 24 24" sodipodi:docname="tool-tweak-symbolic.svg">
  <sodipodi:namedview id="base" pagecolor="#ffffff" bordercolor="#666666" borderopacity="1.0" inkscape:pageopacity="0.0" inkscape:pageshadow="2" inkscape:zoom="10.6666666667" inkscape:cx="12.0" inkscape:cy="12.0" inkscape:document-units="px" inkscape:current-layer="layer1" inkscape:document-rotation="0" showgrid="false" inkscape:grid-bbox="true" />
  <defs id="defs4448" />
  <metadata id="metadata4451">
    <rdf:RDF>
      <cc:Work rdf:about="">
        <dc:format>image/svg+xml</dc:format>
        <dc:type rdf:resource="http://purl.org/dc/dcmitype/StillImage" />
        <dc:title></dc:title>
      </cc:Work>
    </rdf:RDF>
  </metadata>
  <g inkscape:label="Layer 1" id="layer1" inkscape:groupmode="layer">
    <g id="tool-tweak">
      <title id="title30476">tool-tweak</title>
      <path id="rect4412" d="m 22,14 c -5.48264,1.2447 -7.68781,-0.2456 -8.76364,-2.6859 -0.95363,-2.1631996 -0.19305,-4.0843996 1.08343,-4.3160996 2.52345,-0.4583 2.26123,1.2458 3.76013,1.6735 1.42481,0.4066 1.85866,-0.9554 0.86037,-3.0829 -0.83811,-1.7862 -2.89066,-2.5569 -4.71609,-2.6426 -1.09526,-0.051 -2.10497,0.1299 -2.74044,0.5286 C 6.00138,6.9147004 9.05236,15.5582 1,14 v 9 h 21 z" inkscape:connector-curvature="0" />
    </g>
  </g>
</svg>
