<?xml version="1.0" encoding="UTF-8" standalone="no"?>
<!-- Created with Inkscape (http://www.inkscape.org/) -->

<svg xmlns:dc="http://purl.org/dc/elements/1.1/" xmlns:cc="http://creativecommons.org/ns#" xmlns:rdf="http://www.w3.org/1999/02/22-rdf-syntax-ns#" xmlns:svg="http://www.w3.org/2000/svg" xmlns="http://www.w3.org/2000/svg" xmlns:sodipodi="http://sodipodi.sourceforge.net/DTD/sodipodi-0.dtd" xmlns:inkscape="http://www.inkscape.org/namespaces/inkscape" id="SVGRoot" version="1.1" inkscape:version="0.92+devel trunk-67-g1d2fa48c9 2017-07-04 custom" width="24px" height="24px" viewBox="0 0 24 24" sodipodi:docname="tool-node-editor-symbolic.svg">
  <sodipodi:namedview id="base" pagecolor="#ffffff" bordercolor="#666666" borderopacity="1.0" inkscape:pageopacity="0.0" inkscape:pageshadow="2" inkscape:zoom="10.6666666667" inkscape:cx="12.0" inkscape:cy="12.0" inkscape:document-units="px" inkscape:current-layer="tool-node-editor" inkscape:document-rotation="0" showgrid="false" inkscape:grid-bbox="true" />
  <defs id="defs4346" />
  <metadata id="metadata4349">
    <rdf:RDF>
      <cc:Work rdf:about="">
        <dc:format>image/svg+xml</dc:format>
        <dc:type rdf:resource="http://purl.org/dc/dcmitype/StillImage" />
        <dc:title />
      </cc:Work>
    </rdf:RDF>
  </metadata>
  <g inkscape:label="Layer 1" id="layer1" inkscape:groupmode="layer">
    <g id="tool-node-editor">
      <title id="title30467">tool-node-editor</title>
      <path id="path4305" style="color:#000000;opacity:0.75;stroke-width:1.5" transform="translate(-50,-440)" d="M 70 441.75 C 59.929687 441.75 51.75 449.92969 51.75 460 L 53.25 460 C 53.25 450.74035 60.740347 443.25 70 443.25 L 70 441.75 z " />
      <rect id="rect10541" width="3" height="3" x="1" y="20" />
      <rect id="use5791" width="3" height="3" x="20" y="1" />
      <rect id="rect10534" width="5" height="5" x="5" y="5" />
      <path id="path10543" style="fill-rule:evenodd" d="m 10,10 7,12 5,-5 z" inkscape:connector-curvature="0" sodipodi:nodetypes="cccc" />
    </g>
  </g>
</svg>
