<?xml version="1.0" encoding="UTF-8" standalone="no"?>
<!-- Created with Inkscape (http://www.inkscape.org/) -->

<svg xmlns:dc="http://purl.org/dc/elements/1.1/" xmlns:cc="http://creativecommons.org/ns#" xmlns:rdf="http://www.w3.org/1999/02/22-rdf-syntax-ns#" xmlns:svg="http://www.w3.org/2000/svg" xmlns="http://www.w3.org/2000/svg" xmlns:sodipodi="http://sodipodi.sourceforge.net/DTD/sodipodi-0.dtd" xmlns:inkscape="http://www.inkscape.org/namespaces/inkscape" id="SVGRoot" version="1.1" inkscape:version="0.92+devel trunk-69-gf61892a23 2017-07-04 custom" width="16px" height="16px" viewBox="0 0 16 16" sodipodi:docname="view-fullscreen-symbolic.svg">
  <sodipodi:namedview id="base" pagecolor="#ffffff" bordercolor="#666666" borderopacity="1.0" inkscape:pageopacity="0.0" inkscape:pageshadow="2" inkscape:zoom="16.0" inkscape:cx="8.0" inkscape:cy="8.0" inkscape:document-units="px" inkscape:current-layer="view-fullscreen" inkscape:document-rotation="0" showgrid="false" inkscape:grid-bbox="true" />
  <defs id="defs5794" />
  <metadata id="metadata5797">
    <rdf:RDF>
      <cc:Work rdf:about="">
        <dc:format>image/svg+xml</dc:format>
        <dc:type rdf:resource="http://purl.org/dc/dcmitype/StillImage" />
        <dc:title></dc:title>
      </cc:Work>
    </rdf:RDF>
  </metadata>
  <g inkscape:label="Layer 1" id="layer1" inkscape:groupmode="layer">
    <g id="view-fullscreen">
      <title id="title14240">view-fullscreen</title>
      <g id="g6045" transform="translate(0,20)">
        <g id="g6035">
          <path id="path5850" style="color:#000000;opacity:1;fill-opacity:1;fill-rule:nonzero;stroke:none;stroke-opacity:1;stroke-width:2;stroke-linecap:round;stroke-linejoin:round;stroke-miterlimit:4;stroke-dasharray:none;stroke-dashoffset:0;solid-color:#000000;solid-opacity:1;mix-blend-mode:normal;isolation:auto;display:inline;visibility:visible;clip-rule:nonzero;color-interpolation:sRGB;color-rendering:auto;shape-rendering:auto" transform="translate(-400,-120)" d="M 406.48633 108.5 A 1 1 0 0 0 405.79297 108.79297 L 401.29297 113.29297 A 1 1 0 0 0 401.29297 114.70703 A 1 1 0 0 0 402.70703 114.70703 L 407.20703 110.20703 A 1 1 0 0 0 407.20703 108.79297 A 1 1 0 0 0 406.48633 108.5 z " />
          <path id="path5856" style="color:#000000;opacity:1;fill-opacity:1;fill-rule:nonzero;stroke:none;stroke-opacity:1;stroke-width:2;stroke-linecap:round;stroke-linejoin:round;stroke-miterlimit:4;stroke-dasharray:none;stroke-dashoffset:0;solid-color:#000000;solid-opacity:1;mix-blend-mode:normal;isolation:auto;display:inline;visibility:visible;clip-rule:nonzero;color-interpolation:sRGB;color-rendering:auto;shape-rendering:auto" transform="translate(-400,-120)" d="M 402 109 A 1 1 0 0 0 401 110 L 401 114 A 1.0001 1.0001 0 0 0 402 115 L 406 115 A 1 1 0 0 0 407 114 A 1 1 0 0 0 406 113 L 403 113 L 403 110 A 1 1 0 0 0 402 109 z " />
          <rect id="rect5231" style="stroke:none" width="1" height="1" transform="translate(-400,-120)" x="401" y="109" />
          <rect id="rect5233" style="stroke:none" width="1" height="1" transform="translate(-400,-120)" x="406" y="114" />
          <rect id="rect6043" style="stroke:none" width="1" height="1" transform="translate(-400,-120)" x="401" y="114" />
        </g>
        <g id="use6041" transform="rotate(180,8,-12)">
          <path id="path5862" style="color:#000000;opacity:1;fill-opacity:1;fill-rule:nonzero;stroke:none;stroke-opacity:1;stroke-width:2;stroke-linecap:round;stroke-linejoin:round;stroke-miterlimit:4;stroke-dasharray:none;stroke-dashoffset:0;solid-color:#000000;solid-opacity:1;mix-blend-mode:normal;isolation:auto;display:inline;visibility:visible;clip-rule:nonzero;color-interpolation:sRGB;color-rendering:auto;shape-rendering:auto" d="M 6.4863281 -11.5 A 1 1 0 0 0 5.7929688 -11.207031 L 1.2929688 -6.7070312 A 1 1 0 0 0 1.2929688 -5.2929688 A 1 1 0 0 0 2.7070312 -5.2929688 L 7.2070312 -9.7929688 A 1 1 0 0 0 7.2070312 -11.207031 A 1 1 0 0 0 6.4863281 -11.5 z " />
          <path id="path5868" style="color:#000000;opacity:1;fill-opacity:1;fill-rule:nonzero;stroke:none;stroke-opacity:1;stroke-width:2;stroke-linecap:round;stroke-linejoin:round;stroke-miterlimit:4;stroke-dasharray:none;stroke-dashoffset:0;solid-color:#000000;solid-opacity:1;mix-blend-mode:normal;isolation:auto;display:inline;visibility:visible;clip-rule:nonzero;color-interpolation:sRGB;color-rendering:auto;shape-rendering:auto" d="M 2 -11 A 1 1 0 0 0 1 -10 L 1 -6 A 1.0001 1.0001 0 0 0 2 -5 L 6 -5 A 1 1 0 0 0 7 -6 A 1 1 0 0 0 6 -7 L 3 -7 L 3 -10 A 1 1 0 0 0 2 -11 z " />
          <rect id="rect18186" style="stroke:none" width="1" height="1" x="1" y="-11" />
          <rect id="rect18188" style="stroke:none" width="1" height="1" x="6" y="-6" />
          <rect id="rect18190" style="stroke:none" width="1" height="1" x="1" y="-6" />
        </g>
      </g>
    </g>
  </g>
</svg>
