<?xml version="1.0" encoding="UTF-8" standalone="no"?>
<!-- Created with Inkscape (http://www.inkscape.org/) -->

<svg xmlns:dc="http://purl.org/dc/elements/1.1/" xmlns:cc="http://creativecommons.org/ns#" xmlns:rdf="http://www.w3.org/1999/02/22-rdf-syntax-ns#" xmlns:svg="http://www.w3.org/2000/svg" xmlns="http://www.w3.org/2000/svg" xmlns:sodipodi="http://sodipodi.sourceforge.net/DTD/sodipodi-0.dtd" xmlns:inkscape="http://www.inkscape.org/namespaces/inkscape" id="SVGRoot" version="1.1" inkscape:version="0.92+devel trunk-73-g23b717b1f 2017-07-05 custom" width="24px" height="24px" viewBox="0 0 24 24" sodipodi:docname="xml-text-new-symbolic.svg">
  <sodipodi:namedview id="base" pagecolor="#ffffff" bordercolor="#666666" borderopacity="1.0" inkscape:pageopacity="0.0" inkscape:pageshadow="2" inkscape:zoom="10.6666666667" inkscape:cx="12.0" inkscape:cy="12.0" inkscape:document-units="px" inkscape:current-layer="xml-text-new" inkscape:document-rotation="0" showgrid="false" inkscape:grid-bbox="true">
    <inkscape:grid type="xygrid" id="grid154" />
  </sodipodi:namedview>
  <defs id="defs4342" />
  <metadata id="metadata4345">
    <rdf:RDF>
      <cc:Work rdf:about="">
        <dc:format>image/svg+xml</dc:format>
        <dc:type rdf:resource="http://purl.org/dc/dcmitype/StillImage" />
        <dc:title />
      </cc:Work>
    </rdf:RDF>
  </metadata>
  <g inkscape:label="Layer 1" id="layer1" inkscape:groupmode="layer">
    <g id="xml-text-new">
      <title id="title112787">xml-text-new</title>
      <rect id="rect10080-7-0" style="fill-rule:evenodd;stroke:none" width="6" height="2" x="13.999999" y="16" />
      <rect id="rect10082-6-1" style="fill-rule:evenodd;stroke:none" width="2" height="6" x="16" y="14" />
      <path id="rect9320" style="stroke:none" d="m 4,4 v 10 h 11 v -1 h 2 V 4 Z m 7.068359,1.4472656 h 1.480469 v 2.4804688 c 0.203932,-0.2700717 0.42971,-0.4689349 0.677735,-0.5957032 0.248024,-0.129524 0.533036,-0.1933593 0.855468,-0.1933593 0.570458,0 1.039724,0.2269283 1.40625,0.6816406 0.366526,0.4519566 0.548828,1.0362394 0.548828,1.75 0,0.7137605 -0.182302,1.2972405 -0.548828,1.7519535 C 15.121755,11.774222 14.652489,12 14.082031,12 13.759599,12 13.474587,11.937315 13.226563,11.810547 12.978538,11.681023 12.75276,11.481009 12.548828,11.210938 v 0.669921 H 11.068359 Z M 7.3183594,7.1386719 c 0.8350172,0 1.437359,0.1653938 1.8066406,0.4960937 0.3720374,0.3279441 0.5585938,0.8621968 0.5585938,1.6035156 V 11.880859 H 8.1914062 v -0.6875 C 7.9929863,11.474454 7.7695093,11.681023 7.5214844,11.810547 7.2734594,11.937315 6.9726899,12 6.6171875,12 6.1376726,12 5.7476514,11.86037 5.4472656,11.582031 5.1496357,11.300936 5,10.936679 5,10.490234 5,9.9473354 5.1865563,9.5504116 5.5585938,9.296875 5.933387,9.0433385 6.5191679,8.9160156 7.3183594,8.9160156 H 8.1914062 V 8.8007812 c 0,-0.2342457 -0.092703,-0.4061944 -0.2773437,-0.5136718 C 7.7294218,8.1768761 7.4421095,8.1230469 7.0507812,8.1230469 c -0.3169206,0 -0.6119381,0.030366 -0.8847656,0.09375 -0.2728274,0.063384 -0.527473,0.158388 -0.7617187,0.2851562 V 7.375 C 5.7212176,7.2978367 6.0396984,7.2397535 6.359375,7.2011719 c 0.3196766,-0.041337 0.6393078,-0.0625 0.9589844,-0.0625 z M 13.53125,8.2128906 c -0.316921,0 -0.559607,0.1173167 -0.730469,0.3515625 -0.168105,0.2314899 -0.251953,0.567682 -0.251953,1.0058594 0,0.4381775 0.08385,0.7735665 0.251953,1.0078125 0.170862,0.23149 0.413548,0.347656 0.730469,0.347656 0.31692,0 0.559259,-0.116166 0.724609,-0.347656 0.168107,-0.23149 0.251955,-0.566879 0.251953,-1.0078125 0,-0.4409332 -0.08385,-0.7782757 -0.251953,-1.0097656 C 14.090509,8.3290569 13.84817,8.2128906 13.53125,8.2128906 Z M 7.421875,9.796875 c -0.3086533,0 -0.5401832,0.051528 -0.6972656,0.15625 -0.1543267,0.104722 -0.2324219,0.258959 -0.2324219,0.462891 0,0.187396 0.061534,0.335882 0.1855469,0.443359 0.1267683,0.104722 0.3021681,0.15625 0.5253906,0.15625 0.278339,0 0.5129725,-0.09845 0.703125,-0.296875 0.1901525,-0.201176 0.2851563,-0.451567 0.2851562,-0.7519531 V 9.796875 Z" inkscape:connector-curvature="0" />
    </g>
  </g>
</svg>
