<?xml version="1.0" encoding="UTF-8" standalone="no"?>
<!-- Created with Inkscape (http://www.inkscape.org/) -->

<svg xmlns:dc="http://purl.org/dc/elements/1.1/" xmlns:cc="http://creativecommons.org/ns#" xmlns:rdf="http://www.w3.org/1999/02/22-rdf-syntax-ns#" xmlns:svg="http://www.w3.org/2000/svg" xmlns="http://www.w3.org/2000/svg" xmlns:sodipodi="http://sodipodi.sourceforge.net/DTD/sodipodi-0.dtd" xmlns:inkscape="http://www.inkscape.org/namespaces/inkscape" id="SVGRoot" version="1.1" inkscape:version="0.92+devel trunk-67-g1d2fa48c9 2017-07-04 custom" width="24px" height="24px" viewBox="0 0 24 24" sodipodi:docname="zoom-symbolic.svg">
  <sodipodi:namedview id="base" pagecolor="#ffffff" bordercolor="#666666" borderopacity="1.0" inkscape:pageopacity="0.0" inkscape:pageshadow="2" inkscape:zoom="10.6666666667" inkscape:cx="12.0" inkscape:cy="12.0" inkscape:document-units="px" inkscape:current-layer="zoom" inkscape:document-rotation="0" showgrid="false" inkscape:grid-bbox="true" />
  <defs id="defs4495" />
  <metadata id="metadata4498">
    <rdf:RDF>
      <cc:Work rdf:about="">
        <dc:format>image/svg+xml</dc:format>
        <dc:type rdf:resource="http://purl.org/dc/dcmitype/StillImage" />
        <dc:title />
      </cc:Work>
    </rdf:RDF>
  </metadata>
  <g inkscape:label="Layer 1" id="layer1" inkscape:groupmode="layer">
    <g id="zoom">
      <title id="title30481">zoom</title>
      <path id="path4281" style="color:#000000" d="M 11.5 2 C 6.2710618 2 2 6.2710618 2 11.5 C 2 16.728938 6.2710618 21 11.5 21 C 16.728938 21 21 16.728938 21 11.5 C 21 6.2710618 16.728938 2 11.5 2 z M 11.5 5 C 15.107618 5 18 7.8923822 18 11.5 C 18 15.107618 15.107618 18 11.5 18 C 7.8923822 18 5 15.107618 5 11.5 C 5 7.8923822 7.8923822 5 11.5 5 z " />
      <path id="path4287" style="color:#000000" d="M 19.164062 16.335938 L 16.335938 19.164062 L 20.585938 23.414062 L 23.414062 20.585938 L 19.164062 16.335938 z " />
      <path id="circle20" style="color:#000000" d="m 24,22 a 2,2 0 0 1 -2,2 2,2 0 0 1 -2,-2 2,2 0 0 1 2,-2 2,2 0 0 1 2,2" />
    </g>
  </g>
</svg>
