<?xml version="1.0" encoding="UTF-8" standalone="no"?>
<!-- Created with Inkscape (http://www.inkscape.org/) -->

<svg xmlns:dc="http://purl.org/dc/elements/1.1/" xmlns:cc="http://creativecommons.org/ns#" xmlns:rdf="http://www.w3.org/1999/02/22-rdf-syntax-ns#" xmlns:svg="http://www.w3.org/2000/svg" xmlns="http://www.w3.org/2000/svg" xmlns:sodipodi="http://sodipodi.sourceforge.net/DTD/sodipodi-0.dtd" xmlns:inkscape="http://www.inkscape.org/namespaces/inkscape" id="SVGRoot" version="1.1" inkscape:version="0.92+devel trunk-69-gf61892a23 2017-07-04 custom" width="16px" height="16px" viewBox="0 0 16 16" sodipodi:docname="draw-ellipse-arc-symbolic.svg">
  <sodipodi:namedview id="base" pagecolor="#ffffff" bordercolor="#666666" borderopacity="1.0" inkscape:pageopacity="0.0" inkscape:pageshadow="2" inkscape:zoom="16.0" inkscape:cx="8.0" inkscape:cy="8.0" inkscape:document-units="px" inkscape:current-layer="draw-ellipse-arc" inkscape:document-rotation="0" showgrid="false" inkscape:grid-bbox="true" />
  <defs id="defs4367" />
  <metadata id="metadata4370">
    <rdf:RDF>
      <cc:Work rdf:about="">
        <dc:format>image/svg+xml</dc:format>
        <dc:type rdf:resource="http://purl.org/dc/dcmitype/StillImage" />
        <dc:title></dc:title>
      </cc:Work>
    </rdf:RDF>
  </metadata>
  <g inkscape:label="Layer 1" id="layer1" inkscape:groupmode="layer">
    <g id="draw-ellipse-arc">
      <title id="title62168">draw-ellipse-arc</title>
      <path id="path1925" style="stroke:none" d="m 5,3.0000174 c -2.787,1.5809 -3.8061,5.0432 -2.3125,7.8436996 1.5379,2.8838 5.1585,3.9798 8.0937,2.4688 2.9353,-1.511 4.0692,-5.0536996 2.5313,-7.9374996 l -1.75,0.875 c 0.9567,1.9403 0.2084,4.2715996 -1.7188,5.2811996 -1.9567,1.0253 -4.3497,0.2692 -5.375,-1.6874996 -0.9857,-1.8811 -0.3224,-4.1636 1.4688,-5.25 z" inkscape:connector-curvature="0" />
    </g>
  </g>
</svg>
