<?xml version="1.0" encoding="UTF-8" standalone="no"?>
<!-- Created with Inkscape (http://www.inkscape.org/) -->

<svg xmlns:dc="http://purl.org/dc/elements/1.1/" xmlns:cc="http://creativecommons.org/ns#" xmlns:rdf="http://www.w3.org/1999/02/22-rdf-syntax-ns#" xmlns:svg="http://www.w3.org/2000/svg" xmlns="http://www.w3.org/2000/svg" xmlns:sodipodi="http://sodipodi.sourceforge.net/DTD/sodipodi-0.dtd" xmlns:inkscape="http://www.inkscape.org/namespaces/inkscape" id="SVGRoot" version="1.1" inkscape:version="0.92+devel trunk-67-g1d2fa48c9 2017-07-04 custom" width="16px" height="16px" viewBox="0 0 16 16" sodipodi:docname="edit-select-original-symbolic.svg">
  <sodipodi:namedview id="base" pagecolor="#ffffff" bordercolor="#666666" borderopacity="1.0" inkscape:pageopacity="0.0" inkscape:pageshadow="2" inkscape:zoom="16.0" inkscape:cx="8.0" inkscape:cy="8.0" inkscape:document-units="px" inkscape:current-layer="edit-select-original" inkscape:document-rotation="0" showgrid="false" inkscape:grid-bbox="true" />
  <defs id="defs4474" />
  <metadata id="metadata4477">
    <rdf:RDF>
      <cc:Work rdf:about="">
        <dc:format>image/svg+xml</dc:format>
        <dc:type rdf:resource="http://purl.org/dc/dcmitype/StillImage" />
        <dc:title></dc:title>
      </cc:Work>
    </rdf:RDF>
  </metadata>
  <g inkscape:label="Layer 1" id="layer1" inkscape:groupmode="layer">
    <g id="edit-select-original">
      <title id="title13885">edit-select-original</title>
      <path id="path56059" style="stroke:none" transform="translate(-260,-180)" d="m 270,186 v 1 h 0.46875 C 271.32016,187 272,187.7099 272,188.5625 V 190 h 0.46875 c 0.27497,0 0.5,0.24935 0.5,0.5625 v 0.3125 3.09375 H 267 V 191 h -2 v 4 h 10 v -9 z m 0,2.03125 V 190 h 1 v -1.4375 c 0,-0.33321 -0.24258,-0.53125 -0.5,-0.53125 z" inkscape:connector-curvature="0" />
      <rect id="rect6582" style="stroke:none" width="9" height="9" x="0" y="1" />
    </g>
  </g>
</svg>
