<?xml version="1.0" encoding="UTF-8" standalone="no"?>
<!-- Created with Inkscape (http://www.inkscape.org/) -->

<svg xmlns:dc="http://purl.org/dc/elements/1.1/" xmlns:cc="http://creativecommons.org/ns#" xmlns:rdf="http://www.w3.org/1999/02/22-rdf-syntax-ns#" xmlns:svg="http://www.w3.org/2000/svg" xmlns="http://www.w3.org/2000/svg" xmlns:sodipodi="http://sodipodi.sourceforge.net/DTD/sodipodi-0.dtd" xmlns:inkscape="http://www.inkscape.org/namespaces/inkscape" id="SVGRoot" version="1.1" inkscape:version="0.92+devel trunk-67-g1d2fa48c9 2017-07-04 custom" width="12px" height="12px" viewBox="0 0 12 12" sodipodi:docname="fill-rule-nonzero-symbolic.svg">
  <sodipodi:namedview id="base" pagecolor="#ffffff" bordercolor="#666666" borderopacity="1.0" inkscape:pageopacity="0.0" inkscape:pageshadow="2" inkscape:zoom="21.3333333333" inkscape:cx="6.0" inkscape:cy="6.0" inkscape:document-units="px" inkscape:current-layer="fill-rule-nonzero" inkscape:document-rotation="0" showgrid="false" inkscape:grid-bbox="true" />
  <defs id="defs5564" />
  <metadata id="metadata5567">
    <rdf:RDF>
      <cc:Work rdf:about="">
        <dc:format>image/svg+xml</dc:format>
        <dc:type rdf:resource="http://purl.org/dc/dcmitype/StillImage" />
        <dc:title></dc:title>
      </cc:Work>
    </rdf:RDF>
  </metadata>
  <g inkscape:label="Layer 1" id="layer1" inkscape:groupmode="layer">
    <g id="fill-rule-nonzero">
      <title id="title88006">fill-rule-nonzero</title>
      <path id="path11877" style="stroke:none" d="M 2.1796769,0 C 0.7121769,0 -0.0091131,1.6875 8.6896649e-5,3.7969 0.0154869,7.3125 2.0559769,12 6.0231469,12 9.921727,12 11.963217,7.3125 11.999417,3.7969 12.021117,1.6875 11.321317,0 9.866727,0 8.647037,0 7.2130469,0.9265 5.9997469,2.2031 4.7935569,0.9329 3.3907669,0 2.1796769,0 Z" inkscape:connector-curvature="0" />
    </g>
  </g>
</svg>
