<?xml version="1.0" encoding="UTF-8" standalone="no"?>
<!-- Created with Inkscape (http://www.inkscape.org/) -->

<svg xmlns:dc="http://purl.org/dc/elements/1.1/" xmlns:cc="http://creativecommons.org/ns#" xmlns:rdf="http://www.w3.org/1999/02/22-rdf-syntax-ns#" xmlns:svg="http://www.w3.org/2000/svg" xmlns="http://www.w3.org/2000/svg" xmlns:sodipodi="http://sodipodi.sourceforge.net/DTD/sodipodi-0.dtd" xmlns:inkscape="http://www.inkscape.org/namespaces/inkscape" id="SVGRoot" version="1.1" inkscape:version="0.92+devel trunk-69-gf61892a23 2017-07-04 custom" width="16px" height="16px" viewBox="0 0 16 16" sodipodi:docname="grid-axonometric-symbolic.svg">
  <sodipodi:namedview id="base" pagecolor="#ffffff" bordercolor="#666666" borderopacity="1.0" inkscape:pageopacity="0.0" inkscape:pageshadow="2" inkscape:zoom="16.0" inkscape:cx="8.0" inkscape:cy="8.0" inkscape:document-units="px" inkscape:current-layer="grid-axonometric" inkscape:document-rotation="0" showgrid="false" inkscape:grid-bbox="true" />
  <defs id="defs5311" />
  <metadata id="metadata5314">
    <rdf:RDF>
      <cc:Work rdf:about="">
        <dc:format>image/svg+xml</dc:format>
        <dc:type rdf:resource="http://purl.org/dc/dcmitype/StillImage" />
        <dc:title></dc:title>
      </cc:Work>
    </rdf:RDF>
  </metadata>
  <g inkscape:label="Layer 1" id="layer1" inkscape:groupmode="layer">
    <g id="grid-axonometric">
      <title id="title9686">grid-axonometric</title>
      <path id="path4674" style="stroke:none" d="M 2.0067,1 V 15 H 3 V 1 Z" inkscape:connector-curvature="0" />
      <path id="path5266" style="stroke:none" d="m 11.9869,1 v 14 h 0.9933 V 1 Z" inkscape:connector-curvature="0" />
      <path id="path5268" style="stroke:none" d="M 7.0205,0 V 16 H 8.0138 V 0 Z" inkscape:connector-curvature="0" />
      <path id="path4720" style="stroke:none" d="M 0.5473,3 0,3.915 15.4849,13 16,12.085 Z" inkscape:connector-curvature="0" />
      <path id="path5309" style="stroke:none" d="M 0.5176,9 0,9.875 11,16 11.5176,15.1562 Z" inkscape:connector-curvature="0" />
      <path id="path5311" style="stroke:none" d="M 5.4522,0.0771 4.9408,0.9345 15.4886,7 16,6.1108 Z" inkscape:connector-curvature="0" />
      <path id="path5313" style="stroke:none" d="M 9.4737,0 0,5.134 0.5263,6 10,0.866 Z" inkscape:connector-curvature="0" />
      <path id="path5315" style="stroke:none" d="M 15.4839,2 0,11.0849 0.5161,12 16,2.915 Z" inkscape:connector-curvature="0" />
      <path id="path5317" style="stroke:none" d="M 15.5164,8 4,15.0968 4.4836,16 16,8.9032 Z" inkscape:connector-curvature="0" />
    </g>
  </g>
</svg>
