<?xml version="1.0" encoding="UTF-8" standalone="no"?>
<!-- Created with Inkscape (http://www.inkscape.org/) -->

<svg xmlns:dc="http://purl.org/dc/elements/1.1/" xmlns:cc="http://creativecommons.org/ns#" xmlns:rdf="http://www.w3.org/1999/02/22-rdf-syntax-ns#" xmlns:svg="http://www.w3.org/2000/svg" xmlns="http://www.w3.org/2000/svg" xmlns:sodipodi="http://sodipodi.sourceforge.net/DTD/sodipodi-0.dtd" xmlns:inkscape="http://www.inkscape.org/namespaces/inkscape" id="SVGRoot" version="1.1" inkscape:version="0.92+devel trunk-69-gf61892a23 2017-07-04 custom" width="16px" height="16px" viewBox="0 0 16 16" sodipodi:docname="node-delete-symbolic.svg">
  <sodipodi:namedview id="base" pagecolor="#ffffff" bordercolor="#666666" borderopacity="1.0" inkscape:pageopacity="0.0" inkscape:pageshadow="2" inkscape:zoom="16.0" inkscape:cx="8.0" inkscape:cy="8.0" inkscape:document-units="px" inkscape:current-layer="node-delete" inkscape:document-rotation="0" showgrid="false" inkscape:grid-bbox="true" />
  <defs id="defs4343" />
  <metadata id="metadata4346">
    <rdf:RDF>
      <cc:Work rdf:about="">
        <dc:format>image/svg+xml</dc:format>
        <dc:type rdf:resource="http://purl.org/dc/dcmitype/StillImage" />
        <dc:title></dc:title>
      </cc:Work>
    </rdf:RDF>
  </metadata>
  <g inkscape:label="Layer 1" id="layer1" inkscape:groupmode="layer">
    <g id="node-delete">
      <title id="title9601">node-delete</title>
      <path id="path19273" style="stroke:none" d="m 0.5,13.000017 a 0.5021925,0.5021925 0 1 0 0.0937,1 H 15.5 a 0.5000502,0.5000502 0 1 0 0,-1 H 0.5937 a 0.5000502,0.5000502 0 0 0 -0.0937,0 z" inkscape:connector-curvature="0" />
      <rect id="rect19275" style="stroke:none" width="6" height="5" x="5" y="11" />
      <path id="path19277" style="stroke:none" d="m 7,3 h 2 v 0 h 3 V 5 H 9 V 5 H 7 V 5 H 4 V 3 Z" inkscape:connector-curvature="0" />
    </g>
  </g>
</svg>
