<?xml version="1.0" encoding="UTF-8" standalone="no"?>
<!-- Created with Inkscape (http://www.inkscape.org/) -->

<svg xmlns:dc="http://purl.org/dc/elements/1.1/" xmlns:cc="http://creativecommons.org/ns#" xmlns:rdf="http://www.w3.org/1999/02/22-rdf-syntax-ns#" xmlns:svg="http://www.w3.org/2000/svg" xmlns="http://www.w3.org/2000/svg" xmlns:sodipodi="http://sodipodi.sourceforge.net/DTD/sodipodi-0.dtd" xmlns:inkscape="http://www.inkscape.org/namespaces/inkscape" id="SVGRoot" version="1.1" inkscape:version="0.92+devel trunk-69-gf61892a23 2017-07-04 custom" width="16px" height="16px" viewBox="0 0 16 16" sodipodi:docname="node-type-symmetric-symbolic.svg">
  <sodipodi:namedview id="base" pagecolor="#ffffff" bordercolor="#666666" borderopacity="1.0" inkscape:pageopacity="0.0" inkscape:pageshadow="2" inkscape:zoom="16.0" inkscape:cx="8.0" inkscape:cy="8.0" inkscape:document-units="px" inkscape:current-layer="node-type-symmetric" inkscape:document-rotation="0" showgrid="false" inkscape:grid-bbox="true" />
  <defs id="defs4716" />
  <metadata id="metadata4719">
    <rdf:RDF>
      <cc:Work rdf:about="">
        <dc:format>image/svg+xml</dc:format>
        <dc:type rdf:resource="http://purl.org/dc/dcmitype/StillImage" />
        <dc:title />
      </cc:Work>
    </rdf:RDF>
  </metadata>
  <g inkscape:label="Layer 1" id="layer1" inkscape:groupmode="layer">
    <g id="node-type-symmetric">
      <title id="title9617">node-type-symmetric</title>
      <path id="path16756" style="stroke:none" d="M 15.315461,1.7382813e-5 A 0.51341326,0.5121131 0 0 0 14.909659,0.59376738 c 0.233114,1.59610002 -0.06063,3.72302002 -1.12362,5.40625002 -0.631724,1.00041 -1.528822,1.84515 -2.777788,2.375 v 1.125 c 1.65317,-0.59433 2.857191,-1.6793 3.651715,-2.9375 1.225195,-1.93994 1.516138,-4.26109 1.248466,-6.09375002 A 0.51341326,0.5121131 0 0 0 15.315461,1.7382813e-5 Z M 0.61471792,0.12501738 a 0.52343545,0.52211 0 0 0 -0.499387,0.4375 c -0.297334,1.82706002 -0.05294,4.14933002 1.12361998,6.06250002 0.790829,1.28594 2.036798,2.36999 3.776661,2.9375 v -1.0625 c -1.345247,-0.50158 -2.270011,-1.37754 -2.902734,-2.40625 -1.012157,-1.64596 -1.22819198,-3.74206 -0.967512,-5.34375002 a 0.52343545,0.52211 0 0 0 -0.53064798,-0.625 z" inkscape:connector-curvature="0" />
      <rect id="rect16760" style="stroke:none" width="4" height="5" x="6.000001" y="8" />
      <rect id="rect16762" style="stroke:none" width="2" height="1" x="11.000001" y="11" />
      <rect id="rect16764" style="stroke:none" width="2" height="1" x="3.000001" y="11" />
      <path id="path16766" style="stroke:none" d="m 15.500001,11.5 a 1.5,1.5 0 0 1 -1.5,1.5 1.5,1.5 0 0 1 -1.5,-1.5 1.5,1.5 0 0 1 1.5,-1.5 1.5,1.5 0 0 1 1.5,1.5" />
      <path id="path16770" style="stroke:none" d="m 3.500001,11.5 a 1.5,1.5 0 0 1 -1.5,1.5 A 1.5,1.5 0 0 1 0.50000095,11.5 1.5,1.5 0 0 1 2.000001,10 a 1.5,1.5 0 0 1 1.5,1.5" />
    </g>
  </g>
</svg>
