<?xml version="1.0" encoding="UTF-8" standalone="no"?>
<!-- Created with Inkscape (http://www.inkscape.org/) -->

<svg xmlns:dc="http://purl.org/dc/elements/1.1/" xmlns:cc="http://creativecommons.org/ns#" xmlns:rdf="http://www.w3.org/1999/02/22-rdf-syntax-ns#" xmlns:svg="http://www.w3.org/2000/svg" xmlns="http://www.w3.org/2000/svg" xmlns:sodipodi="http://sodipodi.sourceforge.net/DTD/sodipodi-0.dtd" xmlns:inkscape="http://www.inkscape.org/namespaces/inkscape" id="SVGRoot" version="1.1" inkscape:version="0.92+devel trunk-69-gf61892a23 2017-07-04 custom" width="16px" height="16px" viewBox="0 0 16 16" sodipodi:docname="node-type-smooth-symbolic.svg">
  <sodipodi:namedview id="base" pagecolor="#ffffff" bordercolor="#666666" borderopacity="1.0" inkscape:pageopacity="0.0" inkscape:pageshadow="2" inkscape:zoom="16.0" inkscape:cx="8.0" inkscape:cy="8.0" inkscape:document-units="px" inkscape:current-layer="node-type-smooth" inkscape:document-rotation="0" showgrid="false" inkscape:grid-bbox="true" />
  <defs id="defs4669" />
  <metadata id="metadata4672">
    <rdf:RDF>
      <cc:Work rdf:about="">
        <dc:format>image/svg+xml</dc:format>
        <dc:type rdf:resource="http://purl.org/dc/dcmitype/StillImage" />
        <dc:title></dc:title>
      </cc:Work>
    </rdf:RDF>
  </metadata>
  <g inkscape:label="Layer 1" id="layer1" inkscape:groupmode="layer">
    <g id="node-type-smooth">
      <title id="title9615">node-type-smooth</title>
      <path id="path7534" style="stroke:none;stroke-width:0.99938643" d="M 15.315461,0.91901738 A 0.51341326,0.5140439 0 0 0 14.909659,1.5128174 c 0.233114,1.6021 -0.06063,3.7479 -1.12362,5.4375 -1.062994,1.6896 -2.84091,2.9687 -5.8677921,2.9687 -3.030278,0 -4.793113,-1.2228 -5.805369,-2.875 -1.012157,-1.6521 -1.22819198,-3.7672 -0.967512,-5.375 a 0.52346016,0.52410314 0 1 0 -1.03003498,-0.1875 c -0.297334,1.834 -0.05294,4.1734 1.12361998,6.0938 1.176555,1.9204 3.357176,3.3749996 6.679296,3.3749996 3.3256151,0 5.5166241,-1.4901996 6.7417191,-3.4374996 1.225195,-1.9473 1.516138,-4.2854 1.248466,-6.125 A 0.51341326,0.5140439 0 0 0 15.315461,0.91901738 Z" inkscape:connector-curvature="0" />
      <rect id="rect16754" style="stroke:none" width="4" height="5" x="6.000001" y="8" />
    </g>
  </g>
</svg>
