<?xml version="1.0" encoding="UTF-8" standalone="no"?>
<!-- Created with Inkscape (http://www.inkscape.org/) -->

<svg xmlns:dc="http://purl.org/dc/elements/1.1/" xmlns:cc="http://creativecommons.org/ns#" xmlns:rdf="http://www.w3.org/1999/02/22-rdf-syntax-ns#" xmlns:svg="http://www.w3.org/2000/svg" xmlns="http://www.w3.org/2000/svg" xmlns:sodipodi="http://sodipodi.sourceforge.net/DTD/sodipodi-0.dtd" xmlns:inkscape="http://www.inkscape.org/namespaces/inkscape" id="SVGRoot" version="1.1" inkscape:version="0.92+devel trunk-69-gf61892a23 2017-07-04 custom" width="16px" height="16px" viewBox="0 0 16 16" sodipodi:docname="object-tweak-attract-symbolic.svg">
  <sodipodi:namedview id="base" pagecolor="#ffffff" bordercolor="#666666" borderopacity="1.0" inkscape:pageopacity="0.0" inkscape:pageshadow="2" inkscape:zoom="16.0" inkscape:cx="8.0" inkscape:cy="8.0" inkscape:document-units="px" inkscape:current-layer="object-tweak-attract" inkscape:document-rotation="0" showgrid="false" inkscape:grid-bbox="true" />
  <defs id="defs4447" />
  <metadata id="metadata4450">
    <rdf:RDF>
      <cc:Work rdf:about="">
        <dc:format>image/svg+xml</dc:format>
        <dc:type rdf:resource="http://purl.org/dc/dcmitype/StillImage" />
        <dc:title></dc:title>
      </cc:Work>
    </rdf:RDF>
  </metadata>
  <g inkscape:label="Layer 1" id="layer1" inkscape:groupmode="layer">
    <g id="object-tweak-attract">
      <title id="title100108">object-tweak-attract</title>
      <path id="path5084" style="stroke:none" d="M 3.5141808,1.9557796 A 1.3405904,1.3405904 0 0 1 2.1735904,3.2963699 1.3405904,1.3405904 0 0 1 0.83300006,1.9557796 1.3405904,1.3405904 0 0 1 2.1735904,0.61518919 1.3405904,1.3405904 0 0 1 3.5141808,1.9557796" />
      <path id="use5124" style="stroke:none" d="M 12.375561,12.97742 A 1.3405904,1.3405904 0 0 1 11.03497,14.31801 1.3405904,1.3405904 0 0 1 9.6943799,12.97742 1.3405904,1.3405904 0 0 1 11.03497,11.636829 1.3405904,1.3405904 0 0 1 12.375561,12.97742" />
      <path id="use5130" style="stroke:none" d="M 6.4679807,13.054919 A 1.3405904,1.3405904 0 0 1 5.1273904,14.39551 1.3405904,1.3405904 0 0 1 3.7868,13.054919 a 1.3405904,1.3405904 0 0 1 1.3405904,-1.34059 1.3405904,1.3405904 0 0 1 1.3405903,1.34059" />
      <path id="use5088" style="stroke:none" d="M 14.62997,4.9831395 A 1.3405904,1.3405904 0 0 1 13.28938,6.3237299 1.3405904,1.3405904 0 0 1 11.94879,4.9831395 1.3405904,1.3405904 0 0 1 13.28938,3.6425492 1.3405904,1.3405904 0 0 1 14.62997,4.9831395" />
      <path id="use5126" style="stroke:none" d="M 14.552481,11.037869 A 1.3405904,1.3405904 0 0 1 13.21189,12.37846 1.3405904,1.3405904 0 0 1 11.8713,11.037869 1.3405904,1.3405904 0 0 1 13.21189,9.6972791 1.3405904,1.3405904 0 0 1 14.552481,11.037869" />
      <path id="use5090" style="stroke:none" d="M 13.895611,8.0105095 A 1.3405904,1.3405904 0 0 1 12.55502,9.3510998 1.3405904,1.3405904 0 0 1 11.21443,8.0105095 1.3405904,1.3405904 0 0 1 12.55502,6.6699191 1.3405904,1.3405904 0 0 1 13.895611,8.0105095" />
      <path id="use5132" style="stroke:none" d="M 9.4217709,12.36024 A 1.3405904,1.3405904 0 0 1 8.0811806,13.70083 1.3405904,1.3405904 0 0 1 6.7405902,12.36024 1.3405904,1.3405904 0 0 1 8.0811806,11.01965 1.3405904,1.3405904 0 0 1 9.4217709,12.36024" />
      <path id="use5086" style="stroke:none" d="M 12.220561,2.8876696 A 1.3405904,1.3405904 0 0 1 10.879971,4.2282599 1.3405904,1.3405904 0 0 1 9.5393802,2.8876696 1.3405904,1.3405904 0 0 1 10.879971,1.5470792 1.3405904,1.3405904 0 0 1 12.220561,2.8876696" />
      <path id="use5092" style="stroke:none" d="M 6.4679807,2.8101594 A 1.3405904,1.3405904 0 0 1 5.1273904,4.1507498 1.3405904,1.3405904 0 0 1 3.7868,2.8101594 1.3405904,1.3405904 0 0 1 5.1273904,1.4695691 1.3405904,1.3405904 0 0 1 6.4679807,2.8101594" />
      <path id="use5094" style="stroke:none" d="M 15.32936,1.9557796 A 1.3405904,1.3405904 0 0 1 13.98877,3.2963699 1.3405904,1.3405904 0 0 1 12.648179,1.9557796 1.3405904,1.3405904 0 0 1 13.98877,0.61518919 1.3405904,1.3405904 0 0 1 15.32936,1.9557796" />
      <path id="use5096" style="stroke:none" d="M 4.8317205,8.0105095 A 1.3405904,1.3405904 0 0 1 3.4911301,9.3510998 1.3405904,1.3405904 0 0 1 2.1505398,8.0105095 1.3405904,1.3405904 0 0 1 3.4911301,6.6699191 1.3405904,1.3405904 0 0 1 4.8317205,8.0105095" />
      <path id="use5098" style="stroke:none" d="M 4.2906007,11.037869 A 1.3405904,1.3405904 0 0 1 2.9500103,12.37846 1.3405904,1.3405904 0 0 1 1.6094199,11.037869 1.3405904,1.3405904 0 0 1 2.9500103,9.6972791 1.3405904,1.3405904 0 0 1 4.2906007,11.037869" />
      <path id="use5100" style="stroke:none" d="M 9.4217709,3.5445795 A 1.3405904,1.3405904 0 0 1 8.0811806,4.8851699 1.3405904,1.3405904 0 0 1 6.7405902,3.5445795 1.3405904,1.3405904 0 0 1 8.0811806,2.2039891 1.3405904,1.3405904 0 0 1 9.4217709,3.5445795" />
      <path id="use5103" style="stroke:none" d="M 4.1743406,4.9831395 A 1.3405904,1.3405904 0 0 1 2.8337502,6.3237299 1.3405904,1.3405904 0 0 1 1.4931599,4.9831395 1.3405904,1.3405904 0 0 1 2.8337502,3.6425492 1.3405904,1.3405904 0 0 1 4.1743406,4.9831395" />
      <path id="use5106" style="stroke:none" d="M 6.7392305,5.2543998 A 1.3405904,1.3405904 0 0 1 5.3986402,6.5949901 1.3405904,1.3405904 0 0 1 4.0580498,5.2543998 1.3405904,1.3405904 0 0 1 5.3986402,3.9138094 1.3405904,1.3405904 0 0 1 6.7392305,5.2543998" />
      <path id="use5108" style="stroke:none" d="M 6.6617306,10.68911 A 1.3405904,1.3405904 0 0 1 5.3211403,12.0297 1.3405904,1.3405904 0 0 1 3.9805499,10.68911 1.3405904,1.3405904 0 0 1 5.3211403,9.3485194 1.3405904,1.3405904 0 0 1 6.6617306,10.68911" />
      <path id="use5110" style="stroke:none" d="M 9.4217709,6.1456795 A 1.3405904,1.3405904 0 0 1 8.0811806,7.4862698 1.3405904,1.3405904 0 0 1 6.7405902,6.1456795 1.3405904,1.3405904 0 0 1 8.0811806,4.8050891 1.3405904,1.3405904 0 0 1 9.4217709,6.1456795" />
      <path id="use5112" style="stroke:none" d="M 12.220561,5.3318996 A 1.3405904,1.3405904 0 0 1 10.879971,6.67249 1.3405904,1.3405904 0 0 1 9.5393802,5.3318996 1.3405904,1.3405904 0 0 1 10.879971,3.9913093 a 1.3405904,1.3405904 0 0 1 1.34059,1.3405903" />
      <path id="use5114" style="stroke:none" d="M 7.4755105,8.0105095 A 1.3405904,1.3405904 0 0 1 6.1349201,9.3510998 1.3405904,1.3405904 0 0 1 4.7943298,8.0105095 1.3405904,1.3405904 0 0 1 6.1349201,6.6699191 1.3405904,1.3405904 0 0 1 7.4755105,8.0105095" />
      <path id="use5116" style="stroke:none" d="M 9.4217709,9.7203293 A 1.3405904,1.3405904 0 0 1 8.0811806,11.06092 1.3405904,1.3405904 0 0 1 6.7405902,9.7203293 1.3405904,1.3405904 0 0 1 8.0811806,8.3797389 1.3405904,1.3405904 0 0 1 9.4217709,9.7203293" />
      <path id="use5120" style="stroke:none" d="M 11.213031,8.0105095 A 1.3405904,1.3405904 0 0 1 9.8724403,9.3510998 1.3405904,1.3405904 0 0 1 8.53185,8.0105095 1.3405904,1.3405904 0 0 1 9.8724403,6.6699191 1.3405904,1.3405904 0 0 1 11.213031,8.0105095" />
      <path id="use5122" style="stroke:none" d="M 12.143061,10.72787 A 1.3405904,1.3405904 0 0 1 10.80247,12.06846 1.3405904,1.3405904 0 0 1 9.4618798,10.72787 1.3405904,1.3405904 0 0 1 10.80247,9.3872796 1.3405904,1.3405904 0 0 1 12.143061,10.72787" />
      <path id="use5128" style="stroke:none" d="M 3.5141805,14.06524 A 1.3405904,1.3405904 0 0 1 2.1735902,15.40583 1.3405904,1.3405904 0 0 1 0.83299983,14.06524 1.3405904,1.3405904 0 0 1 2.1735902,12.72465 1.3405904,1.3405904 0 0 1 3.5141805,14.06524" />
      <path id="use5134" style="stroke:none" d="m 15.32936,14.06524 a 1.3405904,1.3405904 0 0 1 -1.34059,1.34059 1.3405904,1.3405904 0 0 1 -1.340591,-1.34059 1.3405904,1.3405904 0 0 1 1.340591,-1.34059 1.3405904,1.3405904 0 0 1 1.34059,1.34059" />
    </g>
  </g>
</svg>
