<?xml version="1.0" encoding="UTF-8" standalone="no"?>
<!-- Created with Inkscape (http://www.inkscape.org/) -->

<svg xmlns:dc="http://purl.org/dc/elements/1.1/" xmlns:cc="http://creativecommons.org/ns#" xmlns:rdf="http://www.w3.org/1999/02/22-rdf-syntax-ns#" xmlns:svg="http://www.w3.org/2000/svg" xmlns="http://www.w3.org/2000/svg" xmlns:sodipodi="http://sodipodi.sourceforge.net/DTD/sodipodi-0.dtd" xmlns:inkscape="http://www.inkscape.org/namespaces/inkscape" id="SVGRoot" version="1.1" inkscape:version="0.92+devel trunk-69-gf61892a23 2017-07-04 custom" width="16px" height="16px" viewBox="0 0 16 16" sodipodi:docname="object-to-path-symbolic.svg">
  <sodipodi:namedview id="base" pagecolor="#ffffff" bordercolor="#666666" borderopacity="1.0" inkscape:pageopacity="0.0" inkscape:pageshadow="2" inkscape:zoom="16.0" inkscape:cx="8.0" inkscape:cy="8.0" inkscape:document-units="px" inkscape:current-layer="object-to-path" inkscape:document-rotation="0" showgrid="false" inkscape:grid-bbox="true" />
  <defs id="defs9031" />
  <metadata id="metadata9034">
    <rdf:RDF>
      <cc:Work rdf:about="">
        <dc:format>image/svg+xml</dc:format>
        <dc:type rdf:resource="http://purl.org/dc/dcmitype/StillImage" />
        <dc:title></dc:title>
      </cc:Work>
    </rdf:RDF>
  </metadata>
  <g inkscape:label="Layer 1" id="layer1" inkscape:groupmode="layer">
    <g id="object-to-path">
      <title id="title14611">object-to-path</title>
      <path id="rect22767" style="stroke:none" d="M 2,2 V 14 H 14 V 2 Z M 3,3 H 13 V 13 H 3 Z" inkscape:connector-curvature="0" sodipodi:nodetypes="cccccccccc" />
      <rect id="rect22772" style="stroke:none" width="3" height="3" x="1" y="1" />
      <rect id="rect22776" style="stroke:none" width="3" height="3" x="12" y="1" />
      <rect id="rect22778" style="stroke:none" width="3" height="3" x="1" y="12" />
      <rect id="rect22780" style="stroke:none" width="3" height="3" x="12" y="12" />
      <rect id="rect22782" style="opacity:0.3;stroke:none" width="6" height="6" x="5" y="5" />
    </g>
  </g>
</svg>
