<?xml version="1.0" encoding="UTF-8" standalone="no"?>
<!-- Created with Inkscape (http://www.inkscape.org/) -->

<svg xmlns:dc="http://purl.org/dc/elements/1.1/" xmlns:cc="http://creativecommons.org/ns#" xmlns:rdf="http://www.w3.org/1999/02/22-rdf-syntax-ns#" xmlns:svg="http://www.w3.org/2000/svg" xmlns="http://www.w3.org/2000/svg" xmlns:sodipodi="http://sodipodi.sourceforge.net/DTD/sodipodi-0.dtd" xmlns:inkscape="http://www.inkscape.org/namespaces/inkscape" id="SVGRoot" version="1.1" inkscape:version="0.92+devel trunk-67-g1d2fa48c9 2017-07-04 custom" width="16px" height="16px" viewBox="0 0 16 16" sodipodi:docname="object-group-symbolic.svg">
  <sodipodi:namedview id="base" pagecolor="#ffffff" bordercolor="#666666" borderopacity="1.0" inkscape:pageopacity="0.0" inkscape:pageshadow="2" inkscape:zoom="16.0" inkscape:cx="8.0" inkscape:cy="8.0" inkscape:document-units="px" inkscape:current-layer="object-group" inkscape:document-rotation="0" showgrid="false" inkscape:grid-bbox="true" />
  <defs id="defs4292" />
  <metadata id="metadata4295">
    <rdf:RDF>
      <cc:Work rdf:about="">
        <dc:format>image/svg+xml</dc:format>
        <dc:type rdf:resource="http://purl.org/dc/dcmitype/StillImage" />
        <dc:title />
      </cc:Work>
    </rdf:RDF>
  </metadata>
  <g inkscape:label="Layer 1" id="layer1" inkscape:groupmode="layer">
    <g id="object-group">
      <title id="title14467">object-group</title>
      <rect id="rect11965" style="stroke:none" width="2" height="2" x="1" y="1" />
      <rect id="rect11967" style="stroke:none" width="2" height="2" x="13" y="1" />
      <rect id="rect11969" style="stroke:none" width="2" height="2" x="1" y="13" />
      <rect id="rect11971" style="stroke:none" width="2" height="2" x="13" y="13" />
      <path id="path2905" style="stroke:none" transform="translate(-79,-241)" d="M 89,247.5 A 3.5,3.5 0 0 1 85.5,251 3.5,3.5 0 0 1 82,247.5 3.5,3.5 0 0 1 85.5,244 3.5,3.5 0 0 1 89,247.5" />
      <path id="rect2909" style="stroke:none" d="M 10.9375,6 C 10.95624,6.16677 11,6.32822 11,6.5 11,8.8135 9.246085,10.68511 7,10.9375 V 12 h 6 V 6 Z" inkscape:connector-curvature="0" />
    </g>
  </g>
</svg>
