<?xml version="1.0" encoding="UTF-8" standalone="no"?>
<!-- Created with Inkscape (http://www.inkscape.org/) -->

<svg xmlns:dc="http://purl.org/dc/elements/1.1/" xmlns:cc="http://creativecommons.org/ns#" xmlns:rdf="http://www.w3.org/1999/02/22-rdf-syntax-ns#" xmlns:svg="http://www.w3.org/2000/svg" xmlns="http://www.w3.org/2000/svg" xmlns:sodipodi="http://sodipodi.sourceforge.net/DTD/sodipodi-0.dtd" xmlns:inkscape="http://www.inkscape.org/namespaces/inkscape" id="SVGRoot" version="1.1" inkscape:version="0.92+devel trunk-69-gf61892a23 2017-07-04 custom" width="16px" height="16px" viewBox="0 0 16 16" sodipodi:docname="object-tweak-blur-symbolic.svg">
  <sodipodi:namedview id="base" pagecolor="#ffffff" bordercolor="#666666" borderopacity="1.0" inkscape:pageopacity="0.0" inkscape:pageshadow="2" inkscape:zoom="16.0" inkscape:cx="8.0" inkscape:cy="8.0" inkscape:document-units="px" inkscape:current-layer="layer1" inkscape:document-rotation="0" showgrid="false" inkscape:grid-bbox="true" />
  <defs id="defs5397" />
  <metadata id="metadata5400">
    <rdf:RDF>
      <cc:Work rdf:about="">
        <dc:format>image/svg+xml</dc:format>
        <dc:type rdf:resource="http://purl.org/dc/dcmitype/StillImage" />
        <dc:title></dc:title>
      </cc:Work>
    </rdf:RDF>
  </metadata>
  <g inkscape:label="Layer 1" id="layer1" inkscape:groupmode="layer">
    <g id="object-tweak-blur">
      <title id="title130542">object-tweak-blur</title>
      <path id="path7657" style="stroke:none" d="M 3.3718804,1.9968195 A 1.3405904,1.3405904 0 0 1 2.0312901,3.3374099 1.3405904,1.3405904 0 0 1 0.6906997,1.9968195 1.3405904,1.3405904 0 0 1 2.0312901,0.65622914 1.3405904,1.3405904 0 0 1 3.3718804,1.9968195" />
      <path id="use7660" style="stroke:none" d="M 11.933653,1.996931 A 1.0406743,1.0406743 0 0 1 10.892979,3.0376053 1.0406743,1.0406743 0 0 1 9.8523043,1.996931 1.0406743,1.0406743 0 0 1 10.892979,0.95625663 1.0406743,1.0406743 0 0 1 11.933653,1.996931" />
      <path id="use7662" style="stroke:none" d="M 14.90911,5.0241899 A 1.062608,1.062608 0 0 1 13.846502,6.086798 1.062608,1.062608 0 0 1 12.783894,5.0241899 1.062608,1.062608 0 0 1 13.846502,3.9615819 1.062608,1.062608 0 0 1 14.90911,5.0241899" />
      <path id="use7664" style="stroke:none" d="m 15.056299,8.0515347 a 1.2099169,1.2099169 0 0 1 -1.209917,1.2099169 1.2099169,1.2099169 0 0 1 -1.209917,-1.2099169 1.2099169,1.2099169 0 0 1 1.209917,-1.209917 1.2099169,1.2099169 0 0 1 1.209917,1.209917" />
      <path id="use7666" style="stroke:none" d="M 5.9319249,1.9968592 A 0.94691664,0.94691664 0 0 1 4.9850082,2.9437758 0.94691664,0.94691664 0 0 1 4.0380916,1.9968592 0.94691664,0.94691664 0 0 1 4.9850082,1.0499426 0.94691664,0.94691664 0 0 1 5.9319249,1.9968592" />
      <path id="use7668" style="stroke:none" d="M 15.18698,1.9968195 A 1.3405904,1.3405904 0 0 1 13.84639,3.3374099 1.3405904,1.3405904 0 0 1 12.505799,1.9968195 1.3405904,1.3405904 0 0 1 13.84639,0.65622914 1.3405904,1.3405904 0 0 1 15.18698,1.9968195" />
      <path id="use7670" style="stroke:none" d="M 3.2470046,8.0516052 A 1.2157298,1.2157298 0 0 1 2.0312748,9.2673351 1.2157298,1.2157298 0 0 1 0.81554496,8.0516052 1.2157298,1.2157298 0 0 1 2.0312748,6.8358754 1.2157298,1.2157298 0 0 1 3.2470046,8.0516052" />
      <path id="use7672" style="stroke:none" d="M 3.0674126,11.078877 A 1.0362847,1.0362847 0 0 1 2.0311279,12.115162 1.0362847,1.0362847 0 0 1 0.99484324,11.078877 1.0362847,1.0362847 0 0 1 2.0311279,10.042593 1.0362847,1.0362847 0 0 1 3.0674126,11.078877" />
      <path id="use7674" style="stroke:none" d="M 9.1749347,1.9968578 A 1.2360882,1.2360882 0 0 1 7.9388466,3.2329459 1.2360882,1.2360882 0 0 1 6.7027584,1.9968578 1.2360882,1.2360882 0 0 1 7.9388466,0.76076961 1.2360882,1.2360882 0 0 1 9.1749347,1.9968578" />
      <path id="use7676" style="stroke:none" d="M 3.0954005,5.0242348 A 1.0640379,1.0640379 0 0 1 2.0313625,6.0882727 1.0640379,1.0640379 0 0 1 0.96732461,5.0242348 1.0640379,1.0640379 0 0 1 2.0313625,3.9601969 1.0640379,1.0640379 0 0 1 3.0954005,5.0242348" />
      <path id="use7696" style="stroke:none" d="m 11.998871,14.106235 a 1.1063064,1.1063064 0 0 1 -1.106306,1.106306 1.1063064,1.1063064 0 0 1 -1.1063067,-1.106306 1.1063064,1.1063064 0 0 1 1.1063067,-1.106307 1.1063064,1.1063064 0 0 1 1.106306,1.106307" />
      <path id="use7698" style="stroke:none" d="m 14.941944,11.079001 a 1.0954479,1.0954479 0 0 1 -1.095447,1.095448 1.0954479,1.0954479 0 0 1 -1.095448,-1.095448 1.0954479,1.0954479 0 0 1 1.095448,-1.0954475 1.0954479,1.0954479 0 0 1 1.095447,1.0954475" />
      <path id="use7700" style="stroke:none" d="m 3.3718804,14.106319 a 1.3405904,1.3405904 0 0 1 -1.3405903,1.340591 1.3405904,1.3405904 0 0 1 -1.3405904,-1.340591 1.3405904,1.3405904 0 0 1 1.3405904,-1.34059 1.3405904,1.3405904 0 0 1 1.3405903,1.34059" />
      <path id="use7702" style="stroke:none" d="M 6.0305372,14.106183 A 1.0456377,1.0456377 0 0 1 4.9848995,15.151821 1.0456377,1.0456377 0 0 1 3.9392618,14.106183 1.0456377,1.0456377 0 0 1 4.9848995,13.060545 1.0456377,1.0456377 0 0 1 6.0305372,14.106183" />
      <path id="use7704" style="stroke:none" d="M 9.1860921,14.106396 A 1.2470434,1.2470434 0 0 1 7.9390488,15.353439 1.2470434,1.2470434 0 0 1 6.6920054,14.106396 1.2470434,1.2470434 0 0 1 7.9390488,12.859352 1.2470434,1.2470434 0 0 1 9.1860921,14.106396" />
      <path id="use7706" style="stroke:none" d="m 15.18698,14.106319 a 1.3405904,1.3405904 0 0 1 -1.34059,1.340591 1.3405904,1.3405904 0 0 1 -1.340591,-1.340591 1.3405904,1.3405904 0 0 1 1.340591,-1.34059 1.3405904,1.3405904 0 0 1 1.34059,1.34059" />
      <circle id="path18244" style="stroke:none;stroke-width:0" r="0" cx="2.9388008" cy="1.76072" />
      <path id="path5487" style="color:#000000;opacity:0.3;fill-opacity:1;fill-rule:nonzero;stroke:none;stroke-opacity:1;stroke-width:0.32975498;stroke-linecap:butt;stroke-linejoin:miter;stroke-miterlimit:4;stroke-dasharray:none;stroke-dashoffset:0;solid-color:#000000;solid-opacity:1;mix-blend-mode:normal;isolation:auto;display:inline;visibility:visible;clip-rule:nonzero;color-interpolation:sRGB;color-rendering:auto;shape-rendering:auto" d="M 5.0742188 3.6484375 C 4.255038 3.6484375 3.5859375 4.3155848 3.5859375 5.1347656 C 3.5859375 5.9539464 4.255038 6.6210937 5.0742188 6.6210938 C 5.8933995 6.6210938 6.5605469 5.9539464 6.5605469 5.1347656 C 6.5605469 4.3155848 5.8933995 3.6484375 5.0742188 3.6484375 z M 5.0742188 3.9785156 C 5.7151867 3.9785156 6.2304688 4.4937977 6.2304688 5.1347656 C 6.2304688 5.7757336 5.7151867 6.2910156 5.0742188 6.2910156 C 4.4332508 6.2910156 3.9160156 5.7757336 3.9160156 5.1347656 C 3.9160156 4.4937977 4.4332508 3.9785156 5.0742188 3.9785156 z " />
      <path id="path18276" style="opacity:0.3;stroke:none" d="M 8.9021261,5.1345959 A 0.87488914,0.87488914 0 0 1 8.0272369,6.009485 0.87488914,0.87488914 0 0 1 7.1523478,5.1345959 0.87488914,0.87488914 0 0 1 8.0272369,4.2597067 0.87488914,0.87488914 0 0 1 8.9021261,5.1345959" />
      <path id="path5493" style="color:#000000;opacity:0.3;fill-opacity:1;fill-rule:nonzero;stroke:none;stroke-opacity:1;stroke-width:0.32975498;stroke-linecap:butt;stroke-linejoin:miter;stroke-miterlimit:4;stroke-dasharray:none;stroke-dashoffset:0;solid-color:#000000;solid-opacity:1;mix-blend-mode:normal;isolation:auto;display:inline;visibility:visible;clip-rule:nonzero;color-interpolation:sRGB;color-rendering:auto;shape-rendering:auto" d="M 10.951172 3.6035156 C 10.131991 3.6035156 9.4648438 4.270663 9.4648438 5.0898438 C 9.4648438 5.9090245 10.131991 6.578125 10.951172 6.578125 C 11.770353 6.578125 12.4375 5.9090245 12.4375 5.0898438 C 12.4375 4.270663 11.770353 3.6035156 10.951172 3.6035156 z M 10.951172 3.9335938 C 11.59214 3.9335938 12.107422 4.4488758 12.107422 5.0898438 C 12.107422 5.7308117 11.59214 6.2480469 10.951172 6.2480469 C 10.310204 6.2480469 9.7949219 5.7308117 9.7949219 5.0898438 C 9.7949219 4.4488758 10.310204 3.9335937 10.951172 3.9335938 z " />
      <path id="path18280" style="opacity:0.3;stroke:none" d="M 5.9229684,8.1345682 A 0.84957933,0.84957933 0 0 1 5.0733891,8.9841475 0.84957933,0.84957933 0 0 1 4.2238097,8.1345682 0.84957933,0.84957933 0 0 1 5.0733891,7.2849889 0.84957933,0.84957933 0 0 1 5.9229684,8.1345682" />
      <path id="path5499" style="color:#000000;opacity:0.3;fill-opacity:1;fill-rule:nonzero;stroke:none;stroke-opacity:1;stroke-width:0.32975498;stroke-linecap:butt;stroke-linejoin:miter;stroke-miterlimit:4;stroke-dasharray:none;stroke-dashoffset:0;solid-color:#000000;solid-opacity:1;mix-blend-mode:normal;isolation:auto;display:inline;visibility:visible;clip-rule:nonzero;color-interpolation:sRGB;color-rendering:auto;shape-rendering:auto" d="M 8.0273438 6.734375 C 7.2555647 6.734375 6.6269531 7.3629866 6.6269531 8.1347656 C 6.6269531 8.9065447 7.2555647 9.5351562 8.0273438 9.5351562 C 8.7991228 9.5351562 9.4277344 8.9065447 9.4277344 8.1347656 C 9.4277344 7.3629866 8.7991228 6.734375 8.0273438 6.734375 z M 8.0273438 7.0625 C 8.62091 7.0625 9.0976562 7.5411994 9.0976562 8.1347656 C 9.0976562 8.7283319 8.62091 9.2050781 8.0273438 9.2050781 C 7.4337775 9.2050781 6.9550781 8.7283319 6.9550781 8.1347656 C 6.9550781 7.5411994 7.4337775 7.0625 8.0273438 7.0625 z " />
      <path id="path18284" style="opacity:0.3;stroke:none" d="M 11.772999,8.0904198 A 0.82179475,0.82179475 0 0 1 10.951204,8.9122145 0.82179475,0.82179475 0 0 1 10.12941,8.0904198 0.82179475,0.82179475 0 0 1 10.951204,7.268625 0.82179475,0.82179475 0 0 1 11.772999,8.0904198" />
      <path id="path5505" style="color:#000000;opacity:0.3;fill-opacity:1;fill-rule:nonzero;stroke:none;stroke-opacity:1;stroke-width:0.32975498;stroke-linecap:butt;stroke-linejoin:miter;stroke-miterlimit:4;stroke-dasharray:none;stroke-dashoffset:0;solid-color:#000000;solid-opacity:1;mix-blend-mode:normal;isolation:auto;display:inline;visibility:visible;clip-rule:nonzero;color-interpolation:sRGB;color-rendering:auto;shape-rendering:auto" d="M 5.0742188 9.6484375 C 4.255038 9.6484375 3.5859375 10.315585 3.5859375 11.134766 C 3.5859375 11.953946 4.255038 12.621094 5.0742188 12.621094 C 5.8933995 12.621094 6.5605469 11.953946 6.5605469 11.134766 C 6.5605469 10.315585 5.8933995 9.6484375 5.0742188 9.6484375 z M 5.0742188 9.9785156 C 5.7151867 9.9785156 6.2304688 10.493798 6.2304688 11.134766 C 6.2304688 11.775734 5.7151867 12.291016 5.0742188 12.291016 C 4.4332508 12.291016 3.9160156 11.775734 3.9160156 11.134766 C 3.9160156 10.493798 4.4332508 9.9785156 5.0742188 9.9785156 z " />
      <path id="path18288" style="opacity:0.3;stroke:none" d="M 8.8187705,11.134564 A 0.7915355,0.7915355 0 0 1 8.027235,11.9261 0.7915355,0.7915355 0 0 1 7.2356995,11.134564 0.7915355,0.7915355 0 0 1 8.027235,10.343029 0.7915355,0.7915355 0 0 1 8.8187705,11.134564" />
      <path id="path5511" style="color:#000000;opacity:0.3;fill-opacity:1;fill-rule:nonzero;stroke:none;stroke-opacity:1;stroke-width:0.32975498;stroke-linecap:butt;stroke-linejoin:miter;stroke-miterlimit:4;stroke-dasharray:none;stroke-dashoffset:0;solid-color:#000000;solid-opacity:1;mix-blend-mode:normal;isolation:auto;display:inline;visibility:visible;clip-rule:nonzero;color-interpolation:sRGB;color-rendering:auto;shape-rendering:auto" d="M 10.951172 9.6035156 C 10.131991 9.6035156 9.4648438 10.270663 9.4648438 11.089844 C 9.4648438 11.909025 10.131991 12.578125 10.951172 12.578125 C 11.770353 12.578125 12.4375 11.909025 12.4375 11.089844 C 12.4375 10.270663 11.770353 9.6035156 10.951172 9.6035156 z M 10.951172 9.9335938 C 11.59214 9.9335938 12.107422 10.448876 12.107422 11.089844 C 12.107422 11.730812 11.59214 12.248047 10.951172 12.248047 C 10.310204 12.248047 9.7949219 11.730812 9.7949219 11.089844 C 9.7949219 10.448876 10.310204 9.9335938 10.951172 9.9335938 z " />
      <path id="path18292" style="stroke:none" d="M 5.6965285,5.1357474 A 0.60775858,0.62500006 0 0 1 5.0887699,5.7607475 0.60775858,0.62500006 0 0 1 4.4810113,5.1357474 a 0.60775858,0.62500006 0 0 1 0.6077586,-0.625 0.60775858,0.62500006 0 0 1 0.6077586,0.625" />
      <path id="path18294" style="stroke:none" d="m 5.6340285,11.104497 a 0.60775858,0.62500006 0 0 1 -0.6077586,0.625 0.60775858,0.62500006 0 0 1 -0.6077586,-0.625 0.60775858,0.62500006 0 0 1 0.6077586,-0.625 0.60775858,0.62500006 0 0 1 0.6077586,0.625" />
      <path id="path18296" style="stroke:none" d="m 11.540229,5.0732474 a 0.60775858,0.62500006 0 0 1 -0.607759,0.6250001 0.60775858,0.62500006 0 0 1 -0.607758,-0.6250001 0.60775858,0.62500006 0 0 1 0.607758,-0.625 0.60775858,0.62500006 0 0 1 0.607759,0.625" />
      <path id="path18298" style="stroke:none" d="m 11.540229,11.135747 a 0.60775858,0.62500006 0 0 1 -0.607759,0.625 0.60775858,0.62500006 0 0 1 -0.607758,-0.625 0.60775858,0.62500006 0 0 1 0.607758,-0.625 0.60775858,0.62500006 0 0 1 0.607759,0.625" />
    </g>
  </g>
</svg>
