<?xml version="1.0" encoding="UTF-8" standalone="no"?>
<!-- Created with Inkscape (http://www.inkscape.org/) -->

<svg xmlns:dc="http://purl.org/dc/elements/1.1/" xmlns:cc="http://creativecommons.org/ns#" xmlns:rdf="http://www.w3.org/1999/02/22-rdf-syntax-ns#" xmlns:svg="http://www.w3.org/2000/svg" xmlns="http://www.w3.org/2000/svg" xmlns:sodipodi="http://sodipodi.sourceforge.net/DTD/sodipodi-0.dtd" xmlns:inkscape="http://www.inkscape.org/namespaces/inkscape" id="SVGRoot" version="1.1" inkscape:version="0.92+devel trunk-69-gf61892a23 2017-07-04 custom" width="16px" height="16px" viewBox="0 0 16 16" sodipodi:docname="paint-gradient-linear-symbolic.svg">
  <sodipodi:namedview id="base" pagecolor="#ffffff" bordercolor="#666666" borderopacity="1.0" inkscape:pageopacity="0.0" inkscape:pageshadow="2" inkscape:zoom="16.0" inkscape:cx="8.0" inkscape:cy="8.0" inkscape:document-units="px" inkscape:current-layer="paint-gradient-linear" inkscape:document-rotation="0" showgrid="false" inkscape:grid-bbox="true" />
  <defs id="defs5311" />
  <metadata id="metadata5314">
    <rdf:RDF>
      <cc:Work rdf:about="">
        <dc:format>image/svg+xml</dc:format>
        <dc:type rdf:resource="http://purl.org/dc/dcmitype/StillImage" />
        <dc:title></dc:title>
      </cc:Work>
    </rdf:RDF>
  </metadata>
  <g inkscape:label="Layer 1" id="layer1" inkscape:groupmode="layer">
    <g id="paint-gradient-linear">
      <title id="title111983">paint-gradient-linear</title>
      <rect id="rect20698-3" style="stroke:none" width="4" height="16" x="0" y="0" />
      <rect id="rect20712-1" style="stroke:none" width="1" height="1" x="4" y="4.0003662" />
      <rect id="rect20714-5" style="stroke:none" width="1" height="1" x="6" y="4.0003662" />
      <rect id="rect20716-5" style="stroke:none" width="1" height="1" x="5" y="5.0003662" />
      <rect id="rect20718-2" style="stroke:none" width="1" height="1" x="4" y="6.0003662" />
      <rect id="rect20720-0" style="stroke:none" width="1" height="1" x="6" y="6.0003662" />
      <rect id="rect20722-4" style="stroke:none" width="1" height="1" x="5" y="7.0003662" />
      <rect id="rect20724-1" style="stroke:none" width="1" height="1" x="4" y="8.0003662" />
      <rect id="rect20726-5" style="stroke:none" width="1" height="1" x="6" y="8.0003662" />
      <rect id="rect20728-6" style="stroke:none" width="1" height="1" x="5" y="9.0003662" />
      <rect id="rect20730-6" style="stroke:none" width="1" height="1" x="4" y="10.000366" />
      <rect id="rect20732-7" style="stroke:none" width="1" height="1" x="6" y="10.000366" />
      <rect id="rect20734-1" style="stroke:none" width="1" height="1" x="5" y="11.000366" />
      <rect id="rect20736-0" style="stroke:none" width="1" height="1" x="4" y="12.000366" />
      <rect id="rect20738-6" style="stroke:none" width="1" height="1" x="6" y="12.000366" />
      <rect id="rect20740-2" style="stroke:none" width="1" height="1" x="5" y="13.000366" />
      <rect id="rect20742-4" style="stroke:none" width="1" height="1" x="4" y="14.000366" />
      <rect id="rect20744-3" style="stroke:none" width="1" height="1" x="6" y="14.000366" />
      <rect id="rect20746-4" style="stroke:none" width="1" height="1" x="5" y="15.000366" />
      <rect id="rect20760-5" style="stroke:none" width="1" height="1" x="7" y="15.000366" />
      <rect id="rect20762-7" style="stroke:none" width="1" height="1" x="7" y="13.000366" />
      <rect id="rect20764-3" style="stroke:none" width="1" height="1" x="7" y="11.000366" />
      <rect id="rect20766-0" style="stroke:none" width="1" height="1" x="7" y="9.0003662" />
      <rect id="rect20768-4" style="stroke:none" width="1" height="1" x="7" y="7.0003662" />
      <rect id="rect20770-2" style="stroke:none" width="1" height="1" x="7" y="5.0003662" />
      <rect id="rect20802-8" style="opacity:0.3;stroke:none" width="4" height="16" x="8" y="0" />
      <rect id="rect20804-1" style="opacity:0.3;stroke:none" width="1" height="1" transform="scale(-1,1)" x="-15" y="0" />
      <rect id="rect20806-2" style="opacity:0.3;stroke:none" width="1" height="1" transform="scale(-1,1)" x="-13" y="0" />
      <rect id="rect20808-0" style="opacity:0.3;stroke:none" width="1" height="1" transform="scale(-1,1)" x="-14" y="1" />
      <rect id="rect20812-5" style="opacity:0.3;stroke:none" width="1" height="1" transform="scale(-1,1)" x="-13" y="2" />
      <rect id="rect20814-3" style="opacity:0.3;stroke:none" width="1" height="1" transform="scale(-1,1)" x="-15" y="2" />
      <rect id="rect20816-8" style="opacity:0.3;stroke:none" width="1" height="1" transform="scale(-1,1)" x="-14" y="3" />
      <rect id="rect20820-1" style="opacity:0.3;stroke:none" width="1" height="1" transform="scale(-1,1)" x="-13" y="4" />
      <rect id="rect20822-4" style="opacity:0.3;stroke:none" width="1" height="1" transform="scale(-1,1)" x="-15" y="4" />
      <rect id="rect20824-1" style="opacity:0.3;stroke:none" width="1" height="1" transform="scale(-1,1)" x="-14" y="5" />
      <rect id="rect20828-5" style="opacity:0.3;stroke:none" width="1" height="1" transform="scale(-1,1)" x="-13" y="6" />
      <rect id="rect20830-9" style="opacity:0.3;stroke:none" width="1" height="1" transform="scale(-1,1)" x="-15" y="6" />
      <rect id="rect20832-3" style="opacity:0.3;stroke:none" width="1" height="1" transform="scale(-1,1)" x="-14" y="7" />
      <rect id="rect20836-1" style="opacity:0.3;stroke:none" width="1" height="1" transform="scale(-1,1)" x="-13" y="8" />
      <rect id="rect20838-6" style="opacity:0.3;stroke:none" width="1" height="1" transform="scale(-1,1)" x="-15" y="8" />
      <rect id="rect20842-4" style="opacity:0.3;stroke:none" width="1" height="1" transform="scale(-1,1)" x="-14" y="9" />
      <rect id="rect20844-7" style="opacity:0.3;stroke:none" width="1" height="1" transform="scale(-1,1)" x="-15" y="10" />
      <rect id="rect20846-8" style="opacity:0.3;stroke:none" width="1" height="1" transform="scale(-1,1)" x="-13" y="10" />
      <rect id="rect20850-0" style="opacity:0.3;stroke:none" width="1" height="1" transform="scale(-1,1)" x="-14" y="11" />
      <rect id="rect20852-2" style="opacity:0.3;stroke:none" width="1" height="1" transform="scale(-1,1)" x="-15" y="12" />
      <rect id="rect20854-2" style="opacity:0.3;stroke:none" width="1" height="1" transform="scale(-1,1)" x="-13" y="12" />
      <rect id="rect20858-2" style="opacity:0.3;stroke:none" width="1" height="1" transform="scale(-1,1)" x="-14" y="13" />
      <rect id="rect20860-5" style="opacity:0.3;stroke:none" width="1" height="1" transform="scale(-1,1)" x="-15" y="14" />
      <rect id="rect20862-2" style="opacity:0.3;stroke:none" width="1" height="1" transform="scale(-1,1)" x="-13" y="14" />
      <rect id="rect20866-2" style="opacity:0.3;stroke:none" width="1" height="1" transform="scale(-1,1)" x="-14" y="15" />
      <rect id="rect20886-4" style="opacity:0.3;stroke:none" width="1" height="1" transform="scale(-1,1)" x="-16" y="1" />
      <rect id="rect20888-2" style="opacity:0.3;stroke:none" width="1" height="1" transform="scale(-1,1)" x="-16" y="3" />
      <rect id="rect20890-6" style="opacity:0.3;stroke:none" width="1" height="1" transform="scale(-1,1)" x="-16" y="5" />
      <rect id="rect20892-2" style="opacity:0.3;stroke:none" width="1" height="1" transform="scale(-1,1)" x="-16" y="7" />
      <rect id="rect20894-3" style="opacity:0.3;stroke:none" width="1" height="1" transform="scale(-1,1)" x="-16" y="9" />
      <rect id="rect20896-2" style="opacity:0.3;stroke:none" width="1" height="1" transform="scale(-1,1)" x="-16" y="11" />
      <rect id="rect20898-7" style="opacity:0.3;stroke:none" width="1" height="1" transform="scale(-1,1)" x="-16" y="13" />
      <rect id="rect20900-9" style="opacity:0.3;stroke:none" width="1" height="1" transform="scale(-1,1)" x="-16" y="15" />
      <rect id="rect24746" style="stroke:none" width="1" height="1" x="4" y="0" />
      <rect id="rect24748" style="stroke:none" width="1" height="1" x="6" y="0" />
      <rect id="rect24750" style="stroke:none" width="1" height="1" x="5" y="1" />
      <rect id="rect24752" style="stroke:none" width="1" height="1" x="4" y="2" />
      <rect id="rect24754" style="stroke:none" width="1" height="1" x="6" y="2" />
      <rect id="rect24756" style="stroke:none" width="1" height="1" x="5" y="3" />
      <rect id="rect24758" style="stroke:none" width="1" height="1" x="7" y="3" />
      <rect id="rect24760" style="stroke:none" width="1" height="1" x="7" y="1" />
    </g>
  </g>
</svg>
