<?xml version="1.0" encoding="UTF-8" standalone="no"?>
<!-- Created with Inkscape (http://www.inkscape.org/) -->

<svg xmlns:dc="http://purl.org/dc/elements/1.1/" xmlns:cc="http://creativecommons.org/ns#" xmlns:rdf="http://www.w3.org/1999/02/22-rdf-syntax-ns#" xmlns:svg="http://www.w3.org/2000/svg" xmlns="http://www.w3.org/2000/svg" xmlns:sodipodi="http://sodipodi.sourceforge.net/DTD/sodipodi-0.dtd" xmlns:inkscape="http://www.inkscape.org/namespaces/inkscape" id="SVGRoot" version="1.1" inkscape:version="0.92+devel trunk-90-g42bf908b4 2017-07-06 custom" width="16px" height="16px" viewBox="0 0 16 16" sodipodi:docname="paint-unknown-symbolic.svg">
  <sodipodi:namedview id="base" pagecolor="#ffffff" bordercolor="#666666" borderopacity="1.0" inkscape:pageopacity="0.0" inkscape:pageshadow="2" inkscape:zoom="16.0" inkscape:cx="8.0" inkscape:cy="8.0" inkscape:document-units="px" inkscape:current-layer="paint-unknown" inkscape:document-rotation="0" showgrid="false" inkscape:grid-bbox="true">
    <inkscape:grid type="xygrid" id="grid141" empspacing="2" />
  </sodipodi:namedview>
  <defs id="defs6244" />
  <metadata id="metadata6247">
    <rdf:RDF>
      <cc:Work rdf:about="">
        <dc:format>image/svg+xml</dc:format>
        <dc:type rdf:resource="http://purl.org/dc/dcmitype/StillImage" />
        <dc:title />
      </cc:Work>
    </rdf:RDF>
  </metadata>
  <g inkscape:label="Layer 1" id="layer1" inkscape:groupmode="layer">
    <g id="paint-unknown">
      <title id="title112344">paint-unknown</title>
      <g id="g144" transform="matrix(0.75,0,0,0.75,2,2)">
        <path id="path12097" style="stroke:none" d="M 8.2188,0 C 6.4262,0 5.2774,0.4931 4.1875,1.2188 3.5278,1.6514 3.0486,2.1845 2.7188,2.8125 2.3746,3.4266 2.1875,4.5064 2.1875,5.3438 H 6.625 V 4.6563 C 6.6465,3.2537 7.3992,3.0938 7.8438,3.0938 c 0.4014,0 0.7444,0.1204 1.0312,0.3437 0.3011,0.2233 0.4375,0.5122 0.4375,0.875 0,0.5164 -0.4105,0.77 -0.9375,1.2188 C 7.5296,6.2512 6.7971,6.8013 6.625,6.9688 5.9941,7.5688 5.1917,8.0861 5.4375,10 h 4.4688 c 0,-0.7815 0.0135,-1.2549 0.6875,-1.6875 L 12.625,6.6875 C 13.3706,6.0595 13.75,5.1823 13.75,4.0938 13.75,2.7959 13.1565,1.7676 11.9375,1 10.862,0.3302 9.6097,0 8.2188,0 Z M 5.5,11.625 V 16 h 4.375 v -4.375 z" inkscape:connector-curvature="0" />
      </g>
    </g>
  </g>
</svg>
