<?xml version="1.0" encoding="UTF-8" standalone="no"?>
<!-- Created with Inkscape (http://www.inkscape.org/) -->

<svg xmlns:dc="http://purl.org/dc/elements/1.1/" xmlns:cc="http://creativecommons.org/ns#" xmlns:rdf="http://www.w3.org/1999/02/22-rdf-syntax-ns#" xmlns:svg="http://www.w3.org/2000/svg" xmlns="http://www.w3.org/2000/svg" xmlns:sodipodi="http://sodipodi.sourceforge.net/DTD/sodipodi-0.dtd" xmlns:inkscape="http://www.inkscape.org/namespaces/inkscape" id="SVGRoot" version="1.1" inkscape:version="0.92+devel trunk-69-gf61892a23 2017-07-04 custom" width="16px" height="16px" viewBox="0 0 16 16" sodipodi:docname="path-mode-polyline-symbolic.svg">
  <sodipodi:namedview id="base" pagecolor="#ffffff" bordercolor="#666666" borderopacity="1.0" inkscape:pageopacity="0.0" inkscape:pageshadow="2" inkscape:zoom="16.0" inkscape:cx="8.0" inkscape:cy="8.0" inkscape:document-units="px" inkscape:current-layer="path-mode-polyline" inkscape:document-rotation="0" showgrid="false" inkscape:grid-bbox="true" />
  <defs id="defs4613" />
  <metadata id="metadata4616">
    <rdf:RDF>
      <cc:Work rdf:about="">
        <dc:format>image/svg+xml</dc:format>
        <dc:type rdf:resource="http://purl.org/dc/dcmitype/StillImage" />
        <dc:title></dc:title>
      </cc:Work>
    </rdf:RDF>
  </metadata>
  <g inkscape:label="Layer 1" id="layer1" inkscape:groupmode="layer">
    <g id="path-mode-polyline">
      <title id="title9729">path-mode-polyline</title>
      <path id="path4645" style="color:#000000;opacity:1;fill-opacity:1;fill-rule:nonzero;stroke:none;stroke-opacity:1;stroke-width:1.625px;stroke-linecap:round;stroke-linejoin:round;stroke-miterlimit:4;stroke-dasharray:none;stroke-dashoffset:0;solid-color:#000000;solid-opacity:1;mix-blend-mode:normal;isolation:auto;display:inline;visibility:visible;clip-rule:nonzero;color-interpolation:sRGB;color-rendering:auto;shape-rendering:auto" d="M 6.6757812 0.01171875 A 0.81258125 0.81258125 0 0 0 6.1757812 0.1875 L 0.30859375 4.8222656 A 0.81258125 0.81258125 0 0 0 0.44921875 6.1875 L 4.1914062 8.0605469 L 2.6054688 15.005859 A 0.81258125 0.81258125 0 0 0 3.9199219 15.808594 L 9.7871094 10.859375 L 14.8125 13.375 A 0.8125 0.8125 0 0 0 15.902344 13.011719 A 0.8125 0.8125 0 0 0 15.539062 11.921875 L 11.138672 9.7207031 L 13.287109 7.9082031 A 0.8125 0.8125 0 0 0 13.384766 6.7617188 A 0.8125 0.8125 0 0 0 12.240234 6.6660156 L 9.5566406 8.9277344 L 6.0605469 7.1796875 L 7.4707031 1.0058594 A 0.81258125 0.81258125 0 0 0 6.6757812 0.01171875 z M 5.3730469 2.8925781 L 4.5644531 6.4296875 L 2.3183594 5.3066406 L 5.3730469 2.8925781 z M 5.6875 8.8085938 L 8.2050781 10.068359 L 4.7304688 13 L 5.6875 8.8085938 z " />
    </g>
  </g>
</svg>
