<?xml version="1.0" encoding="UTF-8" standalone="no"?>
<!-- Created with Inkscape (http://www.inkscape.org/) -->

<svg xmlns:dc="http://purl.org/dc/elements/1.1/" xmlns:cc="http://creativecommons.org/ns#" xmlns:rdf="http://www.w3.org/1999/02/22-rdf-syntax-ns#" xmlns:svg="http://www.w3.org/2000/svg" xmlns="http://www.w3.org/2000/svg" xmlns:sodipodi="http://sodipodi.sourceforge.net/DTD/sodipodi-0.dtd" xmlns:inkscape="http://www.inkscape.org/namespaces/inkscape" id="SVGRoot" version="1.1" inkscape:version="0.92+devel trunk-69-gf61892a23 2017-07-04 custom" width="16px" height="16px" viewBox="0 0 16 16" sodipodi:docname="path-effect-parameter-next-symbolic.svg">
  <sodipodi:namedview id="base" pagecolor="#ffffff" bordercolor="#666666" borderopacity="1.0" inkscape:pageopacity="0.0" inkscape:pageshadow="2" inkscape:zoom="16.0" inkscape:cx="8.0" inkscape:cy="8.0" inkscape:document-units="px" inkscape:current-layer="path-effect-parameter-next" inkscape:document-rotation="0" showgrid="false" inkscape:grid-bbox="true" />
  <defs id="defs5036" />
  <metadata id="metadata5039">
    <rdf:RDF>
      <cc:Work rdf:about="">
        <dc:format>image/svg+xml</dc:format>
        <dc:type rdf:resource="http://purl.org/dc/dcmitype/StillImage" />
        <dc:title />
      </cc:Work>
    </rdf:RDF>
  </metadata>
  <g inkscape:label="Layer 1" id="layer1" inkscape:groupmode="layer">
    <g id="path-effect-parameter-next">
      <title id="title9641">path-effect-parameter-next</title>
      <path id="path9256" style="stroke:none" d="m 13.4301,1.9465174 c -5.5785,1.0362 -10.5734,4.7355 -11.4063,11.4374996 a 0.50389111,0.50389111 0 1 0 1,0.125 C 3.8025,7.2424174 8.3454,3.9258174 13.6176,2.9465174 a 0.50871314,0.50871314 0 1 0 -0.1875,-1 z" inkscape:connector-curvature="0" />
      <path id="path17065" style="stroke:none" d="m 9,9 v 6 l 4,-3 z" inkscape:connector-curvature="0" />
      <rect id="rect17067" style="stroke:none" width="1" height="6" x="14" y="9" />
      <path id="path17075" style="stroke:none" d="M 15,2.5 A 1.5,1.5 0 0 1 13.5,4 1.5,1.5 0 0 1 12,2.5 1.5,1.5 0 0 1 13.5,1 1.5,1.5 0 0 1 15,2.5" />
      <path id="path17077" style="stroke:none;stroke-width:1.22474492" d="M 4,13.5 A 1.5,1.5 0 0 1 2.5,15 1.5,1.5 0 0 1 1,13.5 1.5,1.5 0 0 1 2.5,12 1.5,1.5 0 0 1 4,13.5" />
      <path id="path17141" style="stroke:none" d="m 2.983,4.2090174 c -1.2435,1.8693 -1.2766,4.2067 0.2444,5.615 1.4792,0.8067996 2.9545,0.6485996 4.7753,-0.9867 -3.248,0.4264 -4.9899,-1.103 -5.0197,-4.6283 z" inkscape:connector-curvature="0" />
      <path id="path17143" style="stroke:none" d="m 8.9234,1.1123174 c -1.5099,0.9137 -2.2988,2.505 -1.6614,3.9183 0.8042,0.9889 1.9214,1.3157 3.7716,0.7325 -2.4852,-0.6659 -3.2426,-2.2272 -2.1102,-4.6508 z" inkscape:connector-curvature="0" />
    </g>
  </g>
</svg>
