<?xml version="1.0" encoding="UTF-8" standalone="no"?>
<!-- Created with Inkscape (http://www.inkscape.org/) -->

<svg xmlns:dc="http://purl.org/dc/elements/1.1/" xmlns:cc="http://creativecommons.org/ns#" xmlns:rdf="http://www.w3.org/1999/02/22-rdf-syntax-ns#" xmlns:svg="http://www.w3.org/2000/svg" xmlns="http://www.w3.org/2000/svg" xmlns:sodipodi="http://sodipodi.sourceforge.net/DTD/sodipodi-0.dtd" xmlns:inkscape="http://www.inkscape.org/namespaces/inkscape" id="SVGRoot" version="1.1" inkscape:version="0.92+devel trunk-69-gf61892a23 2017-07-04 custom" width="16px" height="16px" viewBox="0 0 16 16" sodipodi:docname="path-clip-edit-symbolic.svg">
  <sodipodi:namedview id="base" pagecolor="#ffffff" bordercolor="#666666" borderopacity="1.0" inkscape:pageopacity="0.0" inkscape:pageshadow="2" inkscape:zoom="16.0" inkscape:cx="8.0" inkscape:cy="8.0" inkscape:document-units="px" inkscape:current-layer="path-clip-edit" inkscape:document-rotation="0" showgrid="false" inkscape:grid-bbox="true" />
  <defs id="defs4905" />
  <metadata id="metadata4908">
    <rdf:RDF>
      <cc:Work rdf:about="">
        <dc:format>image/svg+xml</dc:format>
        <dc:type rdf:resource="http://purl.org/dc/dcmitype/StillImage" />
        <dc:title></dc:title>
      </cc:Work>
    </rdf:RDF>
  </metadata>
  <g inkscape:label="Layer 1" id="layer1" inkscape:groupmode="layer">
    <g id="path-clip-edit">
      <title id="title9714">path-clip-edit</title>
      <path id="path4945" style="color:#000000;opacity:1;fill-opacity:1;fill-rule:nonzero;stroke:none;stroke-opacity:1;stroke-width:1px;stroke-linecap:butt;stroke-linejoin:miter;stroke-miterlimit:4;stroke-dasharray:none;stroke-dashoffset:0;solid-color:#000000;solid-opacity:1;mix-blend-mode:normal;isolation:auto;display:inline;visibility:visible;clip-rule:nonzero;color-interpolation:sRGB;color-rendering:auto;shape-rendering:auto" d="M 7.3769531 5.09375 L 6.6699219 5.8007812 C 8.2190265 7.3498859 9.7945401 8.2872175 11.308594 8.5625 C 12.822647 8.8377825 14.273833 8.403901 15.376953 7.3007812 L 14.669922 6.59375 C 13.773042 7.4906303 12.724228 7.8047956 11.488281 7.5800781 C 10.252335 7.3553606 8.8278485 6.5446454 7.3769531 5.09375 z " />
      <path id="path4951" style="color:#000000;opacity:1;fill-opacity:1;fill-rule:nonzero;stroke:none;stroke-opacity:1;stroke-width:1px;stroke-linecap:butt;stroke-linejoin:miter;stroke-miterlimit:4;stroke-dasharray:none;stroke-dashoffset:0;solid-color:#000000;solid-opacity:1;mix-blend-mode:normal;isolation:auto;display:inline;visibility:visible;clip-rule:nonzero;color-interpolation:sRGB;color-rendering:auto;shape-rendering:auto" d="M 6.3769531 6.59375 L 5.6699219 7.3007812 C 7.1208172 8.7516766 7.9315325 10.17421 8.15625 11.410156 C 8.3809675 12.646103 8.0668021 13.69687 7.1699219 14.59375 L 7.8769531 15.300781 C 8.9800729 14.197662 9.4159075 12.746475 9.140625 11.232422 C 8.8653425 9.7183683 7.9260578 8.1428546 6.3769531 6.59375 z " />
      <path id="path4957" style="color:#000000;opacity:1;fill-opacity:1;fill-rule:nonzero;stroke:none;stroke-opacity:1;stroke-width:1px;stroke-linecap:round;stroke-linejoin:round;stroke-miterlimit:0;stroke-dasharray:none;stroke-dashoffset:0;solid-color:#000000;solid-opacity:1;mix-blend-mode:normal;isolation:auto;display:inline;visibility:visible;clip-rule:nonzero;color-interpolation:sRGB;color-rendering:auto;shape-rendering:auto" d="M 13.517578 1.9472656 A 0.5 0.5 0 0 0 13.431641 1.9550781 C 7.8532337 2.9913192 2.8601948 6.6827953 2.0273438 13.384766 A 0.5 0.5 0 0 0 2.4628906 13.943359 A 0.5 0.5 0 0 0 3.0195312 13.507812 C 3.7982802 7.2412027 8.3430413 3.916859 13.615234 2.9375 A 0.5 0.5 0 0 0 14.015625 2.3554688 A 0.5 0.5 0 0 0 13.517578 1.9472656 z " />
      <path id="path17299" style="stroke:none" d="M 15,2.5 A 1.5,1.5 0 0 1 13.5,4 1.5,1.5 0 0 1 12,2.5 1.5,1.5 0 0 1 13.5,1 1.5,1.5 0 0 1 15,2.5" />
      <path id="path17301" style="stroke:none" d="M 4,13.5 A 1.5,1.5 0 0 1 2.5,15 1.5,1.5 0 0 1 1,13.5 1.5,1.5 0 0 1 2.5,12 1.5,1.5 0 0 1 4,13.5" />
    </g>
  </g>
</svg>
