<?xml version="1.0" encoding="UTF-8" standalone="no"?>
<!-- Created with Inkscape (http://www.inkscape.org/) -->

<svg xmlns:dc="http://purl.org/dc/elements/1.1/" xmlns:cc="http://creativecommons.org/ns#" xmlns:rdf="http://www.w3.org/1999/02/22-rdf-syntax-ns#" xmlns:svg="http://www.w3.org/2000/svg" xmlns="http://www.w3.org/2000/svg" xmlns:sodipodi="http://sodipodi.sourceforge.net/DTD/sodipodi-0.dtd" xmlns:inkscape="http://www.inkscape.org/namespaces/inkscape" id="SVGRoot" version="1.1" inkscape:version="0.92+devel trunk-69-gf61892a23 2017-07-04 custom" width="16px" height="16px" viewBox="0 0 16 16" sodipodi:docname="path-division-symbolic.svg">
  <sodipodi:namedview id="base" pagecolor="#ffffff" bordercolor="#666666" borderopacity="1.0" inkscape:pageopacity="0.0" inkscape:pageshadow="2" inkscape:zoom="16.0" inkscape:cx="8.0" inkscape:cy="8.0" inkscape:document-units="px" inkscape:current-layer="path-division" inkscape:document-rotation="0" showgrid="false" inkscape:grid-bbox="true" />
  <defs id="defs4420" />
  <metadata id="metadata4423">
    <rdf:RDF>
      <cc:Work rdf:about="">
        <dc:format>image/svg+xml</dc:format>
        <dc:type rdf:resource="http://purl.org/dc/dcmitype/StillImage" />
        <dc:title></dc:title>
      </cc:Work>
    </rdf:RDF>
  </metadata>
  <g inkscape:label="Layer 1" id="layer1" inkscape:groupmode="layer">
    <g id="path-division">
      <title id="title14672">path-division</title>
      <path id="path12415" style="stroke:none" d="m 5,4.9999974 v 4 c 0.13238,0.0152 0.36355,0 0.5,0 1.933,0 3.5,-1.567 3.5,-3.5 0,-0.16773 -0.008,-0.33856 -0.0313,-0.5 z m 5.96875,0 c 0.0149,0.16494 0.0313,0.33118 0.0313,0.5 0,3.03757 -2.46243,5.4999996 -5.5,5.4999996 -0.1583,0 -0.31384,-0.0181 -0.46875,-0.0313 v 4.03125 h 10 V 4.9999474 l -4.0313,5e-5 z" inkscape:connector-curvature="0" />
      <path id="path12456" style="opacity:0.3;stroke:none" d="M 5.5,0 C 2.46243,0 0,2.4624274 0,5.5 0,8.36875 2.19713,10.71576 5,10.96875 V 5 h 5.96875 C 10.71576,2.1971274 8.36875,0 5.5,0 Z" inkscape:connector-curvature="0" />
    </g>
  </g>
</svg>
