<?xml version="1.0" encoding="UTF-8" standalone="no"?>
<!-- Created with Inkscape (http://www.inkscape.org/) -->

<svg xmlns:dc="http://purl.org/dc/elements/1.1/" xmlns:cc="http://creativecommons.org/ns#" xmlns:rdf="http://www.w3.org/1999/02/22-rdf-syntax-ns#" xmlns:svg="http://www.w3.org/2000/svg" xmlns="http://www.w3.org/2000/svg" xmlns:sodipodi="http://sodipodi.sourceforge.net/DTD/sodipodi-0.dtd" xmlns:inkscape="http://www.inkscape.org/namespaces/inkscape" id="SVGRoot" version="1.1" inkscape:version="0.92+devel trunk-69-gf61892a23 2017-07-04 custom" width="16px" height="16px" viewBox="0 0 16 16" sodipodi:docname="path-simplify-symbolic.svg">
  <sodipodi:namedview id="base" pagecolor="#ffffff" bordercolor="#666666" borderopacity="1.0" inkscape:pageopacity="0.0" inkscape:pageshadow="2" inkscape:zoom="16.0" inkscape:cx="8.0" inkscape:cy="8.0" inkscape:document-units="px" inkscape:current-layer="path-simplify" inkscape:document-rotation="0" showgrid="false" inkscape:grid-bbox="true" />
  <defs id="defs4843" />
  <metadata id="metadata4846">
    <rdf:RDF>
      <cc:Work rdf:about="">
        <dc:format>image/svg+xml</dc:format>
        <dc:type rdf:resource="http://purl.org/dc/dcmitype/StillImage" />
        <dc:title></dc:title>
      </cc:Work>
    </rdf:RDF>
  </metadata>
  <g inkscape:label="Layer 1" id="layer1" inkscape:groupmode="layer">
    <g id="path-simplify">
      <title id="title14726">path-simplify</title>
      <path id="path15546" style="stroke:none" d="m 5,8 h 6 l -3,3 z" inkscape:connector-curvature="0" sodipodi:nodetypes="cccc" />
      <path id="path4879" style="color:#000000;opacity:1;fill-opacity:1;fill-rule:nonzero;stroke:none;stroke-opacity:1;stroke-width:2;stroke-linecap:round;stroke-linejoin:miter;stroke-miterlimit:4;stroke-dasharray:none;stroke-dashoffset:0;solid-color:#000000;solid-opacity:1;mix-blend-mode:normal;isolation:auto;display:inline;visibility:visible;clip-rule:nonzero;color-interpolation:sRGB;color-rendering:auto;shape-rendering:auto" d="M 4.4804688 0.5 C 3.7945677 0.51342773 3.1234242 0.70563303 2.5351562 1.0585938 C 1.9468884 1.4115545 1.4615781 1.9128308 1.1269531 2.5117188 A 1 1 0 0 0 1.5117188 3.8730469 A 1 1 0 0 0 2.8730469 3.4882812 C 3.0345781 3.1991842 3.2804824 2.9438199 3.5644531 2.7734375 C 3.848424 2.603055 4.1884309 2.5064819 4.5195312 2.5 C 4.9562508 2.4914504 5.4508232 2.6399968 5.9277344 2.8984375 C 6.409812 3.1596779 6.8881628 3.5322744 7.3984375 3.9472656 C 7.9091692 4.3626287 8.4580928 4.8246138 9.1171875 5.21875 C 9.7803049 5.6152923 10.55846 5.9408667 11.435547 5.9980469 C 12.676056 6.0789199 13.89185 5.591821 14.734375 4.6777344 A 1 1 0 0 0 14.677734 3.265625 A 1 1 0 0 0 13.265625 3.3222656 C 12.850358 3.7728038 12.17588 4.0418141 11.564453 4.0019531 C 11.11402 3.9725879 10.621223 3.7881811 10.142578 3.5019531 C 9.65991 3.2133193 9.1815286 2.8205011 8.6601562 2.3964844 C 8.1383267 1.972096 7.5684196 1.5132176 6.8808594 1.140625 C 6.1881327 0.76523272 5.3738316 0.48251079 4.4804688 0.5 z " />
      <path id="path4885" style="color:#000000;opacity:1;fill-opacity:1;fill-rule:nonzero;stroke:none;stroke-opacity:1;stroke-width:2;stroke-linecap:round;stroke-linejoin:miter;stroke-miterlimit:4;stroke-dasharray:none;stroke-dashoffset:0;solid-color:#000000;solid-opacity:1;mix-blend-mode:normal;isolation:auto;display:inline;visibility:visible;clip-rule:nonzero;color-interpolation:sRGB;color-rendering:auto;shape-rendering:auto" d="M 2 13 A 1 1 0 0 0 1 14 A 1 1 0 0 0 2 15 L 14 15 A 1 1 0 0 0 15 14 A 1 1 0 0 0 14 13 L 2 13 z " />
    </g>
  </g>
</svg>
