<?xml version="1.0" encoding="UTF-8" standalone="no"?>
<!-- Created with Inkscape (http://www.inkscape.org/) -->

<svg xmlns:dc="http://purl.org/dc/elements/1.1/" xmlns:cc="http://creativecommons.org/ns#" xmlns:rdf="http://www.w3.org/1999/02/22-rdf-syntax-ns#" xmlns:svg="http://www.w3.org/2000/svg" xmlns="http://www.w3.org/2000/svg" xmlns:sodipodi="http://sodipodi.sourceforge.net/DTD/sodipodi-0.dtd" xmlns:inkscape="http://www.inkscape.org/namespaces/inkscape" id="SVGRoot" version="1.1" inkscape:version="0.92+devel trunk-69-gf61892a23 2017-07-04 custom" width="16px" height="16px" viewBox="0 0 16 16" sodipodi:docname="snap-nodes-rotation-center-symbolic.svg">
  <sodipodi:namedview id="base" pagecolor="#ffffff" bordercolor="#666666" borderopacity="1.0" inkscape:pageopacity="0.0" inkscape:pageshadow="2" inkscape:zoom="16.0" inkscape:cx="8.0" inkscape:cy="8.0" inkscape:document-units="px" inkscape:current-layer="snap-nodes-rotation-center" inkscape:document-rotation="0" showgrid="false" inkscape:grid-bbox="true" />
  <defs id="defs5002" />
  <metadata id="metadata5005">
    <rdf:RDF>
      <cc:Work rdf:about="">
        <dc:format>image/svg+xml</dc:format>
        <dc:type rdf:resource="http://purl.org/dc/dcmitype/StillImage" />
        <dc:title></dc:title>
      </cc:Work>
    </rdf:RDF>
  </metadata>
  <g inkscape:label="Layer 1" id="layer1" inkscape:groupmode="layer">
    <g id="snap-nodes-rotation-center">
      <title id="title9663">snap-nodes-rotation-center</title>
      <rect id="rect22925" style="stroke:none" width="1" height="11" x="8" y="5" />
      <rect id="rect22927" style="stroke:none" width="11" height="1" x="3" y="10" />
      <path id="path18623-1" style="stroke:none" d="m 1,1e-4 v 5 c 0.9848,-0.005 2.1151,0.018 3,0 H 6 L 4.1875,3.1876 V 3.1563 C 4.5583,2.4274 5.4428,1.875 6.5625,1.875 8.0554,1.875 9.125,2.8797 9.125,3.9375 9.0359,4.4793 9.5134,5.0418 10.0625,5.0418 10.6116,5.0418 11.0891,4.4793 11,3.9375 11,1.6817 8.9356,0 6.5625,0 5.0226,0 3.6127,0.69890001 2.8125,1.8125 Z" inkscape:connector-curvature="0" />
      <rect id="rect26714" style="stroke:none" width="2" height="1.999997" x="10" y="7" />
      <rect id="rect26716" style="stroke:none" width="2" height="2" x="10" y="12" />
      <rect id="rect26718" style="stroke:none" width="2" height="2" x="5" y="12" />
      <rect id="rect26720" style="stroke:none" width="2" height="2" x="5" y="7" />
    </g>
  </g>
</svg>
