<?xml version="1.0" encoding="UTF-8" standalone="no"?>
<!-- Created with Inkscape (http://www.inkscape.org/) -->

<svg xmlns:dc="http://purl.org/dc/elements/1.1/" xmlns:cc="http://creativecommons.org/ns#" xmlns:rdf="http://www.w3.org/1999/02/22-rdf-syntax-ns#" xmlns:svg="http://www.w3.org/2000/svg" xmlns="http://www.w3.org/2000/svg" xmlns:sodipodi="http://sodipodi.sourceforge.net/DTD/sodipodi-0.dtd" xmlns:inkscape="http://www.inkscape.org/namespaces/inkscape" id="SVGRoot" version="1.1" inkscape:version="0.92+devel trunk-69-gf61892a23 2017-07-04 custom" width="16px" height="16px" viewBox="0 0 16 16" sodipodi:docname="stroke-to-path-symbolic.svg">
  <sodipodi:namedview id="base" pagecolor="#ffffff" bordercolor="#666666" borderopacity="1.0" inkscape:pageopacity="0.0" inkscape:pageshadow="2" inkscape:zoom="16.0" inkscape:cx="8.0" inkscape:cy="8.0" inkscape:document-units="px" inkscape:current-layer="stroke-to-path" inkscape:document-rotation="0" showgrid="false" inkscape:grid-bbox="true" />
  <defs id="defs9086" />
  <metadata id="metadata9089">
    <rdf:RDF>
      <cc:Work rdf:about="">
        <dc:format>image/svg+xml</dc:format>
        <dc:type rdf:resource="http://purl.org/dc/dcmitype/StillImage" />
        <dc:title></dc:title>
      </cc:Work>
    </rdf:RDF>
  </metadata>
  <g inkscape:label="Layer 1" id="layer1" inkscape:groupmode="layer">
    <g id="stroke-to-path">
      <title id="title14621">stroke-to-path</title>
      <rect id="rect22918" style="stroke:none" width="3" height="3" x="1" y="10" />
      <rect id="rect22920" style="stroke:none" width="3" height="3" x="5" y="10" />
      <rect id="rect22922" style="stroke:none" width="3" height="3" x="11" y="1" />
      <rect id="rect22924" style="stroke:none" width="3" height="3" x="11" y="5" />
      <path id="path9128" style="color:#000000;opacity:1;fill-opacity:1;fill-rule:nonzero;stroke:none;stroke-opacity:1;stroke-width:1px;stroke-linecap:butt;stroke-linejoin:miter;stroke-miterlimit:4;stroke-dasharray:none;stroke-dashoffset:0;solid-color:#000000;solid-opacity:1;mix-blend-mode:normal;isolation:auto;display:inline;visibility:visible;clip-rule:nonzero;color-interpolation:sRGB;color-rendering:auto;shape-rendering:auto" d="M 11 6 C 10.446387 6 9.8678968 5.9940931 9.2714844 6.0683594 C 8.6695886 6.1433085 8.0439804 6.3096721 7.4902344 6.6640625 C 6.9308724 7.022047 6.4933302 7.5529372 6.2539062 8.1757812 C 6.0145894 8.7983467 6 9.4306621 6 10 L 6 16 L 7 16 L 7 10 C 7 9.4560153 7.0273484 8.951779 7.1875 8.5351562 C 7.3475445 8.1188121 7.6509335 7.7480071 8.0292969 7.5058594 C 8.4132761 7.2601176 8.8916366 7.1231682 9.3945312 7.0605469 C 9.9029092 6.9972428 10.440291 7 11 7 L 16 7 L 16 6 L 11 6 z " />
      <path id="path9134" style="color:#000000;opacity:1;fill-opacity:1;fill-rule:nonzero;stroke:none;stroke-opacity:1;stroke-width:1px;stroke-linecap:butt;stroke-linejoin:miter;stroke-miterlimit:4;stroke-dasharray:none;stroke-dashoffset:0;solid-color:#000000;solid-opacity:1;mix-blend-mode:normal;isolation:auto;display:inline;visibility:visible;clip-rule:nonzero;color-interpolation:sRGB;color-rendering:auto;shape-rendering:auto" d="M 11 2 C 9.8947413 2 8.7511651 1.999177 7.6054688 2.2128906 C 6.4556807 2.4273676 5.3196 2.8710344 4.3789062 3.6269531 C 3.4356156 4.3849588 2.7468217 5.4261067 2.3847656 6.5703125 C 2.0231735 7.7130522 2 8.8868791 2 10 L 2 16 L 3 16 L 3 10 C 3 8.9039459 3.0330126 7.8345999 3.3378906 6.8710938 C 3.6423048 5.9090538 4.2251291 5.0320566 5.0039062 4.40625 C 5.7852805 3.7783565 6.7671358 3.3878918 7.7890625 3.1972656 C 8.8150811 3.0058762 9.8960837 3 11 3 L 16 3 L 16 2 L 11 2 z " />
    </g>
  </g>
</svg>
