<?xml version="1.0" encoding="UTF-8" standalone="no"?>
<!-- Created with Inkscape (http://www.inkscape.org/) -->

<svg xmlns:dc="http://purl.org/dc/elements/1.1/" xmlns:cc="http://creativecommons.org/ns#" xmlns:rdf="http://www.w3.org/1999/02/22-rdf-syntax-ns#" xmlns:svg="http://www.w3.org/2000/svg" xmlns="http://www.w3.org/2000/svg" xmlns:sodipodi="http://sodipodi.sourceforge.net/DTD/sodipodi-0.dtd" xmlns:inkscape="http://www.inkscape.org/namespaces/inkscape" id="SVGRoot" version="1.1" inkscape:version="0.92+devel trunk-75-gd3409a86d 2017-07-05 custom" width="16px" height="16px" viewBox="0 0 16 16" sodipodi:docname="text-flow-into-frame-symbolic.svg">
  <sodipodi:namedview id="base" pagecolor="#ffffff" bordercolor="#666666" borderopacity="1.0" inkscape:pageopacity="0.0" inkscape:pageshadow="2" inkscape:zoom="16.0" inkscape:cx="8.0" inkscape:cy="8.0" inkscape:document-units="px" inkscape:current-layer="text-flow-into-frame" inkscape:document-rotation="0" showgrid="false" inkscape:grid-bbox="true" />
  <defs id="defs5245" />
  <metadata id="metadata5248">
    <rdf:RDF>
      <cc:Work rdf:about="">
        <dc:format>image/svg+xml</dc:format>
        <dc:type rdf:resource="http://purl.org/dc/dcmitype/StillImage" />
        <dc:title></dc:title>
      </cc:Work>
    </rdf:RDF>
  </metadata>
  <g inkscape:label="Layer 1" id="layer1" inkscape:groupmode="layer">
    <g id="text-flow-into-frame">
      <title id="title14798">text-flow-into-frame</title>
      <path id="rect12613" style="stroke:none" d="M 0,0 V 16 H 16 V 0 Z M 1,1 H 15 V 15 H 1 Z" inkscape:connector-curvature="0" />
      <path id="path12649" style="stroke:none" d="m 10,7 h 2 v 4 h 2 l -3,3 -3,-3 h 2 z" inkscape:connector-curvature="0" />
      <path id="path18349" style="stroke:none" d="M 7.042865,8.5425326 H 3.967615 L 3.482318,10.000001 H 1.505372 L 4.330311,2.0000011 h 2.34475 L 9.5,10.000001 H 7.523053 Z M 4.45802,7.0582727 H 6.547351 L 5.50524,3.8754196 Z" inkscape:connector-curvature="0" />
    </g>
  </g>
</svg>
